ARM GAS  C:\Users\ELEASO~1\AppData\Local\Temp\ccPHNbG3.s 			page 1


   1              		.syntax unified
   2              		.cpu cortex-m0
   3              		.fpu softvfp
   4              		.eabi_attribute 20, 1
   5              		.eabi_attribute 21, 1
   6              		.eabi_attribute 23, 3
   7              		.eabi_attribute 24, 1
   8              		.eabi_attribute 25, 1
   9              		.eabi_attribute 26, 1
  10              		.eabi_attribute 30, 1
  11              		.eabi_attribute 34, 0
  12              		.eabi_attribute 18, 4
  13              		.thumb
  14              		.syntax unified
  15              		.file	"funciones.c"
  16              		.text
  17              	.Ltext0:
  18              		.cfi_sections	.debug_frame
  19              		.section	.text.Rele_TESA,"ax",%progbits
  20              		.align	2
  21              		.global	Rele_TESA
  22              		.code	16
  23              		.thumb_func
  24              		.type	Rele_TESA, %function
  25              	Rele_TESA:
  26              	.LFB34:
  27              		.file 1 "funciones.c"
   1:funciones.c   **** /* ========================================
   2:funciones.c   ****  *
   3:funciones.c   ****  * Copyright YOUR COMPANY, THE YEAR
   4:funciones.c   ****  * All Rights Reserved
   5:funciones.c   ****  * UNPUBLISHED, LICENSED SOFTWARE.
   6:funciones.c   ****  *
   7:funciones.c   ****  * CONFIDENTIAL AND PROPRIETARY INFORMATION
   8:funciones.c   ****  * WHICH IS THE PROPERTY OF your company.
   9:funciones.c   ****  *
  10:funciones.c   ****  * ========================================
  11:funciones.c   **** */
  12:funciones.c   **** #include "funciones.h"
  13:funciones.c   **** #include <project.h>
  14:funciones.c   **** 
  15:funciones.c   **** //------------------------------------------------------------------------------------
  16:funciones.c   **** /* 
  17:funciones.c   **** Rele_TESA(int accion)
  18:funciones.c   ****     Esta funcion activa un rele para accionar un mando pulsador de TESA.
  19:funciones.c   **** */
  20:funciones.c   **** //------------------------------------------------------------------------------------
  21:funciones.c   **** void Rele_TESA(int accion)
  22:funciones.c   **** {
  28              		.loc 1 22 0
  29              		.cfi_startproc
  30              		@ args = 0, pretend = 0, frame = 0
  31              		@ frame_needed = 0, uses_anonymous_args = 0
  32              	.LVL0:
  33 0000 10B5     		push	{r4, lr}
  34              		.cfi_def_cfa_offset 8
  35              		.cfi_offset 4, -8
ARM GAS  C:\Users\ELEASO~1\AppData\Local\Temp\ccPHNbG3.s 			page 2


  36              		.cfi_offset 14, -4
  23:funciones.c   ****     if (accion==ON)
  37              		.loc 1 23 0
  38 0002 0128     		cmp	r0, #1
  39 0004 06D1     		bne	.L2
  24:funciones.c   ****     {
  25:funciones.c   ****         Relay_SetDriveMode(Relay_DM_STRONG);
  40              		.loc 1 25 0
  41 0006 0530     		adds	r0, r0, #5
  42              	.LVL1:
  43 0008 FFF7FEFF 		bl	Relay_SetDriveMode
  44              	.LVL2:
  26:funciones.c   ****         Relay_Write(0u);
  45              		.loc 1 26 0
  46 000c 0020     		movs	r0, #0
  47 000e FFF7FEFF 		bl	Relay_Write
  48              	.LVL3:
  49 0012 05E0     		b	.L1
  50              	.LVL4:
  51              	.L2:
  27:funciones.c   ****         
  28:funciones.c   ****     }
  29:funciones.c   ****     else
  30:funciones.c   ****     {
  31:funciones.c   ****         
  32:funciones.c   ****         Relay_Write(1u);
  52              		.loc 1 32 0
  53 0014 0120     		movs	r0, #1
  54              	.LVL5:
  55 0016 FFF7FEFF 		bl	Relay_Write
  56              	.LVL6:
  33:funciones.c   ****         Relay_SetDriveMode(Relay_DM_RES_UP);       
  57              		.loc 1 33 0
  58 001a 0220     		movs	r0, #2
  59 001c FFF7FEFF 		bl	Relay_SetDriveMode
  60              	.LVL7:
  61              	.L1:
  34:funciones.c   ****     }
  35:funciones.c   **** }
  62              		.loc 1 35 0
  63              		@ sp needed
  64 0020 10BD     		pop	{r4, pc}
  65              		.cfi_endproc
  66              	.LFE34:
  67              		.size	Rele_TESA, .-Rele_TESA
  68 0022 C046     		.section	.text.LED_Alarma,"ax",%progbits
  69              		.align	2
  70              		.global	LED_Alarma
  71              		.code	16
  72              		.thumb_func
  73              		.type	LED_Alarma, %function
  74              	LED_Alarma:
  75              	.LFB35:
  36:funciones.c   **** 
  37:funciones.c   **** //------------------------------------------------------------------------------------
  38:funciones.c   **** /* 
  39:funciones.c   **** LED_Alarma(int accion)
ARM GAS  C:\Users\ELEASO~1\AppData\Local\Temp\ccPHNbG3.s 			page 3


  40:funciones.c   ****     Esta funcion recibe un ON o un OFF y en funcion de ello enciende o apaga el 
  41:funciones.c   ****     LED de aviso de emergencias.
  42:funciones.c   **** */
  43:funciones.c   **** //------------------------------------------------------------------------------------
  44:funciones.c   **** void LED_Alarma(int accion)
  45:funciones.c   **** {
  76              		.loc 1 45 0
  77              		.cfi_startproc
  78              		@ args = 0, pretend = 0, frame = 0
  79              		@ frame_needed = 0, uses_anonymous_args = 0
  80              	.LVL8:
  81 0000 10B5     		push	{r4, lr}
  82              		.cfi_def_cfa_offset 8
  83              		.cfi_offset 4, -8
  84              		.cfi_offset 14, -4
  46:funciones.c   ****     if (accion==ON)
  85              		.loc 1 46 0
  86 0002 0128     		cmp	r0, #1
  87 0004 06D1     		bne	.L5
  47:funciones.c   ****     {
  48:funciones.c   ****         LED_A_SetDriveMode(LED_A_DM_STRONG);
  88              		.loc 1 48 0
  89 0006 0530     		adds	r0, r0, #5
  90              	.LVL9:
  91 0008 FFF7FEFF 		bl	LED_A_SetDriveMode
  92              	.LVL10:
  49:funciones.c   ****         LED_A_Write(0u);
  93              		.loc 1 49 0
  94 000c 0020     		movs	r0, #0
  95 000e FFF7FEFF 		bl	LED_A_Write
  96              	.LVL11:
  97 0012 05E0     		b	.L4
  98              	.LVL12:
  99              	.L5:
  50:funciones.c   ****         
  51:funciones.c   ****     }
  52:funciones.c   ****     else
  53:funciones.c   ****     {
  54:funciones.c   ****         
  55:funciones.c   ****         LED_A_Write(1u);
 100              		.loc 1 55 0
 101 0014 0120     		movs	r0, #1
 102              	.LVL13:
 103 0016 FFF7FEFF 		bl	LED_A_Write
 104              	.LVL14:
  56:funciones.c   ****         LED_A_SetDriveMode(LED_A_DM_RES_UP);       
 105              		.loc 1 56 0
 106 001a 0220     		movs	r0, #2
 107 001c FFF7FEFF 		bl	LED_A_SetDriveMode
 108              	.LVL15:
 109              	.L4:
  57:funciones.c   ****     }
  58:funciones.c   **** }
 110              		.loc 1 58 0
 111              		@ sp needed
 112 0020 10BD     		pop	{r4, pc}
 113              		.cfi_endproc
ARM GAS  C:\Users\ELEASO~1\AppData\Local\Temp\ccPHNbG3.s 			page 4


 114              	.LFE35:
 115              		.size	LED_Alarma, .-LED_Alarma
 116 0022 C046     		.section	.text.LED_Bateria,"ax",%progbits
 117              		.align	2
 118              		.global	LED_Bateria
 119              		.code	16
 120              		.thumb_func
 121              		.type	LED_Bateria, %function
 122              	LED_Bateria:
 123              	.LFB36:
  59:funciones.c   **** //------------------------------------------------------------------------------------
  60:funciones.c   **** /* 
  61:funciones.c   **** LED_Bateria(int accion)
  62:funciones.c   ****     Esta funcion recibe un ON o un OFF y en funcion de ello enciende o apaga el 
  63:funciones.c   ****     LED de aviso de bateria baja.
  64:funciones.c   **** */
  65:funciones.c   **** //------------------------------------------------------------------------------------
  66:funciones.c   **** void LED_Bateria(int accion)
  67:funciones.c   **** {
 124              		.loc 1 67 0
 125              		.cfi_startproc
 126              		@ args = 0, pretend = 0, frame = 0
 127              		@ frame_needed = 0, uses_anonymous_args = 0
 128              	.LVL16:
 129 0000 10B5     		push	{r4, lr}
 130              		.cfi_def_cfa_offset 8
 131              		.cfi_offset 4, -8
 132              		.cfi_offset 14, -4
  68:funciones.c   ****     if (accion==ON)
 133              		.loc 1 68 0
 134 0002 0128     		cmp	r0, #1
 135 0004 06D1     		bne	.L8
  69:funciones.c   ****     {
  70:funciones.c   ****         LED_B_SetDriveMode(LED_B_DM_STRONG);
 136              		.loc 1 70 0
 137 0006 0530     		adds	r0, r0, #5
 138              	.LVL17:
 139 0008 FFF7FEFF 		bl	LED_B_SetDriveMode
 140              	.LVL18:
  71:funciones.c   ****         LED_B_Write(0u);
 141              		.loc 1 71 0
 142 000c 0020     		movs	r0, #0
 143 000e FFF7FEFF 		bl	LED_B_Write
 144              	.LVL19:
 145 0012 05E0     		b	.L7
 146              	.LVL20:
 147              	.L8:
  72:funciones.c   ****     }
  73:funciones.c   ****     else
  74:funciones.c   ****     {
  75:funciones.c   ****         LED_B_Write(1u);
 148              		.loc 1 75 0
 149 0014 0120     		movs	r0, #1
 150              	.LVL21:
 151 0016 FFF7FEFF 		bl	LED_B_Write
 152              	.LVL22:
  76:funciones.c   ****         LED_B_SetDriveMode(LED_B_DM_RES_UP);       
ARM GAS  C:\Users\ELEASO~1\AppData\Local\Temp\ccPHNbG3.s 			page 5


 153              		.loc 1 76 0
 154 001a 0220     		movs	r0, #2
 155 001c FFF7FEFF 		bl	LED_B_SetDriveMode
 156              	.LVL23:
 157              	.L7:
  77:funciones.c   ****     }
  78:funciones.c   **** }
 158              		.loc 1 78 0
 159              		@ sp needed
 160 0020 10BD     		pop	{r4, pc}
 161              		.cfi_endproc
 162              	.LFE36:
 163              		.size	LED_Bateria, .-LED_Bateria
 164 0022 C046     		.section	.text.Zumbador,"ax",%progbits
 165              		.align	2
 166              		.global	Zumbador
 167              		.code	16
 168              		.thumb_func
 169              		.type	Zumbador, %function
 170              	Zumbador:
 171              	.LFB37:
  79:funciones.c   **** //------------------------------------------------------------------------------------
  80:funciones.c   **** /* 
  81:funciones.c   **** Zumbador(int accion)
  82:funciones.c   ****     Esta funcion recibe un ON o un OFF y en funcion de ello enciende o apaga el 
  83:funciones.c   ****     zumbador.
  84:funciones.c   **** */
  85:funciones.c   **** //------------------------------------------------------------------------------------
  86:funciones.c   **** void Zumbador(int accion)
  87:funciones.c   **** {    
 172              		.loc 1 87 0
 173              		.cfi_startproc
 174              		@ args = 0, pretend = 0, frame = 0
 175              		@ frame_needed = 0, uses_anonymous_args = 0
 176              	.LVL24:
 177 0000 10B5     		push	{r4, lr}
 178              		.cfi_def_cfa_offset 8
 179              		.cfi_offset 4, -8
 180              		.cfi_offset 14, -4
  88:funciones.c   ****     if (accion==ON)
 181              		.loc 1 88 0
 182 0002 0128     		cmp	r0, #1
 183 0004 06D1     		bne	.L11
  89:funciones.c   ****     {
  90:funciones.c   ****         
  91:funciones.c   **** #ifdef BUZZER_ACT_LOW
  92:funciones.c   ****         BUZZER_SetDriveMode(BUZZER_DM_STRONG);
  93:funciones.c   ****         BUZZER_Write(0u);
  94:funciones.c   **** #else
  95:funciones.c   ****         BUZZER_SetDriveMode(BUZZER_DM_RES_DWN);
 184              		.loc 1 95 0
 185 0006 0230     		adds	r0, r0, #2
 186              	.LVL25:
 187 0008 FFF7FEFF 		bl	BUZZER_SetDriveMode
 188              	.LVL26:
  96:funciones.c   ****         BUZZER_Write(1u);
 189              		.loc 1 96 0
ARM GAS  C:\Users\ELEASO~1\AppData\Local\Temp\ccPHNbG3.s 			page 6


 190 000c 0120     		movs	r0, #1
 191 000e FFF7FEFF 		bl	BUZZER_Write
 192              	.LVL27:
 193 0012 05E0     		b	.L10
 194              	.LVL28:
 195              	.L11:
  97:funciones.c   **** #endif
  98:funciones.c   ****         
  99:funciones.c   ****    
 100:funciones.c   ****     }
 101:funciones.c   ****     else
 102:funciones.c   ****     {
 103:funciones.c   **** #ifdef BUZZER_ACT_LOW
 104:funciones.c   ****         BUZZER_Write(1u);
 105:funciones.c   ****         BUZZER_SetDriveMode(BUZZER_DM_RES_UP);
 106:funciones.c   **** #else
 107:funciones.c   ****         BUZZER_Write(0u);
 196              		.loc 1 107 0
 197 0014 0020     		movs	r0, #0
 198              	.LVL29:
 199 0016 FFF7FEFF 		bl	BUZZER_Write
 200              	.LVL30:
 108:funciones.c   ****         BUZZER_SetDriveMode(BUZZER_DM_RES_DWN);
 201              		.loc 1 108 0
 202 001a 0320     		movs	r0, #3
 203 001c FFF7FEFF 		bl	BUZZER_SetDriveMode
 204              	.LVL31:
 205              	.L10:
 109:funciones.c   **** #endif
 110:funciones.c   ****         
 111:funciones.c   ****     }
 112:funciones.c   **** }
 206              		.loc 1 112 0
 207              		@ sp needed
 208 0020 10BD     		pop	{r4, pc}
 209              		.cfi_endproc
 210              	.LFE37:
 211              		.size	Zumbador, .-Zumbador
 212 0022 C046     		.text
 213              	.Letext0:
 214              		.file 2 "Generated_Source\\PSoC4/Relay.h"
 215              		.file 3 "Generated_Source\\PSoC4/LED_A.h"
 216              		.file 4 "Generated_Source\\PSoC4/LED_B.h"
 217              		.file 5 "Generated_Source\\PSoC4/BUZZER.h"
 218              		.section	.debug_info,"",%progbits
 219              	.Ldebug_info0:
 220 0000 A7020000 		.4byte	0x2a7
 221 0004 0400     		.2byte	0x4
 222 0006 00000000 		.4byte	.Ldebug_abbrev0
 223 000a 04       		.byte	0x4
 224 000b 01       		.uleb128 0x1
 225 000c 2E010000 		.4byte	.LASF27
 226 0010 0C       		.byte	0xc
 227 0011 46020000 		.4byte	.LASF28
 228 0015 D0000000 		.4byte	.LASF29
 229 0019 00000000 		.4byte	.Ldebug_ranges0+0
 230 001d 00000000 		.4byte	0
ARM GAS  C:\Users\ELEASO~1\AppData\Local\Temp\ccPHNbG3.s 			page 7


 231 0021 00000000 		.4byte	.Ldebug_line0
 232 0025 02       		.uleb128 0x2
 233 0026 01       		.byte	0x1
 234 0027 06       		.byte	0x6
 235 0028 37000000 		.4byte	.LASF0
 236 002c 02       		.uleb128 0x2
 237 002d 01       		.byte	0x1
 238 002e 08       		.byte	0x8
 239 002f 80000000 		.4byte	.LASF1
 240 0033 02       		.uleb128 0x2
 241 0034 02       		.byte	0x2
 242 0035 05       		.byte	0x5
 243 0036 F8010000 		.4byte	.LASF2
 244 003a 02       		.uleb128 0x2
 245 003b 02       		.byte	0x2
 246 003c 07       		.byte	0x7
 247 003d 61000000 		.4byte	.LASF3
 248 0041 02       		.uleb128 0x2
 249 0042 04       		.byte	0x4
 250 0043 05       		.byte	0x5
 251 0044 12020000 		.4byte	.LASF4
 252 0048 02       		.uleb128 0x2
 253 0049 04       		.byte	0x4
 254 004a 07       		.byte	0x7
 255 004b 4F000000 		.4byte	.LASF5
 256 004f 02       		.uleb128 0x2
 257 0050 08       		.byte	0x8
 258 0051 05       		.byte	0x5
 259 0052 D8010000 		.4byte	.LASF6
 260 0056 02       		.uleb128 0x2
 261 0057 08       		.byte	0x8
 262 0058 07       		.byte	0x7
 263 0059 B9000000 		.4byte	.LASF7
 264 005d 03       		.uleb128 0x3
 265 005e 04       		.byte	0x4
 266 005f 05       		.byte	0x5
 267 0060 696E7400 		.ascii	"int\000"
 268 0064 02       		.uleb128 0x2
 269 0065 04       		.byte	0x4
 270 0066 07       		.byte	0x7
 271 0067 A0000000 		.4byte	.LASF8
 272 006b 02       		.uleb128 0x2
 273 006c 04       		.byte	0x4
 274 006d 04       		.byte	0x4
 275 006e 31000000 		.4byte	.LASF9
 276 0072 02       		.uleb128 0x2
 277 0073 08       		.byte	0x8
 278 0074 04       		.byte	0x4
 279 0075 8E000000 		.4byte	.LASF10
 280 0079 02       		.uleb128 0x2
 281 007a 01       		.byte	0x1
 282 007b 08       		.byte	0x8
 283 007c F3010000 		.4byte	.LASF11
 284 0080 02       		.uleb128 0x2
 285 0081 08       		.byte	0x8
 286 0082 04       		.byte	0x4
 287 0083 1B020000 		.4byte	.LASF12
ARM GAS  C:\Users\ELEASO~1\AppData\Local\Temp\ccPHNbG3.s 			page 8


 288 0087 02       		.uleb128 0x2
 289 0088 04       		.byte	0x4
 290 0089 07       		.byte	0x7
 291 008a CF010000 		.4byte	.LASF13
 292 008e 04       		.uleb128 0x4
 293 008f 13000000 		.4byte	.LASF14
 294 0093 01       		.byte	0x1
 295 0094 15       		.byte	0x15
 296 0095 00000000 		.4byte	.LFB34
 297 0099 22000000 		.4byte	.LFE34-.LFB34
 298 009d 01       		.uleb128 0x1
 299 009e 9C       		.byte	0x9c
 300 009f FF000000 		.4byte	0xff
 301 00a3 05       		.uleb128 0x5
 302 00a4 0B020000 		.4byte	.LASF16
 303 00a8 01       		.byte	0x1
 304 00a9 15       		.byte	0x15
 305 00aa 5D000000 		.4byte	0x5d
 306 00ae 00000000 		.4byte	.LLST0
 307 00b2 06       		.uleb128 0x6
 308 00b3 0C000000 		.4byte	.LVL2
 309 00b7 52020000 		.4byte	0x252
 310 00bb C9000000 		.4byte	0xc9
 311 00bf 07       		.uleb128 0x7
 312 00c0 01       		.uleb128 0x1
 313 00c1 50       		.byte	0x50
 314 00c2 05       		.uleb128 0x5
 315 00c3 F3       		.byte	0xf3
 316 00c4 01       		.uleb128 0x1
 317 00c5 50       		.byte	0x50
 318 00c6 23       		.byte	0x23
 319 00c7 05       		.uleb128 0x5
 320 00c8 00       		.byte	0
 321 00c9 06       		.uleb128 0x6
 322 00ca 12000000 		.4byte	.LVL3
 323 00ce 5D020000 		.4byte	0x25d
 324 00d2 DC000000 		.4byte	0xdc
 325 00d6 07       		.uleb128 0x7
 326 00d7 01       		.uleb128 0x1
 327 00d8 50       		.byte	0x50
 328 00d9 01       		.uleb128 0x1
 329 00da 30       		.byte	0x30
 330 00db 00       		.byte	0
 331 00dc 06       		.uleb128 0x6
 332 00dd 1A000000 		.4byte	.LVL6
 333 00e1 5D020000 		.4byte	0x25d
 334 00e5 EF000000 		.4byte	0xef
 335 00e9 07       		.uleb128 0x7
 336 00ea 01       		.uleb128 0x1
 337 00eb 50       		.byte	0x50
 338 00ec 01       		.uleb128 0x1
 339 00ed 31       		.byte	0x31
 340 00ee 00       		.byte	0
 341 00ef 08       		.uleb128 0x8
 342 00f0 20000000 		.4byte	.LVL7
 343 00f4 52020000 		.4byte	0x252
 344 00f8 07       		.uleb128 0x7
ARM GAS  C:\Users\ELEASO~1\AppData\Local\Temp\ccPHNbG3.s 			page 9


 345 00f9 01       		.uleb128 0x1
 346 00fa 50       		.byte	0x50
 347 00fb 01       		.uleb128 0x1
 348 00fc 32       		.byte	0x32
 349 00fd 00       		.byte	0
 350 00fe 00       		.byte	0
 351 00ff 04       		.uleb128 0x4
 352 0100 95000000 		.4byte	.LASF15
 353 0104 01       		.byte	0x1
 354 0105 2C       		.byte	0x2c
 355 0106 00000000 		.4byte	.LFB35
 356 010a 22000000 		.4byte	.LFE35-.LFB35
 357 010e 01       		.uleb128 0x1
 358 010f 9C       		.byte	0x9c
 359 0110 70010000 		.4byte	0x170
 360 0114 05       		.uleb128 0x5
 361 0115 0B020000 		.4byte	.LASF16
 362 0119 01       		.byte	0x1
 363 011a 2C       		.byte	0x2c
 364 011b 5D000000 		.4byte	0x5d
 365 011f 47000000 		.4byte	.LLST1
 366 0123 06       		.uleb128 0x6
 367 0124 0C000000 		.4byte	.LVL10
 368 0128 68020000 		.4byte	0x268
 369 012c 3A010000 		.4byte	0x13a
 370 0130 07       		.uleb128 0x7
 371 0131 01       		.uleb128 0x1
 372 0132 50       		.byte	0x50
 373 0133 05       		.uleb128 0x5
 374 0134 F3       		.byte	0xf3
 375 0135 01       		.uleb128 0x1
 376 0136 50       		.byte	0x50
 377 0137 23       		.byte	0x23
 378 0138 05       		.uleb128 0x5
 379 0139 00       		.byte	0
 380 013a 06       		.uleb128 0x6
 381 013b 12000000 		.4byte	.LVL11
 382 013f 73020000 		.4byte	0x273
 383 0143 4D010000 		.4byte	0x14d
 384 0147 07       		.uleb128 0x7
 385 0148 01       		.uleb128 0x1
 386 0149 50       		.byte	0x50
 387 014a 01       		.uleb128 0x1
 388 014b 30       		.byte	0x30
 389 014c 00       		.byte	0
 390 014d 06       		.uleb128 0x6
 391 014e 1A000000 		.4byte	.LVL14
 392 0152 73020000 		.4byte	0x273
 393 0156 60010000 		.4byte	0x160
 394 015a 07       		.uleb128 0x7
 395 015b 01       		.uleb128 0x1
 396 015c 50       		.byte	0x50
 397 015d 01       		.uleb128 0x1
 398 015e 31       		.byte	0x31
 399 015f 00       		.byte	0
 400 0160 08       		.uleb128 0x8
 401 0161 20000000 		.4byte	.LVL15
ARM GAS  C:\Users\ELEASO~1\AppData\Local\Temp\ccPHNbG3.s 			page 10


 402 0165 68020000 		.4byte	0x268
 403 0169 07       		.uleb128 0x7
 404 016a 01       		.uleb128 0x1
 405 016b 50       		.byte	0x50
 406 016c 01       		.uleb128 0x1
 407 016d 32       		.byte	0x32
 408 016e 00       		.byte	0
 409 016f 00       		.byte	0
 410 0170 04       		.uleb128 0x4
 411 0171 AD000000 		.4byte	.LASF17
 412 0175 01       		.byte	0x1
 413 0176 42       		.byte	0x42
 414 0177 00000000 		.4byte	.LFB36
 415 017b 22000000 		.4byte	.LFE36-.LFB36
 416 017f 01       		.uleb128 0x1
 417 0180 9C       		.byte	0x9c
 418 0181 E1010000 		.4byte	0x1e1
 419 0185 05       		.uleb128 0x5
 420 0186 0B020000 		.4byte	.LASF16
 421 018a 01       		.byte	0x1
 422 018b 42       		.byte	0x42
 423 018c 5D000000 		.4byte	0x5d
 424 0190 8E000000 		.4byte	.LLST2
 425 0194 06       		.uleb128 0x6
 426 0195 0C000000 		.4byte	.LVL18
 427 0199 7E020000 		.4byte	0x27e
 428 019d AB010000 		.4byte	0x1ab
 429 01a1 07       		.uleb128 0x7
 430 01a2 01       		.uleb128 0x1
 431 01a3 50       		.byte	0x50
 432 01a4 05       		.uleb128 0x5
 433 01a5 F3       		.byte	0xf3
 434 01a6 01       		.uleb128 0x1
 435 01a7 50       		.byte	0x50
 436 01a8 23       		.byte	0x23
 437 01a9 05       		.uleb128 0x5
 438 01aa 00       		.byte	0
 439 01ab 06       		.uleb128 0x6
 440 01ac 12000000 		.4byte	.LVL19
 441 01b0 89020000 		.4byte	0x289
 442 01b4 BE010000 		.4byte	0x1be
 443 01b8 07       		.uleb128 0x7
 444 01b9 01       		.uleb128 0x1
 445 01ba 50       		.byte	0x50
 446 01bb 01       		.uleb128 0x1
 447 01bc 30       		.byte	0x30
 448 01bd 00       		.byte	0
 449 01be 06       		.uleb128 0x6
 450 01bf 1A000000 		.4byte	.LVL22
 451 01c3 89020000 		.4byte	0x289
 452 01c7 D1010000 		.4byte	0x1d1
 453 01cb 07       		.uleb128 0x7
 454 01cc 01       		.uleb128 0x1
 455 01cd 50       		.byte	0x50
 456 01ce 01       		.uleb128 0x1
 457 01cf 31       		.byte	0x31
 458 01d0 00       		.byte	0
ARM GAS  C:\Users\ELEASO~1\AppData\Local\Temp\ccPHNbG3.s 			page 11


 459 01d1 08       		.uleb128 0x8
 460 01d2 20000000 		.4byte	.LVL23
 461 01d6 7E020000 		.4byte	0x27e
 462 01da 07       		.uleb128 0x7
 463 01db 01       		.uleb128 0x1
 464 01dc 50       		.byte	0x50
 465 01dd 01       		.uleb128 0x1
 466 01de 32       		.byte	0x32
 467 01df 00       		.byte	0
 468 01e0 00       		.byte	0
 469 01e1 04       		.uleb128 0x4
 470 01e2 02020000 		.4byte	.LASF18
 471 01e6 01       		.byte	0x1
 472 01e7 56       		.byte	0x56
 473 01e8 00000000 		.4byte	.LFB37
 474 01ec 22000000 		.4byte	.LFE37-.LFB37
 475 01f0 01       		.uleb128 0x1
 476 01f1 9C       		.byte	0x9c
 477 01f2 52020000 		.4byte	0x252
 478 01f6 05       		.uleb128 0x5
 479 01f7 0B020000 		.4byte	.LASF16
 480 01fb 01       		.byte	0x1
 481 01fc 56       		.byte	0x56
 482 01fd 5D000000 		.4byte	0x5d
 483 0201 D5000000 		.4byte	.LLST3
 484 0205 06       		.uleb128 0x6
 485 0206 0C000000 		.4byte	.LVL26
 486 020a 94020000 		.4byte	0x294
 487 020e 1C020000 		.4byte	0x21c
 488 0212 07       		.uleb128 0x7
 489 0213 01       		.uleb128 0x1
 490 0214 50       		.byte	0x50
 491 0215 05       		.uleb128 0x5
 492 0216 F3       		.byte	0xf3
 493 0217 01       		.uleb128 0x1
 494 0218 50       		.byte	0x50
 495 0219 23       		.byte	0x23
 496 021a 02       		.uleb128 0x2
 497 021b 00       		.byte	0
 498 021c 06       		.uleb128 0x6
 499 021d 12000000 		.4byte	.LVL27
 500 0221 9F020000 		.4byte	0x29f
 501 0225 2F020000 		.4byte	0x22f
 502 0229 07       		.uleb128 0x7
 503 022a 01       		.uleb128 0x1
 504 022b 50       		.byte	0x50
 505 022c 01       		.uleb128 0x1
 506 022d 31       		.byte	0x31
 507 022e 00       		.byte	0
 508 022f 06       		.uleb128 0x6
 509 0230 1A000000 		.4byte	.LVL30
 510 0234 9F020000 		.4byte	0x29f
 511 0238 42020000 		.4byte	0x242
 512 023c 07       		.uleb128 0x7
 513 023d 01       		.uleb128 0x1
 514 023e 50       		.byte	0x50
 515 023f 01       		.uleb128 0x1
ARM GAS  C:\Users\ELEASO~1\AppData\Local\Temp\ccPHNbG3.s 			page 12


 516 0240 30       		.byte	0x30
 517 0241 00       		.byte	0
 518 0242 08       		.uleb128 0x8
 519 0243 20000000 		.4byte	.LVL31
 520 0247 94020000 		.4byte	0x294
 521 024b 07       		.uleb128 0x7
 522 024c 01       		.uleb128 0x1
 523 024d 50       		.byte	0x50
 524 024e 01       		.uleb128 0x1
 525 024f 33       		.byte	0x33
 526 0250 00       		.byte	0
 527 0251 00       		.byte	0
 528 0252 09       		.uleb128 0x9
 529 0253 33020000 		.4byte	.LASF19
 530 0257 33020000 		.4byte	.LASF19
 531 025b 02       		.byte	0x2
 532 025c 36       		.byte	0x36
 533 025d 09       		.uleb128 0x9
 534 025e 27020000 		.4byte	.LASF20
 535 0262 27020000 		.4byte	.LASF20
 536 0266 02       		.byte	0x2
 537 0267 33       		.byte	0x33
 538 0268 09       		.uleb128 0x9
 539 0269 00000000 		.4byte	.LASF21
 540 026d 00000000 		.4byte	.LASF21
 541 0271 03       		.byte	0x3
 542 0272 36       		.byte	0x36
 543 0273 09       		.uleb128 0x9
 544 0274 43000000 		.4byte	.LASF22
 545 0278 43000000 		.4byte	.LASF22
 546 027c 03       		.byte	0x3
 547 027d 33       		.byte	0x33
 548 027e 09       		.uleb128 0x9
 549 027f BC010000 		.4byte	.LASF23
 550 0283 BC010000 		.4byte	.LASF23
 551 0287 04       		.byte	0x4
 552 0288 36       		.byte	0x36
 553 0289 09       		.uleb128 0x9
 554 028a 74000000 		.4byte	.LASF24
 555 028e 74000000 		.4byte	.LASF24
 556 0292 04       		.byte	0x4
 557 0293 33       		.byte	0x33
 558 0294 09       		.uleb128 0x9
 559 0295 1D000000 		.4byte	.LASF25
 560 0299 1D000000 		.4byte	.LASF25
 561 029d 05       		.byte	0x5
 562 029e 36       		.byte	0x36
 563 029f 09       		.uleb128 0x9
 564 02a0 E6010000 		.4byte	.LASF26
 565 02a4 E6010000 		.4byte	.LASF26
 566 02a8 05       		.byte	0x5
 567 02a9 33       		.byte	0x33
 568 02aa 00       		.byte	0
 569              		.section	.debug_abbrev,"",%progbits
 570              	.Ldebug_abbrev0:
 571 0000 01       		.uleb128 0x1
 572 0001 11       		.uleb128 0x11
ARM GAS  C:\Users\ELEASO~1\AppData\Local\Temp\ccPHNbG3.s 			page 13


 573 0002 01       		.byte	0x1
 574 0003 25       		.uleb128 0x25
 575 0004 0E       		.uleb128 0xe
 576 0005 13       		.uleb128 0x13
 577 0006 0B       		.uleb128 0xb
 578 0007 03       		.uleb128 0x3
 579 0008 0E       		.uleb128 0xe
 580 0009 1B       		.uleb128 0x1b
 581 000a 0E       		.uleb128 0xe
 582 000b 55       		.uleb128 0x55
 583 000c 17       		.uleb128 0x17
 584 000d 11       		.uleb128 0x11
 585 000e 01       		.uleb128 0x1
 586 000f 10       		.uleb128 0x10
 587 0010 17       		.uleb128 0x17
 588 0011 00       		.byte	0
 589 0012 00       		.byte	0
 590 0013 02       		.uleb128 0x2
 591 0014 24       		.uleb128 0x24
 592 0015 00       		.byte	0
 593 0016 0B       		.uleb128 0xb
 594 0017 0B       		.uleb128 0xb
 595 0018 3E       		.uleb128 0x3e
 596 0019 0B       		.uleb128 0xb
 597 001a 03       		.uleb128 0x3
 598 001b 0E       		.uleb128 0xe
 599 001c 00       		.byte	0
 600 001d 00       		.byte	0
 601 001e 03       		.uleb128 0x3
 602 001f 24       		.uleb128 0x24
 603 0020 00       		.byte	0
 604 0021 0B       		.uleb128 0xb
 605 0022 0B       		.uleb128 0xb
 606 0023 3E       		.uleb128 0x3e
 607 0024 0B       		.uleb128 0xb
 608 0025 03       		.uleb128 0x3
 609 0026 08       		.uleb128 0x8
 610 0027 00       		.byte	0
 611 0028 00       		.byte	0
 612 0029 04       		.uleb128 0x4
 613 002a 2E       		.uleb128 0x2e
 614 002b 01       		.byte	0x1
 615 002c 3F       		.uleb128 0x3f
 616 002d 19       		.uleb128 0x19
 617 002e 03       		.uleb128 0x3
 618 002f 0E       		.uleb128 0xe
 619 0030 3A       		.uleb128 0x3a
 620 0031 0B       		.uleb128 0xb
 621 0032 3B       		.uleb128 0x3b
 622 0033 0B       		.uleb128 0xb
 623 0034 27       		.uleb128 0x27
 624 0035 19       		.uleb128 0x19
 625 0036 11       		.uleb128 0x11
 626 0037 01       		.uleb128 0x1
 627 0038 12       		.uleb128 0x12
 628 0039 06       		.uleb128 0x6
 629 003a 40       		.uleb128 0x40
ARM GAS  C:\Users\ELEASO~1\AppData\Local\Temp\ccPHNbG3.s 			page 14


 630 003b 18       		.uleb128 0x18
 631 003c 9742     		.uleb128 0x2117
 632 003e 19       		.uleb128 0x19
 633 003f 01       		.uleb128 0x1
 634 0040 13       		.uleb128 0x13
 635 0041 00       		.byte	0
 636 0042 00       		.byte	0
 637 0043 05       		.uleb128 0x5
 638 0044 05       		.uleb128 0x5
 639 0045 00       		.byte	0
 640 0046 03       		.uleb128 0x3
 641 0047 0E       		.uleb128 0xe
 642 0048 3A       		.uleb128 0x3a
 643 0049 0B       		.uleb128 0xb
 644 004a 3B       		.uleb128 0x3b
 645 004b 0B       		.uleb128 0xb
 646 004c 49       		.uleb128 0x49
 647 004d 13       		.uleb128 0x13
 648 004e 02       		.uleb128 0x2
 649 004f 17       		.uleb128 0x17
 650 0050 00       		.byte	0
 651 0051 00       		.byte	0
 652 0052 06       		.uleb128 0x6
 653 0053 898201   		.uleb128 0x4109
 654 0056 01       		.byte	0x1
 655 0057 11       		.uleb128 0x11
 656 0058 01       		.uleb128 0x1
 657 0059 31       		.uleb128 0x31
 658 005a 13       		.uleb128 0x13
 659 005b 01       		.uleb128 0x1
 660 005c 13       		.uleb128 0x13
 661 005d 00       		.byte	0
 662 005e 00       		.byte	0
 663 005f 07       		.uleb128 0x7
 664 0060 8A8201   		.uleb128 0x410a
 665 0063 00       		.byte	0
 666 0064 02       		.uleb128 0x2
 667 0065 18       		.uleb128 0x18
 668 0066 9142     		.uleb128 0x2111
 669 0068 18       		.uleb128 0x18
 670 0069 00       		.byte	0
 671 006a 00       		.byte	0
 672 006b 08       		.uleb128 0x8
 673 006c 898201   		.uleb128 0x4109
 674 006f 01       		.byte	0x1
 675 0070 11       		.uleb128 0x11
 676 0071 01       		.uleb128 0x1
 677 0072 31       		.uleb128 0x31
 678 0073 13       		.uleb128 0x13
 679 0074 00       		.byte	0
 680 0075 00       		.byte	0
 681 0076 09       		.uleb128 0x9
 682 0077 2E       		.uleb128 0x2e
 683 0078 00       		.byte	0
 684 0079 3F       		.uleb128 0x3f
 685 007a 19       		.uleb128 0x19
 686 007b 3C       		.uleb128 0x3c
ARM GAS  C:\Users\ELEASO~1\AppData\Local\Temp\ccPHNbG3.s 			page 15


 687 007c 19       		.uleb128 0x19
 688 007d 6E       		.uleb128 0x6e
 689 007e 0E       		.uleb128 0xe
 690 007f 03       		.uleb128 0x3
 691 0080 0E       		.uleb128 0xe
 692 0081 3A       		.uleb128 0x3a
 693 0082 0B       		.uleb128 0xb
 694 0083 3B       		.uleb128 0x3b
 695 0084 0B       		.uleb128 0xb
 696 0085 00       		.byte	0
 697 0086 00       		.byte	0
 698 0087 00       		.byte	0
 699              		.section	.debug_loc,"",%progbits
 700              	.Ldebug_loc0:
 701              	.LLST0:
 702 0000 00000000 		.4byte	.LVL0
 703 0004 08000000 		.4byte	.LVL1
 704 0008 0100     		.2byte	0x1
 705 000a 50       		.byte	0x50
 706 000b 08000000 		.4byte	.LVL1
 707 000f 0B000000 		.4byte	.LVL2-1
 708 0013 0300     		.2byte	0x3
 709 0015 70       		.byte	0x70
 710 0016 7B       		.sleb128 -5
 711 0017 9F       		.byte	0x9f
 712 0018 0B000000 		.4byte	.LVL2-1
 713 001c 14000000 		.4byte	.LVL4
 714 0020 0400     		.2byte	0x4
 715 0022 F3       		.byte	0xf3
 716 0023 01       		.uleb128 0x1
 717 0024 50       		.byte	0x50
 718 0025 9F       		.byte	0x9f
 719 0026 14000000 		.4byte	.LVL4
 720 002a 16000000 		.4byte	.LVL5
 721 002e 0100     		.2byte	0x1
 722 0030 50       		.byte	0x50
 723 0031 16000000 		.4byte	.LVL5
 724 0035 22000000 		.4byte	.LFE34
 725 0039 0400     		.2byte	0x4
 726 003b F3       		.byte	0xf3
 727 003c 01       		.uleb128 0x1
 728 003d 50       		.byte	0x50
 729 003e 9F       		.byte	0x9f
 730 003f 00000000 		.4byte	0
 731 0043 00000000 		.4byte	0
 732              	.LLST1:
 733 0047 00000000 		.4byte	.LVL8
 734 004b 08000000 		.4byte	.LVL9
 735 004f 0100     		.2byte	0x1
 736 0051 50       		.byte	0x50
 737 0052 08000000 		.4byte	.LVL9
 738 0056 0B000000 		.4byte	.LVL10-1
 739 005a 0300     		.2byte	0x3
 740 005c 70       		.byte	0x70
 741 005d 7B       		.sleb128 -5
 742 005e 9F       		.byte	0x9f
 743 005f 0B000000 		.4byte	.LVL10-1
ARM GAS  C:\Users\ELEASO~1\AppData\Local\Temp\ccPHNbG3.s 			page 16


 744 0063 14000000 		.4byte	.LVL12
 745 0067 0400     		.2byte	0x4
 746 0069 F3       		.byte	0xf3
 747 006a 01       		.uleb128 0x1
 748 006b 50       		.byte	0x50
 749 006c 9F       		.byte	0x9f
 750 006d 14000000 		.4byte	.LVL12
 751 0071 16000000 		.4byte	.LVL13
 752 0075 0100     		.2byte	0x1
 753 0077 50       		.byte	0x50
 754 0078 16000000 		.4byte	.LVL13
 755 007c 22000000 		.4byte	.LFE35
 756 0080 0400     		.2byte	0x4
 757 0082 F3       		.byte	0xf3
 758 0083 01       		.uleb128 0x1
 759 0084 50       		.byte	0x50
 760 0085 9F       		.byte	0x9f
 761 0086 00000000 		.4byte	0
 762 008a 00000000 		.4byte	0
 763              	.LLST2:
 764 008e 00000000 		.4byte	.LVL16
 765 0092 08000000 		.4byte	.LVL17
 766 0096 0100     		.2byte	0x1
 767 0098 50       		.byte	0x50
 768 0099 08000000 		.4byte	.LVL17
 769 009d 0B000000 		.4byte	.LVL18-1
 770 00a1 0300     		.2byte	0x3
 771 00a3 70       		.byte	0x70
 772 00a4 7B       		.sleb128 -5
 773 00a5 9F       		.byte	0x9f
 774 00a6 0B000000 		.4byte	.LVL18-1
 775 00aa 14000000 		.4byte	.LVL20
 776 00ae 0400     		.2byte	0x4
 777 00b0 F3       		.byte	0xf3
 778 00b1 01       		.uleb128 0x1
 779 00b2 50       		.byte	0x50
 780 00b3 9F       		.byte	0x9f
 781 00b4 14000000 		.4byte	.LVL20
 782 00b8 16000000 		.4byte	.LVL21
 783 00bc 0100     		.2byte	0x1
 784 00be 50       		.byte	0x50
 785 00bf 16000000 		.4byte	.LVL21
 786 00c3 22000000 		.4byte	.LFE36
 787 00c7 0400     		.2byte	0x4
 788 00c9 F3       		.byte	0xf3
 789 00ca 01       		.uleb128 0x1
 790 00cb 50       		.byte	0x50
 791 00cc 9F       		.byte	0x9f
 792 00cd 00000000 		.4byte	0
 793 00d1 00000000 		.4byte	0
 794              	.LLST3:
 795 00d5 00000000 		.4byte	.LVL24
 796 00d9 08000000 		.4byte	.LVL25
 797 00dd 0100     		.2byte	0x1
 798 00df 50       		.byte	0x50
 799 00e0 08000000 		.4byte	.LVL25
 800 00e4 0B000000 		.4byte	.LVL26-1
ARM GAS  C:\Users\ELEASO~1\AppData\Local\Temp\ccPHNbG3.s 			page 17


 801 00e8 0300     		.2byte	0x3
 802 00ea 70       		.byte	0x70
 803 00eb 7E       		.sleb128 -2
 804 00ec 9F       		.byte	0x9f
 805 00ed 0B000000 		.4byte	.LVL26-1
 806 00f1 14000000 		.4byte	.LVL28
 807 00f5 0400     		.2byte	0x4
 808 00f7 F3       		.byte	0xf3
 809 00f8 01       		.uleb128 0x1
 810 00f9 50       		.byte	0x50
 811 00fa 9F       		.byte	0x9f
 812 00fb 14000000 		.4byte	.LVL28
 813 00ff 16000000 		.4byte	.LVL29
 814 0103 0100     		.2byte	0x1
 815 0105 50       		.byte	0x50
 816 0106 16000000 		.4byte	.LVL29
 817 010a 22000000 		.4byte	.LFE37
 818 010e 0400     		.2byte	0x4
 819 0110 F3       		.byte	0xf3
 820 0111 01       		.uleb128 0x1
 821 0112 50       		.byte	0x50
 822 0113 9F       		.byte	0x9f
 823 0114 00000000 		.4byte	0
 824 0118 00000000 		.4byte	0
 825              		.section	.debug_aranges,"",%progbits
 826 0000 34000000 		.4byte	0x34
 827 0004 0200     		.2byte	0x2
 828 0006 00000000 		.4byte	.Ldebug_info0
 829 000a 04       		.byte	0x4
 830 000b 00       		.byte	0
 831 000c 0000     		.2byte	0
 832 000e 0000     		.2byte	0
 833 0010 00000000 		.4byte	.LFB34
 834 0014 22000000 		.4byte	.LFE34-.LFB34
 835 0018 00000000 		.4byte	.LFB35
 836 001c 22000000 		.4byte	.LFE35-.LFB35
 837 0020 00000000 		.4byte	.LFB36
 838 0024 22000000 		.4byte	.LFE36-.LFB36
 839 0028 00000000 		.4byte	.LFB37
 840 002c 22000000 		.4byte	.LFE37-.LFB37
 841 0030 00000000 		.4byte	0
 842 0034 00000000 		.4byte	0
 843              		.section	.debug_ranges,"",%progbits
 844              	.Ldebug_ranges0:
 845 0000 00000000 		.4byte	.LFB34
 846 0004 22000000 		.4byte	.LFE34
 847 0008 00000000 		.4byte	.LFB35
 848 000c 22000000 		.4byte	.LFE35
 849 0010 00000000 		.4byte	.LFB36
 850 0014 22000000 		.4byte	.LFE36
 851 0018 00000000 		.4byte	.LFB37
 852 001c 22000000 		.4byte	.LFE37
 853 0020 00000000 		.4byte	0
 854 0024 00000000 		.4byte	0
 855              		.section	.debug_line,"",%progbits
 856              	.Ldebug_line0:
 857 0000 C4000000 		.section	.debug_str,"MS",%progbits,1
ARM GAS  C:\Users\ELEASO~1\AppData\Local\Temp\ccPHNbG3.s 			page 18


 857      02006600 
 857      00000201 
 857      FB0E0D00 
 857      01010101 
 858              	.LASF21:
 859 0000 4C45445F 		.ascii	"LED_A_SetDriveMode\000"
 859      415F5365 
 859      74447269 
 859      76654D6F 
 859      646500
 860              	.LASF14:
 861 0013 52656C65 		.ascii	"Rele_TESA\000"
 861      5F544553 
 861      4100
 862              	.LASF25:
 863 001d 42555A5A 		.ascii	"BUZZER_SetDriveMode\000"
 863      45525F53 
 863      65744472 
 863      6976654D 
 863      6F646500 
 864              	.LASF9:
 865 0031 666C6F61 		.ascii	"float\000"
 865      7400
 866              	.LASF0:
 867 0037 7369676E 		.ascii	"signed char\000"
 867      65642063 
 867      68617200 
 868              	.LASF22:
 869 0043 4C45445F 		.ascii	"LED_A_Write\000"
 869      415F5772 
 869      69746500 
 870              	.LASF5:
 871 004f 6C6F6E67 		.ascii	"long unsigned int\000"
 871      20756E73 
 871      69676E65 
 871      6420696E 
 871      7400
 872              	.LASF3:
 873 0061 73686F72 		.ascii	"short unsigned int\000"
 873      7420756E 
 873      7369676E 
 873      65642069 
 873      6E7400
 874              	.LASF24:
 875 0074 4C45445F 		.ascii	"LED_B_Write\000"
 875      425F5772 
 875      69746500 
 876              	.LASF1:
 877 0080 756E7369 		.ascii	"unsigned char\000"
 877      676E6564 
 877      20636861 
 877      7200
 878              	.LASF10:
 879 008e 646F7562 		.ascii	"double\000"
 879      6C6500
 880              	.LASF15:
 881 0095 4C45445F 		.ascii	"LED_Alarma\000"
ARM GAS  C:\Users\ELEASO~1\AppData\Local\Temp\ccPHNbG3.s 			page 19


 881      416C6172 
 881      6D6100
 882              	.LASF8:
 883 00a0 756E7369 		.ascii	"unsigned int\000"
 883      676E6564 
 883      20696E74 
 883      00
 884              	.LASF17:
 885 00ad 4C45445F 		.ascii	"LED_Bateria\000"
 885      42617465 
 885      72696100 
 886              	.LASF7:
 887 00b9 6C6F6E67 		.ascii	"long long unsigned int\000"
 887      206C6F6E 
 887      6720756E 
 887      7369676E 
 887      65642069 
 888              	.LASF29:
 889 00d0 433A5C55 		.ascii	"C:\\Users\\EleaSoluciones\\Desktop\\Cosas\\EleaTouc"
 889      73657273 
 889      5C456C65 
 889      61536F6C 
 889      7563696F 
 890 00fe 685C456C 		.ascii	"h\\EleaTouch_V2_1_BOTONES_KEYPAD\\EleaTouch.cydsn\000"
 890      6561546F 
 890      7563685F 
 890      56325F31 
 890      5F424F54 
 891              	.LASF27:
 892 012e 474E5520 		.ascii	"GNU C11 5.4.1 20160609 (release) [ARM/embedded-5-br"
 892      43313120 
 892      352E342E 
 892      31203230 
 892      31363036 
 893 0161 616E6368 		.ascii	"anch revision 237715] -mcpu=cortex-m0 -mthumb -g -O"
 893      20726576 
 893      6973696F 
 893      6E203233 
 893      37373135 
 894 0194 67202D66 		.ascii	"g -ffunction-sections -ffat-lto-objects\000"
 894      66756E63 
 894      74696F6E 
 894      2D736563 
 894      74696F6E 
 895              	.LASF23:
 896 01bc 4C45445F 		.ascii	"LED_B_SetDriveMode\000"
 896      425F5365 
 896      74447269 
 896      76654D6F 
 896      646500
 897              	.LASF13:
 898 01cf 73697A65 		.ascii	"sizetype\000"
 898      74797065 
 898      00
 899              	.LASF6:
 900 01d8 6C6F6E67 		.ascii	"long long int\000"
 900      206C6F6E 
ARM GAS  C:\Users\ELEASO~1\AppData\Local\Temp\ccPHNbG3.s 			page 20


 900      6720696E 
 900      7400
 901              	.LASF26:
 902 01e6 42555A5A 		.ascii	"BUZZER_Write\000"
 902      45525F57 
 902      72697465 
 902      00
 903              	.LASF11:
 904 01f3 63686172 		.ascii	"char\000"
 904      00
 905              	.LASF2:
 906 01f8 73686F72 		.ascii	"short int\000"
 906      7420696E 
 906      7400
 907              	.LASF18:
 908 0202 5A756D62 		.ascii	"Zumbador\000"
 908      61646F72 
 908      00
 909              	.LASF16:
 910 020b 61636369 		.ascii	"accion\000"
 910      6F6E00
 911              	.LASF4:
 912 0212 6C6F6E67 		.ascii	"long int\000"
 912      20696E74 
 912      00
 913              	.LASF12:
 914 021b 6C6F6E67 		.ascii	"long double\000"
 914      20646F75 
 914      626C6500 
 915              	.LASF20:
 916 0227 52656C61 		.ascii	"Relay_Write\000"
 916      795F5772 
 916      69746500 
 917              	.LASF19:
 918 0233 52656C61 		.ascii	"Relay_SetDriveMode\000"
 918      795F5365 
 918      74447269 
 918      76654D6F 
 918      646500
 919              	.LASF28:
 920 0246 66756E63 		.ascii	"funciones.c\000"
 920      696F6E65 
 920      732E6300 
 921              		.ident	"GCC: (GNU Tools for ARM Embedded Processors) 5.4.1 20160609 (release) [ARM/embedded-5-bran
