ARM GAS  C:\Users\ELEASO~1\AppData\Local\Temp\ccMmZBWf.s 			page 1


   1              		.syntax unified
   2              		.cpu cortex-m0
   3              		.fpu softvfp
   4              		.eabi_attribute 20, 1
   5              		.eabi_attribute 21, 1
   6              		.eabi_attribute 23, 3
   7              		.eabi_attribute 24, 1
   8              		.eabi_attribute 25, 1
   9              		.eabi_attribute 26, 1
  10              		.eabi_attribute 30, 1
  11              		.eabi_attribute 34, 0
  12              		.eabi_attribute 18, 4
  13              		.thumb
  14              		.syntax unified
  15              		.file	"IsrEnoUART.c"
  16              		.text
  17              	.Ltext0:
  18              		.cfi_sections	.debug_frame
  19              		.section	.text.IsrEnoUART_Interrupt,"ax",%progbits
  20              		.align	2
  21              		.global	IsrEnoUART_Interrupt
  22              		.code	16
  23              		.thumb_func
  24              		.type	IsrEnoUART_Interrupt, %function
  25              	IsrEnoUART_Interrupt:
  26              	.LFB3:
  27              		.file 1 "Generated_Source\\PSoC4\\IsrEnoUART.c"
   1:Generated_Source\PSoC4/IsrEnoUART.c **** /*******************************************************************************
   2:Generated_Source\PSoC4/IsrEnoUART.c **** * File Name: IsrEnoUART.c  
   3:Generated_Source\PSoC4/IsrEnoUART.c **** * Version 1.70
   4:Generated_Source\PSoC4/IsrEnoUART.c **** *
   5:Generated_Source\PSoC4/IsrEnoUART.c **** *  Description:
   6:Generated_Source\PSoC4/IsrEnoUART.c **** *   API for controlling the state of an interrupt.
   7:Generated_Source\PSoC4/IsrEnoUART.c **** *
   8:Generated_Source\PSoC4/IsrEnoUART.c **** *
   9:Generated_Source\PSoC4/IsrEnoUART.c **** *  Note:
  10:Generated_Source\PSoC4/IsrEnoUART.c **** *
  11:Generated_Source\PSoC4/IsrEnoUART.c **** ********************************************************************************
  12:Generated_Source\PSoC4/IsrEnoUART.c **** * Copyright 2008-2015, Cypress Semiconductor Corporation.  All rights reserved.
  13:Generated_Source\PSoC4/IsrEnoUART.c **** * You may use this file only in accordance with the license, terms, conditions, 
  14:Generated_Source\PSoC4/IsrEnoUART.c **** * disclaimers, and limitations in the end user license agreement accompanying 
  15:Generated_Source\PSoC4/IsrEnoUART.c **** * the software package with which this file was provided.
  16:Generated_Source\PSoC4/IsrEnoUART.c **** *******************************************************************************/
  17:Generated_Source\PSoC4/IsrEnoUART.c **** 
  18:Generated_Source\PSoC4/IsrEnoUART.c **** 
  19:Generated_Source\PSoC4/IsrEnoUART.c **** #include <cydevice_trm.h>
  20:Generated_Source\PSoC4/IsrEnoUART.c **** #include <CyLib.h>
  21:Generated_Source\PSoC4/IsrEnoUART.c **** #include <IsrEnoUART.h>
  22:Generated_Source\PSoC4/IsrEnoUART.c **** #include "cyapicallbacks.h"
  23:Generated_Source\PSoC4/IsrEnoUART.c **** 
  24:Generated_Source\PSoC4/IsrEnoUART.c **** #if !defined(IsrEnoUART__REMOVED) /* Check for removal by optimization */
  25:Generated_Source\PSoC4/IsrEnoUART.c **** 
  26:Generated_Source\PSoC4/IsrEnoUART.c **** /*******************************************************************************
  27:Generated_Source\PSoC4/IsrEnoUART.c **** *  Place your includes, defines and code here 
  28:Generated_Source\PSoC4/IsrEnoUART.c **** ********************************************************************************/
  29:Generated_Source\PSoC4/IsrEnoUART.c **** /* `#START IsrEnoUART_intc` */
  30:Generated_Source\PSoC4/IsrEnoUART.c **** 
ARM GAS  C:\Users\ELEASO~1\AppData\Local\Temp\ccMmZBWf.s 			page 2


  31:Generated_Source\PSoC4/IsrEnoUART.c **** /* `#END` */
  32:Generated_Source\PSoC4/IsrEnoUART.c **** 
  33:Generated_Source\PSoC4/IsrEnoUART.c **** extern cyisraddress CyRamVectors[CYINT_IRQ_BASE + CY_NUM_INTERRUPTS];
  34:Generated_Source\PSoC4/IsrEnoUART.c **** 
  35:Generated_Source\PSoC4/IsrEnoUART.c **** /* Declared in startup, used to set unused interrupts to. */
  36:Generated_Source\PSoC4/IsrEnoUART.c **** CY_ISR_PROTO(IntDefaultHandler);
  37:Generated_Source\PSoC4/IsrEnoUART.c **** 
  38:Generated_Source\PSoC4/IsrEnoUART.c **** 
  39:Generated_Source\PSoC4/IsrEnoUART.c **** /*******************************************************************************
  40:Generated_Source\PSoC4/IsrEnoUART.c **** * Function Name: IsrEnoUART_Start
  41:Generated_Source\PSoC4/IsrEnoUART.c **** ********************************************************************************
  42:Generated_Source\PSoC4/IsrEnoUART.c **** *
  43:Generated_Source\PSoC4/IsrEnoUART.c **** * Summary:
  44:Generated_Source\PSoC4/IsrEnoUART.c **** *  Set up the interrupt and enable it. This function disables the interrupt, 
  45:Generated_Source\PSoC4/IsrEnoUART.c **** *  sets the default interrupt vector, sets the priority from the value in the
  46:Generated_Source\PSoC4/IsrEnoUART.c **** *  Design Wide Resources Interrupt Editor, then enables the interrupt to the 
  47:Generated_Source\PSoC4/IsrEnoUART.c **** *  interrupt controller.
  48:Generated_Source\PSoC4/IsrEnoUART.c **** *
  49:Generated_Source\PSoC4/IsrEnoUART.c **** * Parameters:  
  50:Generated_Source\PSoC4/IsrEnoUART.c **** *   None
  51:Generated_Source\PSoC4/IsrEnoUART.c **** *
  52:Generated_Source\PSoC4/IsrEnoUART.c **** * Return:
  53:Generated_Source\PSoC4/IsrEnoUART.c **** *   None
  54:Generated_Source\PSoC4/IsrEnoUART.c **** *
  55:Generated_Source\PSoC4/IsrEnoUART.c **** *******************************************************************************/
  56:Generated_Source\PSoC4/IsrEnoUART.c **** void IsrEnoUART_Start(void)
  57:Generated_Source\PSoC4/IsrEnoUART.c **** {
  58:Generated_Source\PSoC4/IsrEnoUART.c ****     /* For all we know the interrupt is active. */
  59:Generated_Source\PSoC4/IsrEnoUART.c ****     IsrEnoUART_Disable();
  60:Generated_Source\PSoC4/IsrEnoUART.c **** 
  61:Generated_Source\PSoC4/IsrEnoUART.c ****     /* Set the ISR to point to the IsrEnoUART Interrupt. */
  62:Generated_Source\PSoC4/IsrEnoUART.c ****     IsrEnoUART_SetVector(&IsrEnoUART_Interrupt);
  63:Generated_Source\PSoC4/IsrEnoUART.c **** 
  64:Generated_Source\PSoC4/IsrEnoUART.c ****     /* Set the priority. */
  65:Generated_Source\PSoC4/IsrEnoUART.c ****     IsrEnoUART_SetPriority((uint8)IsrEnoUART_INTC_PRIOR_NUMBER);
  66:Generated_Source\PSoC4/IsrEnoUART.c **** 
  67:Generated_Source\PSoC4/IsrEnoUART.c ****     /* Enable it. */
  68:Generated_Source\PSoC4/IsrEnoUART.c ****     IsrEnoUART_Enable();
  69:Generated_Source\PSoC4/IsrEnoUART.c **** }
  70:Generated_Source\PSoC4/IsrEnoUART.c **** 
  71:Generated_Source\PSoC4/IsrEnoUART.c **** 
  72:Generated_Source\PSoC4/IsrEnoUART.c **** /*******************************************************************************
  73:Generated_Source\PSoC4/IsrEnoUART.c **** * Function Name: IsrEnoUART_StartEx
  74:Generated_Source\PSoC4/IsrEnoUART.c **** ********************************************************************************
  75:Generated_Source\PSoC4/IsrEnoUART.c **** *
  76:Generated_Source\PSoC4/IsrEnoUART.c **** * Summary:
  77:Generated_Source\PSoC4/IsrEnoUART.c **** *  Sets up the interrupt and enables it. This function disables the interrupt,
  78:Generated_Source\PSoC4/IsrEnoUART.c **** *  sets the interrupt vector based on the address passed in, sets the priority 
  79:Generated_Source\PSoC4/IsrEnoUART.c **** *  from the value in the Design Wide Resources Interrupt Editor, then enables 
  80:Generated_Source\PSoC4/IsrEnoUART.c **** *  the interrupt to the interrupt controller.
  81:Generated_Source\PSoC4/IsrEnoUART.c **** *  
  82:Generated_Source\PSoC4/IsrEnoUART.c **** *  When defining ISR functions, the CY_ISR and CY_ISR_PROTO macros should be 
  83:Generated_Source\PSoC4/IsrEnoUART.c **** *  used to provide consistent definition across compilers:
  84:Generated_Source\PSoC4/IsrEnoUART.c **** *  
  85:Generated_Source\PSoC4/IsrEnoUART.c **** *  Function definition example:
  86:Generated_Source\PSoC4/IsrEnoUART.c **** *   CY_ISR(MyISR)
  87:Generated_Source\PSoC4/IsrEnoUART.c **** *   {
ARM GAS  C:\Users\ELEASO~1\AppData\Local\Temp\ccMmZBWf.s 			page 3


  88:Generated_Source\PSoC4/IsrEnoUART.c **** *   }
  89:Generated_Source\PSoC4/IsrEnoUART.c **** *   Function prototype example:
  90:Generated_Source\PSoC4/IsrEnoUART.c **** *   CY_ISR_PROTO(MyISR);
  91:Generated_Source\PSoC4/IsrEnoUART.c **** *
  92:Generated_Source\PSoC4/IsrEnoUART.c **** * Parameters:  
  93:Generated_Source\PSoC4/IsrEnoUART.c **** *   address: Address of the ISR to set in the interrupt vector table.
  94:Generated_Source\PSoC4/IsrEnoUART.c **** *
  95:Generated_Source\PSoC4/IsrEnoUART.c **** * Return:
  96:Generated_Source\PSoC4/IsrEnoUART.c **** *   None
  97:Generated_Source\PSoC4/IsrEnoUART.c **** *
  98:Generated_Source\PSoC4/IsrEnoUART.c **** *******************************************************************************/
  99:Generated_Source\PSoC4/IsrEnoUART.c **** void IsrEnoUART_StartEx(cyisraddress address)
 100:Generated_Source\PSoC4/IsrEnoUART.c **** {
 101:Generated_Source\PSoC4/IsrEnoUART.c ****     /* For all we know the interrupt is active. */
 102:Generated_Source\PSoC4/IsrEnoUART.c ****     IsrEnoUART_Disable();
 103:Generated_Source\PSoC4/IsrEnoUART.c **** 
 104:Generated_Source\PSoC4/IsrEnoUART.c ****     /* Set the ISR to point to the IsrEnoUART Interrupt. */
 105:Generated_Source\PSoC4/IsrEnoUART.c ****     IsrEnoUART_SetVector(address);
 106:Generated_Source\PSoC4/IsrEnoUART.c **** 
 107:Generated_Source\PSoC4/IsrEnoUART.c ****     /* Set the priority. */
 108:Generated_Source\PSoC4/IsrEnoUART.c ****     IsrEnoUART_SetPriority((uint8)IsrEnoUART_INTC_PRIOR_NUMBER);
 109:Generated_Source\PSoC4/IsrEnoUART.c **** 
 110:Generated_Source\PSoC4/IsrEnoUART.c ****     /* Enable it. */
 111:Generated_Source\PSoC4/IsrEnoUART.c ****     IsrEnoUART_Enable();
 112:Generated_Source\PSoC4/IsrEnoUART.c **** }
 113:Generated_Source\PSoC4/IsrEnoUART.c **** 
 114:Generated_Source\PSoC4/IsrEnoUART.c **** 
 115:Generated_Source\PSoC4/IsrEnoUART.c **** /*******************************************************************************
 116:Generated_Source\PSoC4/IsrEnoUART.c **** * Function Name: IsrEnoUART_Stop
 117:Generated_Source\PSoC4/IsrEnoUART.c **** ********************************************************************************
 118:Generated_Source\PSoC4/IsrEnoUART.c **** *
 119:Generated_Source\PSoC4/IsrEnoUART.c **** * Summary:
 120:Generated_Source\PSoC4/IsrEnoUART.c **** *   Disables and removes the interrupt.
 121:Generated_Source\PSoC4/IsrEnoUART.c **** *
 122:Generated_Source\PSoC4/IsrEnoUART.c **** * Parameters:  
 123:Generated_Source\PSoC4/IsrEnoUART.c **** *   None
 124:Generated_Source\PSoC4/IsrEnoUART.c **** *
 125:Generated_Source\PSoC4/IsrEnoUART.c **** * Return:
 126:Generated_Source\PSoC4/IsrEnoUART.c **** *   None
 127:Generated_Source\PSoC4/IsrEnoUART.c **** *
 128:Generated_Source\PSoC4/IsrEnoUART.c **** *******************************************************************************/
 129:Generated_Source\PSoC4/IsrEnoUART.c **** void IsrEnoUART_Stop(void)
 130:Generated_Source\PSoC4/IsrEnoUART.c **** {
 131:Generated_Source\PSoC4/IsrEnoUART.c ****     /* Disable this interrupt. */
 132:Generated_Source\PSoC4/IsrEnoUART.c ****     IsrEnoUART_Disable();
 133:Generated_Source\PSoC4/IsrEnoUART.c **** 
 134:Generated_Source\PSoC4/IsrEnoUART.c ****     /* Set the ISR to point to the passive one. */
 135:Generated_Source\PSoC4/IsrEnoUART.c ****     IsrEnoUART_SetVector(&IntDefaultHandler);
 136:Generated_Source\PSoC4/IsrEnoUART.c **** }
 137:Generated_Source\PSoC4/IsrEnoUART.c **** 
 138:Generated_Source\PSoC4/IsrEnoUART.c **** 
 139:Generated_Source\PSoC4/IsrEnoUART.c **** /*******************************************************************************
 140:Generated_Source\PSoC4/IsrEnoUART.c **** * Function Name: IsrEnoUART_Interrupt
 141:Generated_Source\PSoC4/IsrEnoUART.c **** ********************************************************************************
 142:Generated_Source\PSoC4/IsrEnoUART.c **** *
 143:Generated_Source\PSoC4/IsrEnoUART.c **** * Summary:
 144:Generated_Source\PSoC4/IsrEnoUART.c **** *   The default Interrupt Service Routine for IsrEnoUART.
ARM GAS  C:\Users\ELEASO~1\AppData\Local\Temp\ccMmZBWf.s 			page 4


 145:Generated_Source\PSoC4/IsrEnoUART.c **** *
 146:Generated_Source\PSoC4/IsrEnoUART.c **** *   Add custom code between the START and END comments to keep the next version
 147:Generated_Source\PSoC4/IsrEnoUART.c **** *   of this file from over-writing your code.
 148:Generated_Source\PSoC4/IsrEnoUART.c **** *
 149:Generated_Source\PSoC4/IsrEnoUART.c **** *   Note You may use either the default ISR by using this API, or you may define
 150:Generated_Source\PSoC4/IsrEnoUART.c **** *   your own separate ISR through ISR_StartEx().
 151:Generated_Source\PSoC4/IsrEnoUART.c **** *
 152:Generated_Source\PSoC4/IsrEnoUART.c **** * Parameters:  
 153:Generated_Source\PSoC4/IsrEnoUART.c **** *   None
 154:Generated_Source\PSoC4/IsrEnoUART.c **** *
 155:Generated_Source\PSoC4/IsrEnoUART.c **** * Return:
 156:Generated_Source\PSoC4/IsrEnoUART.c **** *   None
 157:Generated_Source\PSoC4/IsrEnoUART.c **** *
 158:Generated_Source\PSoC4/IsrEnoUART.c **** *******************************************************************************/
 159:Generated_Source\PSoC4/IsrEnoUART.c **** CY_ISR(IsrEnoUART_Interrupt)
 160:Generated_Source\PSoC4/IsrEnoUART.c **** {
  28              		.loc 1 160 0
  29              		.cfi_startproc
  30              		@ args = 0, pretend = 0, frame = 0
  31              		@ frame_needed = 0, uses_anonymous_args = 0
  32              		@ link register save eliminated.
 161:Generated_Source\PSoC4/IsrEnoUART.c ****     #ifdef IsrEnoUART_INTERRUPT_INTERRUPT_CALLBACK
 162:Generated_Source\PSoC4/IsrEnoUART.c ****         IsrEnoUART_Interrupt_InterruptCallback();
 163:Generated_Source\PSoC4/IsrEnoUART.c ****     #endif /* IsrEnoUART_INTERRUPT_INTERRUPT_CALLBACK */ 
 164:Generated_Source\PSoC4/IsrEnoUART.c **** 
 165:Generated_Source\PSoC4/IsrEnoUART.c ****     /*  Place your Interrupt code here. */
 166:Generated_Source\PSoC4/IsrEnoUART.c ****     /* `#START IsrEnoUART_Interrupt` */
 167:Generated_Source\PSoC4/IsrEnoUART.c **** 
 168:Generated_Source\PSoC4/IsrEnoUART.c ****     /* `#END` */
 169:Generated_Source\PSoC4/IsrEnoUART.c **** }
  33              		.loc 1 169 0
  34              		@ sp needed
  35 0000 7047     		bx	lr
  36              		.cfi_endproc
  37              	.LFE3:
  38              		.size	IsrEnoUART_Interrupt, .-IsrEnoUART_Interrupt
  39 0002 C046     		.section	.text.IsrEnoUART_SetVector,"ax",%progbits
  40              		.align	2
  41              		.global	IsrEnoUART_SetVector
  42              		.code	16
  43              		.thumb_func
  44              		.type	IsrEnoUART_SetVector, %function
  45              	IsrEnoUART_SetVector:
  46              	.LFB4:
 170:Generated_Source\PSoC4/IsrEnoUART.c **** 
 171:Generated_Source\PSoC4/IsrEnoUART.c **** 
 172:Generated_Source\PSoC4/IsrEnoUART.c **** /*******************************************************************************
 173:Generated_Source\PSoC4/IsrEnoUART.c **** * Function Name: IsrEnoUART_SetVector
 174:Generated_Source\PSoC4/IsrEnoUART.c **** ********************************************************************************
 175:Generated_Source\PSoC4/IsrEnoUART.c **** *
 176:Generated_Source\PSoC4/IsrEnoUART.c **** * Summary:
 177:Generated_Source\PSoC4/IsrEnoUART.c **** *   Change the ISR vector for the Interrupt. Note calling IsrEnoUART_Start
 178:Generated_Source\PSoC4/IsrEnoUART.c **** *   will override any effect this method would have had. To set the vector 
 179:Generated_Source\PSoC4/IsrEnoUART.c **** *   before the component has been started use IsrEnoUART_StartEx instead.
 180:Generated_Source\PSoC4/IsrEnoUART.c **** * 
 181:Generated_Source\PSoC4/IsrEnoUART.c **** *   When defining ISR functions, the CY_ISR and CY_ISR_PROTO macros should be 
 182:Generated_Source\PSoC4/IsrEnoUART.c **** *   used to provide consistent definition across compilers:
ARM GAS  C:\Users\ELEASO~1\AppData\Local\Temp\ccMmZBWf.s 			page 5


 183:Generated_Source\PSoC4/IsrEnoUART.c **** *
 184:Generated_Source\PSoC4/IsrEnoUART.c **** *   Function definition example:
 185:Generated_Source\PSoC4/IsrEnoUART.c **** *   CY_ISR(MyISR)
 186:Generated_Source\PSoC4/IsrEnoUART.c **** *   {
 187:Generated_Source\PSoC4/IsrEnoUART.c **** *   }
 188:Generated_Source\PSoC4/IsrEnoUART.c **** *
 189:Generated_Source\PSoC4/IsrEnoUART.c **** *   Function prototype example:
 190:Generated_Source\PSoC4/IsrEnoUART.c **** *     CY_ISR_PROTO(MyISR);
 191:Generated_Source\PSoC4/IsrEnoUART.c **** *
 192:Generated_Source\PSoC4/IsrEnoUART.c **** * Parameters:
 193:Generated_Source\PSoC4/IsrEnoUART.c **** *   address: Address of the ISR to set in the interrupt vector table.
 194:Generated_Source\PSoC4/IsrEnoUART.c **** *
 195:Generated_Source\PSoC4/IsrEnoUART.c **** * Return:
 196:Generated_Source\PSoC4/IsrEnoUART.c **** *   None
 197:Generated_Source\PSoC4/IsrEnoUART.c **** *
 198:Generated_Source\PSoC4/IsrEnoUART.c **** *******************************************************************************/
 199:Generated_Source\PSoC4/IsrEnoUART.c **** void IsrEnoUART_SetVector(cyisraddress address)
 200:Generated_Source\PSoC4/IsrEnoUART.c **** {
  47              		.loc 1 200 0
  48              		.cfi_startproc
  49              		@ args = 0, pretend = 0, frame = 0
  50              		@ frame_needed = 0, uses_anonymous_args = 0
  51              		@ link register save eliminated.
  52              	.LVL0:
 201:Generated_Source\PSoC4/IsrEnoUART.c ****     CyRamVectors[CYINT_IRQ_BASE + IsrEnoUART__INTC_NUMBER] = address;
  53              		.loc 1 201 0
  54 0000 014B     		ldr	r3, .L3
  55 0002 9866     		str	r0, [r3, #104]
 202:Generated_Source\PSoC4/IsrEnoUART.c **** }
  56              		.loc 1 202 0
  57              		@ sp needed
  58 0004 7047     		bx	lr
  59              	.L4:
  60 0006 C046     		.align	2
  61              	.L3:
  62 0008 00000000 		.word	CyRamVectors
  63              		.cfi_endproc
  64              	.LFE4:
  65              		.size	IsrEnoUART_SetVector, .-IsrEnoUART_SetVector
  66              		.section	.text.IsrEnoUART_GetVector,"ax",%progbits
  67              		.align	2
  68              		.global	IsrEnoUART_GetVector
  69              		.code	16
  70              		.thumb_func
  71              		.type	IsrEnoUART_GetVector, %function
  72              	IsrEnoUART_GetVector:
  73              	.LFB5:
 203:Generated_Source\PSoC4/IsrEnoUART.c **** 
 204:Generated_Source\PSoC4/IsrEnoUART.c **** 
 205:Generated_Source\PSoC4/IsrEnoUART.c **** /*******************************************************************************
 206:Generated_Source\PSoC4/IsrEnoUART.c **** * Function Name: IsrEnoUART_GetVector
 207:Generated_Source\PSoC4/IsrEnoUART.c **** ********************************************************************************
 208:Generated_Source\PSoC4/IsrEnoUART.c **** *
 209:Generated_Source\PSoC4/IsrEnoUART.c **** * Summary:
 210:Generated_Source\PSoC4/IsrEnoUART.c **** *   Gets the "address" of the current ISR vector for the Interrupt.
 211:Generated_Source\PSoC4/IsrEnoUART.c **** *
 212:Generated_Source\PSoC4/IsrEnoUART.c **** * Parameters:
ARM GAS  C:\Users\ELEASO~1\AppData\Local\Temp\ccMmZBWf.s 			page 6


 213:Generated_Source\PSoC4/IsrEnoUART.c **** *   None
 214:Generated_Source\PSoC4/IsrEnoUART.c **** *
 215:Generated_Source\PSoC4/IsrEnoUART.c **** * Return:
 216:Generated_Source\PSoC4/IsrEnoUART.c **** *   Address of the ISR in the interrupt vector table.
 217:Generated_Source\PSoC4/IsrEnoUART.c **** *
 218:Generated_Source\PSoC4/IsrEnoUART.c **** *******************************************************************************/
 219:Generated_Source\PSoC4/IsrEnoUART.c **** cyisraddress IsrEnoUART_GetVector(void)
 220:Generated_Source\PSoC4/IsrEnoUART.c **** {
  74              		.loc 1 220 0
  75              		.cfi_startproc
  76              		@ args = 0, pretend = 0, frame = 0
  77              		@ frame_needed = 0, uses_anonymous_args = 0
  78              		@ link register save eliminated.
 221:Generated_Source\PSoC4/IsrEnoUART.c ****     return CyRamVectors[CYINT_IRQ_BASE + IsrEnoUART__INTC_NUMBER];
  79              		.loc 1 221 0
  80 0000 014B     		ldr	r3, .L6
  81 0002 986E     		ldr	r0, [r3, #104]
 222:Generated_Source\PSoC4/IsrEnoUART.c **** }
  82              		.loc 1 222 0
  83              		@ sp needed
  84 0004 7047     		bx	lr
  85              	.L7:
  86 0006 C046     		.align	2
  87              	.L6:
  88 0008 00000000 		.word	CyRamVectors
  89              		.cfi_endproc
  90              	.LFE5:
  91              		.size	IsrEnoUART_GetVector, .-IsrEnoUART_GetVector
  92              		.section	.text.IsrEnoUART_SetPriority,"ax",%progbits
  93              		.align	2
  94              		.global	IsrEnoUART_SetPriority
  95              		.code	16
  96              		.thumb_func
  97              		.type	IsrEnoUART_SetPriority, %function
  98              	IsrEnoUART_SetPriority:
  99              	.LFB6:
 223:Generated_Source\PSoC4/IsrEnoUART.c **** 
 224:Generated_Source\PSoC4/IsrEnoUART.c **** 
 225:Generated_Source\PSoC4/IsrEnoUART.c **** /*******************************************************************************
 226:Generated_Source\PSoC4/IsrEnoUART.c **** * Function Name: IsrEnoUART_SetPriority
 227:Generated_Source\PSoC4/IsrEnoUART.c **** ********************************************************************************
 228:Generated_Source\PSoC4/IsrEnoUART.c **** *
 229:Generated_Source\PSoC4/IsrEnoUART.c **** * Summary:
 230:Generated_Source\PSoC4/IsrEnoUART.c **** *   Sets the Priority of the Interrupt. 
 231:Generated_Source\PSoC4/IsrEnoUART.c **** *
 232:Generated_Source\PSoC4/IsrEnoUART.c **** *   Note calling IsrEnoUART_Start or IsrEnoUART_StartEx will 
 233:Generated_Source\PSoC4/IsrEnoUART.c **** *   override any effect this API would have had. This API should only be called
 234:Generated_Source\PSoC4/IsrEnoUART.c **** *   after IsrEnoUART_Start or IsrEnoUART_StartEx has been called. 
 235:Generated_Source\PSoC4/IsrEnoUART.c **** *   To set the initial priority for the component, use the Design-Wide Resources
 236:Generated_Source\PSoC4/IsrEnoUART.c **** *   Interrupt Editor.
 237:Generated_Source\PSoC4/IsrEnoUART.c **** *
 238:Generated_Source\PSoC4/IsrEnoUART.c **** *   Note This API has no effect on Non-maskable interrupt NMI).
 239:Generated_Source\PSoC4/IsrEnoUART.c **** *
 240:Generated_Source\PSoC4/IsrEnoUART.c **** * Parameters:
 241:Generated_Source\PSoC4/IsrEnoUART.c **** *   priority: Priority of the interrupt, 0 being the highest priority
 242:Generated_Source\PSoC4/IsrEnoUART.c **** *             PSoC 3 and PSoC 5LP: Priority is from 0 to 7.
 243:Generated_Source\PSoC4/IsrEnoUART.c **** *             PSoC 4: Priority is from 0 to 3.
ARM GAS  C:\Users\ELEASO~1\AppData\Local\Temp\ccMmZBWf.s 			page 7


 244:Generated_Source\PSoC4/IsrEnoUART.c **** *
 245:Generated_Source\PSoC4/IsrEnoUART.c **** * Return:
 246:Generated_Source\PSoC4/IsrEnoUART.c **** *   None
 247:Generated_Source\PSoC4/IsrEnoUART.c **** *
 248:Generated_Source\PSoC4/IsrEnoUART.c **** *******************************************************************************/
 249:Generated_Source\PSoC4/IsrEnoUART.c **** void IsrEnoUART_SetPriority(uint8 priority)
 250:Generated_Source\PSoC4/IsrEnoUART.c **** {
 100              		.loc 1 250 0
 101              		.cfi_startproc
 102              		@ args = 0, pretend = 0, frame = 0
 103              		@ frame_needed = 0, uses_anonymous_args = 0
 104              	.LVL1:
 105 0000 10B5     		push	{r4, lr}
 106              		.cfi_def_cfa_offset 8
 107              		.cfi_offset 4, -8
 108              		.cfi_offset 14, -4
 109 0002 0400     		movs	r4, r0
 110              	.LVL2:
 251:Generated_Source\PSoC4/IsrEnoUART.c **** 	uint8 interruptState;
 252:Generated_Source\PSoC4/IsrEnoUART.c ****     uint32 priorityOffset = ((IsrEnoUART__INTC_NUMBER % 4u) * 8u) + 6u;
 253:Generated_Source\PSoC4/IsrEnoUART.c ****     
 254:Generated_Source\PSoC4/IsrEnoUART.c **** 	interruptState = CyEnterCriticalSection();
 111              		.loc 1 254 0
 112 0004 FFF7FEFF 		bl	CyEnterCriticalSection
 113              	.LVL3:
 255:Generated_Source\PSoC4/IsrEnoUART.c ****     *IsrEnoUART_INTC_PRIOR = (*IsrEnoUART_INTC_PRIOR & (uint32)(~IsrEnoUART__INTC_PRIOR_MASK)) |
 114              		.loc 1 255 0
 115 0008 044A     		ldr	r2, .L9
 116 000a 1168     		ldr	r1, [r2]
 117 000c 044B     		ldr	r3, .L9+4
 118 000e 0B40     		ands	r3, r1
 256:Generated_Source\PSoC4/IsrEnoUART.c ****                                     ((uint32)priority << priorityOffset);
 119              		.loc 1 256 0
 120 0010 A405     		lsls	r4, r4, #22
 255:Generated_Source\PSoC4/IsrEnoUART.c ****     *IsrEnoUART_INTC_PRIOR = (*IsrEnoUART_INTC_PRIOR & (uint32)(~IsrEnoUART__INTC_PRIOR_MASK)) |
 121              		.loc 1 255 0
 122 0012 1C43     		orrs	r4, r3
 123 0014 1460     		str	r4, [r2]
 257:Generated_Source\PSoC4/IsrEnoUART.c **** 	CyExitCriticalSection(interruptState);
 124              		.loc 1 257 0
 125 0016 FFF7FEFF 		bl	CyExitCriticalSection
 126              	.LVL4:
 258:Generated_Source\PSoC4/IsrEnoUART.c **** }
 127              		.loc 1 258 0
 128              		@ sp needed
 129 001a 10BD     		pop	{r4, pc}
 130              	.L10:
 131              		.align	2
 132              	.L9:
 133 001c 08E400E0 		.word	-536812536
 134 0020 FFFF3FFF 		.word	-12582913
 135              		.cfi_endproc
 136              	.LFE6:
 137              		.size	IsrEnoUART_SetPriority, .-IsrEnoUART_SetPriority
 138              		.section	.text.IsrEnoUART_GetPriority,"ax",%progbits
 139              		.align	2
 140              		.global	IsrEnoUART_GetPriority
ARM GAS  C:\Users\ELEASO~1\AppData\Local\Temp\ccMmZBWf.s 			page 8


 141              		.code	16
 142              		.thumb_func
 143              		.type	IsrEnoUART_GetPriority, %function
 144              	IsrEnoUART_GetPriority:
 145              	.LFB7:
 259:Generated_Source\PSoC4/IsrEnoUART.c **** 
 260:Generated_Source\PSoC4/IsrEnoUART.c **** 
 261:Generated_Source\PSoC4/IsrEnoUART.c **** /*******************************************************************************
 262:Generated_Source\PSoC4/IsrEnoUART.c **** * Function Name: IsrEnoUART_GetPriority
 263:Generated_Source\PSoC4/IsrEnoUART.c **** ********************************************************************************
 264:Generated_Source\PSoC4/IsrEnoUART.c **** *
 265:Generated_Source\PSoC4/IsrEnoUART.c **** * Summary:
 266:Generated_Source\PSoC4/IsrEnoUART.c **** *   Gets the Priority of the Interrupt.
 267:Generated_Source\PSoC4/IsrEnoUART.c **** *
 268:Generated_Source\PSoC4/IsrEnoUART.c **** * Parameters:
 269:Generated_Source\PSoC4/IsrEnoUART.c **** *   None
 270:Generated_Source\PSoC4/IsrEnoUART.c **** *
 271:Generated_Source\PSoC4/IsrEnoUART.c **** * Return:
 272:Generated_Source\PSoC4/IsrEnoUART.c **** *   Priority of the interrupt, 0 being the highest priority
 273:Generated_Source\PSoC4/IsrEnoUART.c **** *    PSoC 3 and PSoC 5LP: Priority is from 0 to 7.
 274:Generated_Source\PSoC4/IsrEnoUART.c **** *    PSoC 4: Priority is from 0 to 3.
 275:Generated_Source\PSoC4/IsrEnoUART.c **** *
 276:Generated_Source\PSoC4/IsrEnoUART.c **** *******************************************************************************/
 277:Generated_Source\PSoC4/IsrEnoUART.c **** uint8 IsrEnoUART_GetPriority(void)
 278:Generated_Source\PSoC4/IsrEnoUART.c **** {
 146              		.loc 1 278 0
 147              		.cfi_startproc
 148              		@ args = 0, pretend = 0, frame = 0
 149              		@ frame_needed = 0, uses_anonymous_args = 0
 150              		@ link register save eliminated.
 151              	.LVL5:
 279:Generated_Source\PSoC4/IsrEnoUART.c ****     uint32 priority;
 280:Generated_Source\PSoC4/IsrEnoUART.c **** 	uint32 priorityOffset = ((IsrEnoUART__INTC_NUMBER % 4u) * 8u) + 6u;
 281:Generated_Source\PSoC4/IsrEnoUART.c **** 
 282:Generated_Source\PSoC4/IsrEnoUART.c ****     priority = (*IsrEnoUART_INTC_PRIOR & IsrEnoUART__INTC_PRIOR_MASK) >> priorityOffset;
 152              		.loc 1 282 0
 153 0000 024B     		ldr	r3, .L12
 154 0002 1868     		ldr	r0, [r3]
 155 0004 800D     		lsrs	r0, r0, #22
 156              	.LVL6:
 283:Generated_Source\PSoC4/IsrEnoUART.c **** 
 284:Generated_Source\PSoC4/IsrEnoUART.c ****     return (uint8)priority;
 157              		.loc 1 284 0
 158 0006 0323     		movs	r3, #3
 159 0008 1840     		ands	r0, r3
 160              	.LVL7:
 285:Generated_Source\PSoC4/IsrEnoUART.c **** }
 161              		.loc 1 285 0
 162              		@ sp needed
 163 000a 7047     		bx	lr
 164              	.L13:
 165              		.align	2
 166              	.L12:
 167 000c 08E400E0 		.word	-536812536
 168              		.cfi_endproc
 169              	.LFE7:
 170              		.size	IsrEnoUART_GetPriority, .-IsrEnoUART_GetPriority
ARM GAS  C:\Users\ELEASO~1\AppData\Local\Temp\ccMmZBWf.s 			page 9


 171              		.section	.text.IsrEnoUART_Enable,"ax",%progbits
 172              		.align	2
 173              		.global	IsrEnoUART_Enable
 174              		.code	16
 175              		.thumb_func
 176              		.type	IsrEnoUART_Enable, %function
 177              	IsrEnoUART_Enable:
 178              	.LFB8:
 286:Generated_Source\PSoC4/IsrEnoUART.c **** 
 287:Generated_Source\PSoC4/IsrEnoUART.c **** 
 288:Generated_Source\PSoC4/IsrEnoUART.c **** /*******************************************************************************
 289:Generated_Source\PSoC4/IsrEnoUART.c **** * Function Name: IsrEnoUART_Enable
 290:Generated_Source\PSoC4/IsrEnoUART.c **** ********************************************************************************
 291:Generated_Source\PSoC4/IsrEnoUART.c **** *
 292:Generated_Source\PSoC4/IsrEnoUART.c **** * Summary:
 293:Generated_Source\PSoC4/IsrEnoUART.c **** *   Enables the interrupt to the interrupt controller. Do not call this function
 294:Generated_Source\PSoC4/IsrEnoUART.c **** *   unless ISR_Start() has been called or the functionality of the ISR_Start() 
 295:Generated_Source\PSoC4/IsrEnoUART.c **** *   function, which sets the vector and the priority, has been called.
 296:Generated_Source\PSoC4/IsrEnoUART.c **** *
 297:Generated_Source\PSoC4/IsrEnoUART.c **** * Parameters:
 298:Generated_Source\PSoC4/IsrEnoUART.c **** *   None
 299:Generated_Source\PSoC4/IsrEnoUART.c **** *
 300:Generated_Source\PSoC4/IsrEnoUART.c **** * Return:
 301:Generated_Source\PSoC4/IsrEnoUART.c **** *   None
 302:Generated_Source\PSoC4/IsrEnoUART.c **** *
 303:Generated_Source\PSoC4/IsrEnoUART.c **** *******************************************************************************/
 304:Generated_Source\PSoC4/IsrEnoUART.c **** void IsrEnoUART_Enable(void)
 305:Generated_Source\PSoC4/IsrEnoUART.c **** {
 179              		.loc 1 305 0
 180              		.cfi_startproc
 181              		@ args = 0, pretend = 0, frame = 0
 182              		@ frame_needed = 0, uses_anonymous_args = 0
 183              		@ link register save eliminated.
 306:Generated_Source\PSoC4/IsrEnoUART.c ****     /* Enable the general interrupt. */
 307:Generated_Source\PSoC4/IsrEnoUART.c ****     *IsrEnoUART_INTC_SET_EN = IsrEnoUART__INTC_MASK;
 184              		.loc 1 307 0
 185 0000 8022     		movs	r2, #128
 186 0002 D200     		lsls	r2, r2, #3
 187 0004 014B     		ldr	r3, .L15
 188 0006 1A60     		str	r2, [r3]
 308:Generated_Source\PSoC4/IsrEnoUART.c **** }
 189              		.loc 1 308 0
 190              		@ sp needed
 191 0008 7047     		bx	lr
 192              	.L16:
 193 000a C046     		.align	2
 194              	.L15:
 195 000c 00E100E0 		.word	-536813312
 196              		.cfi_endproc
 197              	.LFE8:
 198              		.size	IsrEnoUART_Enable, .-IsrEnoUART_Enable
 199              		.section	.text.IsrEnoUART_GetState,"ax",%progbits
 200              		.align	2
 201              		.global	IsrEnoUART_GetState
 202              		.code	16
 203              		.thumb_func
 204              		.type	IsrEnoUART_GetState, %function
ARM GAS  C:\Users\ELEASO~1\AppData\Local\Temp\ccMmZBWf.s 			page 10


 205              	IsrEnoUART_GetState:
 206              	.LFB9:
 309:Generated_Source\PSoC4/IsrEnoUART.c **** 
 310:Generated_Source\PSoC4/IsrEnoUART.c **** 
 311:Generated_Source\PSoC4/IsrEnoUART.c **** /*******************************************************************************
 312:Generated_Source\PSoC4/IsrEnoUART.c **** * Function Name: IsrEnoUART_GetState
 313:Generated_Source\PSoC4/IsrEnoUART.c **** ********************************************************************************
 314:Generated_Source\PSoC4/IsrEnoUART.c **** *
 315:Generated_Source\PSoC4/IsrEnoUART.c **** * Summary:
 316:Generated_Source\PSoC4/IsrEnoUART.c **** *   Gets the state (enabled, disabled) of the Interrupt.
 317:Generated_Source\PSoC4/IsrEnoUART.c **** *
 318:Generated_Source\PSoC4/IsrEnoUART.c **** * Parameters:
 319:Generated_Source\PSoC4/IsrEnoUART.c **** *   None
 320:Generated_Source\PSoC4/IsrEnoUART.c **** *
 321:Generated_Source\PSoC4/IsrEnoUART.c **** * Return:
 322:Generated_Source\PSoC4/IsrEnoUART.c **** *   1 if enabled, 0 if disabled.
 323:Generated_Source\PSoC4/IsrEnoUART.c **** *
 324:Generated_Source\PSoC4/IsrEnoUART.c **** *******************************************************************************/
 325:Generated_Source\PSoC4/IsrEnoUART.c **** uint8 IsrEnoUART_GetState(void)
 326:Generated_Source\PSoC4/IsrEnoUART.c **** {
 207              		.loc 1 326 0
 208              		.cfi_startproc
 209              		@ args = 0, pretend = 0, frame = 0
 210              		@ frame_needed = 0, uses_anonymous_args = 0
 211              		@ link register save eliminated.
 327:Generated_Source\PSoC4/IsrEnoUART.c ****     /* Get the state of the general interrupt. */
 328:Generated_Source\PSoC4/IsrEnoUART.c ****     return ((*IsrEnoUART_INTC_SET_EN & (uint32)IsrEnoUART__INTC_MASK) != 0u) ? 1u:0u;
 212              		.loc 1 328 0
 213 0000 034B     		ldr	r3, .L20
 214 0002 1B68     		ldr	r3, [r3]
 215 0004 5B05     		lsls	r3, r3, #21
 216 0006 01D5     		bpl	.L19
 217 0008 0120     		movs	r0, #1
 218 000a 00E0     		b	.L18
 219              	.L19:
 220 000c 0020     		movs	r0, #0
 221              	.L18:
 329:Generated_Source\PSoC4/IsrEnoUART.c **** }
 222              		.loc 1 329 0 discriminator 4
 223              		@ sp needed
 224 000e 7047     		bx	lr
 225              	.L21:
 226              		.align	2
 227              	.L20:
 228 0010 00E100E0 		.word	-536813312
 229              		.cfi_endproc
 230              	.LFE9:
 231              		.size	IsrEnoUART_GetState, .-IsrEnoUART_GetState
 232              		.section	.text.IsrEnoUART_Disable,"ax",%progbits
 233              		.align	2
 234              		.global	IsrEnoUART_Disable
 235              		.code	16
 236              		.thumb_func
 237              		.type	IsrEnoUART_Disable, %function
 238              	IsrEnoUART_Disable:
 239              	.LFB10:
 330:Generated_Source\PSoC4/IsrEnoUART.c **** 
ARM GAS  C:\Users\ELEASO~1\AppData\Local\Temp\ccMmZBWf.s 			page 11


 331:Generated_Source\PSoC4/IsrEnoUART.c **** 
 332:Generated_Source\PSoC4/IsrEnoUART.c **** /*******************************************************************************
 333:Generated_Source\PSoC4/IsrEnoUART.c **** * Function Name: IsrEnoUART_Disable
 334:Generated_Source\PSoC4/IsrEnoUART.c **** ********************************************************************************
 335:Generated_Source\PSoC4/IsrEnoUART.c **** *
 336:Generated_Source\PSoC4/IsrEnoUART.c **** * Summary:
 337:Generated_Source\PSoC4/IsrEnoUART.c **** *   Disables the Interrupt in the interrupt controller.
 338:Generated_Source\PSoC4/IsrEnoUART.c **** *
 339:Generated_Source\PSoC4/IsrEnoUART.c **** * Parameters:
 340:Generated_Source\PSoC4/IsrEnoUART.c **** *   None
 341:Generated_Source\PSoC4/IsrEnoUART.c **** *
 342:Generated_Source\PSoC4/IsrEnoUART.c **** * Return:
 343:Generated_Source\PSoC4/IsrEnoUART.c **** *   None
 344:Generated_Source\PSoC4/IsrEnoUART.c **** *
 345:Generated_Source\PSoC4/IsrEnoUART.c **** *******************************************************************************/
 346:Generated_Source\PSoC4/IsrEnoUART.c **** void IsrEnoUART_Disable(void)
 347:Generated_Source\PSoC4/IsrEnoUART.c **** {
 240              		.loc 1 347 0
 241              		.cfi_startproc
 242              		@ args = 0, pretend = 0, frame = 0
 243              		@ frame_needed = 0, uses_anonymous_args = 0
 244              		@ link register save eliminated.
 348:Generated_Source\PSoC4/IsrEnoUART.c ****     /* Disable the general interrupt. */
 349:Generated_Source\PSoC4/IsrEnoUART.c ****     *IsrEnoUART_INTC_CLR_EN = IsrEnoUART__INTC_MASK;
 245              		.loc 1 349 0
 246 0000 8022     		movs	r2, #128
 247 0002 D200     		lsls	r2, r2, #3
 248 0004 014B     		ldr	r3, .L23
 249 0006 1A60     		str	r2, [r3]
 350:Generated_Source\PSoC4/IsrEnoUART.c **** }
 250              		.loc 1 350 0
 251              		@ sp needed
 252 0008 7047     		bx	lr
 253              	.L24:
 254 000a C046     		.align	2
 255              	.L23:
 256 000c 80E100E0 		.word	-536813184
 257              		.cfi_endproc
 258              	.LFE10:
 259              		.size	IsrEnoUART_Disable, .-IsrEnoUART_Disable
 260              		.section	.text.IsrEnoUART_Start,"ax",%progbits
 261              		.align	2
 262              		.global	IsrEnoUART_Start
 263              		.code	16
 264              		.thumb_func
 265              		.type	IsrEnoUART_Start, %function
 266              	IsrEnoUART_Start:
 267              	.LFB0:
  57:Generated_Source\PSoC4/IsrEnoUART.c ****     /* For all we know the interrupt is active. */
 268              		.loc 1 57 0
 269              		.cfi_startproc
 270              		@ args = 0, pretend = 0, frame = 0
 271              		@ frame_needed = 0, uses_anonymous_args = 0
 272 0000 10B5     		push	{r4, lr}
 273              		.cfi_def_cfa_offset 8
 274              		.cfi_offset 4, -8
 275              		.cfi_offset 14, -4
ARM GAS  C:\Users\ELEASO~1\AppData\Local\Temp\ccMmZBWf.s 			page 12


  59:Generated_Source\PSoC4/IsrEnoUART.c **** 
 276              		.loc 1 59 0
 277 0002 FFF7FEFF 		bl	IsrEnoUART_Disable
 278              	.LVL8:
  62:Generated_Source\PSoC4/IsrEnoUART.c **** 
 279              		.loc 1 62 0
 280 0006 0448     		ldr	r0, .L26
 281 0008 FFF7FEFF 		bl	IsrEnoUART_SetVector
 282              	.LVL9:
  65:Generated_Source\PSoC4/IsrEnoUART.c **** 
 283              		.loc 1 65 0
 284 000c 0020     		movs	r0, #0
 285 000e FFF7FEFF 		bl	IsrEnoUART_SetPriority
 286              	.LVL10:
  68:Generated_Source\PSoC4/IsrEnoUART.c **** }
 287              		.loc 1 68 0
 288 0012 FFF7FEFF 		bl	IsrEnoUART_Enable
 289              	.LVL11:
  69:Generated_Source\PSoC4/IsrEnoUART.c **** 
 290              		.loc 1 69 0
 291              		@ sp needed
 292 0016 10BD     		pop	{r4, pc}
 293              	.L27:
 294              		.align	2
 295              	.L26:
 296 0018 00000000 		.word	IsrEnoUART_Interrupt
 297              		.cfi_endproc
 298              	.LFE0:
 299              		.size	IsrEnoUART_Start, .-IsrEnoUART_Start
 300              		.section	.text.IsrEnoUART_StartEx,"ax",%progbits
 301              		.align	2
 302              		.global	IsrEnoUART_StartEx
 303              		.code	16
 304              		.thumb_func
 305              		.type	IsrEnoUART_StartEx, %function
 306              	IsrEnoUART_StartEx:
 307              	.LFB1:
 100:Generated_Source\PSoC4/IsrEnoUART.c ****     /* For all we know the interrupt is active. */
 308              		.loc 1 100 0
 309              		.cfi_startproc
 310              		@ args = 0, pretend = 0, frame = 0
 311              		@ frame_needed = 0, uses_anonymous_args = 0
 312              	.LVL12:
 313 0000 10B5     		push	{r4, lr}
 314              		.cfi_def_cfa_offset 8
 315              		.cfi_offset 4, -8
 316              		.cfi_offset 14, -4
 317 0002 0400     		movs	r4, r0
 102:Generated_Source\PSoC4/IsrEnoUART.c **** 
 318              		.loc 1 102 0
 319 0004 FFF7FEFF 		bl	IsrEnoUART_Disable
 320              	.LVL13:
 105:Generated_Source\PSoC4/IsrEnoUART.c **** 
 321              		.loc 1 105 0
 322 0008 2000     		movs	r0, r4
 323 000a FFF7FEFF 		bl	IsrEnoUART_SetVector
 324              	.LVL14:
ARM GAS  C:\Users\ELEASO~1\AppData\Local\Temp\ccMmZBWf.s 			page 13


 108:Generated_Source\PSoC4/IsrEnoUART.c **** 
 325              		.loc 1 108 0
 326 000e 0020     		movs	r0, #0
 327 0010 FFF7FEFF 		bl	IsrEnoUART_SetPriority
 328              	.LVL15:
 111:Generated_Source\PSoC4/IsrEnoUART.c **** }
 329              		.loc 1 111 0
 330 0014 FFF7FEFF 		bl	IsrEnoUART_Enable
 331              	.LVL16:
 112:Generated_Source\PSoC4/IsrEnoUART.c **** 
 332              		.loc 1 112 0
 333              		@ sp needed
 334              	.LVL17:
 335 0018 10BD     		pop	{r4, pc}
 336              		.cfi_endproc
 337              	.LFE1:
 338              		.size	IsrEnoUART_StartEx, .-IsrEnoUART_StartEx
 339 001a C046     		.section	.text.IsrEnoUART_Stop,"ax",%progbits
 340              		.align	2
 341              		.global	IsrEnoUART_Stop
 342              		.code	16
 343              		.thumb_func
 344              		.type	IsrEnoUART_Stop, %function
 345              	IsrEnoUART_Stop:
 346              	.LFB2:
 130:Generated_Source\PSoC4/IsrEnoUART.c ****     /* Disable this interrupt. */
 347              		.loc 1 130 0
 348              		.cfi_startproc
 349              		@ args = 0, pretend = 0, frame = 0
 350              		@ frame_needed = 0, uses_anonymous_args = 0
 351 0000 10B5     		push	{r4, lr}
 352              		.cfi_def_cfa_offset 8
 353              		.cfi_offset 4, -8
 354              		.cfi_offset 14, -4
 132:Generated_Source\PSoC4/IsrEnoUART.c **** 
 355              		.loc 1 132 0
 356 0002 FFF7FEFF 		bl	IsrEnoUART_Disable
 357              	.LVL18:
 135:Generated_Source\PSoC4/IsrEnoUART.c **** }
 358              		.loc 1 135 0
 359 0006 0248     		ldr	r0, .L30
 360 0008 FFF7FEFF 		bl	IsrEnoUART_SetVector
 361              	.LVL19:
 136:Generated_Source\PSoC4/IsrEnoUART.c **** 
 362              		.loc 1 136 0
 363              		@ sp needed
 364 000c 10BD     		pop	{r4, pc}
 365              	.L31:
 366 000e C046     		.align	2
 367              	.L30:
 368 0010 00000000 		.word	IntDefaultHandler
 369              		.cfi_endproc
 370              	.LFE2:
 371              		.size	IsrEnoUART_Stop, .-IsrEnoUART_Stop
 372              		.section	.text.IsrEnoUART_SetPending,"ax",%progbits
 373              		.align	2
 374              		.global	IsrEnoUART_SetPending
ARM GAS  C:\Users\ELEASO~1\AppData\Local\Temp\ccMmZBWf.s 			page 14


 375              		.code	16
 376              		.thumb_func
 377              		.type	IsrEnoUART_SetPending, %function
 378              	IsrEnoUART_SetPending:
 379              	.LFB11:
 351:Generated_Source\PSoC4/IsrEnoUART.c **** 
 352:Generated_Source\PSoC4/IsrEnoUART.c **** 
 353:Generated_Source\PSoC4/IsrEnoUART.c **** /*******************************************************************************
 354:Generated_Source\PSoC4/IsrEnoUART.c **** * Function Name: IsrEnoUART_SetPending
 355:Generated_Source\PSoC4/IsrEnoUART.c **** ********************************************************************************
 356:Generated_Source\PSoC4/IsrEnoUART.c **** *
 357:Generated_Source\PSoC4/IsrEnoUART.c **** * Summary:
 358:Generated_Source\PSoC4/IsrEnoUART.c **** *   Causes the Interrupt to enter the pending state, a software method of
 359:Generated_Source\PSoC4/IsrEnoUART.c **** *   generating the interrupt.
 360:Generated_Source\PSoC4/IsrEnoUART.c **** *
 361:Generated_Source\PSoC4/IsrEnoUART.c **** * Parameters:
 362:Generated_Source\PSoC4/IsrEnoUART.c **** *   None
 363:Generated_Source\PSoC4/IsrEnoUART.c **** *
 364:Generated_Source\PSoC4/IsrEnoUART.c **** * Return:
 365:Generated_Source\PSoC4/IsrEnoUART.c **** *   None
 366:Generated_Source\PSoC4/IsrEnoUART.c **** *
 367:Generated_Source\PSoC4/IsrEnoUART.c **** * Side Effects:
 368:Generated_Source\PSoC4/IsrEnoUART.c **** *   If interrupts are enabled and the interrupt is set up properly, the ISR is
 369:Generated_Source\PSoC4/IsrEnoUART.c **** *   entered (depending on the priority of this interrupt and other pending 
 370:Generated_Source\PSoC4/IsrEnoUART.c **** *   interrupts).
 371:Generated_Source\PSoC4/IsrEnoUART.c **** *
 372:Generated_Source\PSoC4/IsrEnoUART.c **** *******************************************************************************/
 373:Generated_Source\PSoC4/IsrEnoUART.c **** void IsrEnoUART_SetPending(void)
 374:Generated_Source\PSoC4/IsrEnoUART.c **** {
 380              		.loc 1 374 0
 381              		.cfi_startproc
 382              		@ args = 0, pretend = 0, frame = 0
 383              		@ frame_needed = 0, uses_anonymous_args = 0
 384              		@ link register save eliminated.
 375:Generated_Source\PSoC4/IsrEnoUART.c ****     *IsrEnoUART_INTC_SET_PD = IsrEnoUART__INTC_MASK;
 385              		.loc 1 375 0
 386 0000 8022     		movs	r2, #128
 387 0002 D200     		lsls	r2, r2, #3
 388 0004 014B     		ldr	r3, .L33
 389 0006 1A60     		str	r2, [r3]
 376:Generated_Source\PSoC4/IsrEnoUART.c **** }
 390              		.loc 1 376 0
 391              		@ sp needed
 392 0008 7047     		bx	lr
 393              	.L34:
 394 000a C046     		.align	2
 395              	.L33:
 396 000c 00E200E0 		.word	-536813056
 397              		.cfi_endproc
 398              	.LFE11:
 399              		.size	IsrEnoUART_SetPending, .-IsrEnoUART_SetPending
 400              		.section	.text.IsrEnoUART_ClearPending,"ax",%progbits
 401              		.align	2
 402              		.global	IsrEnoUART_ClearPending
 403              		.code	16
 404              		.thumb_func
 405              		.type	IsrEnoUART_ClearPending, %function
ARM GAS  C:\Users\ELEASO~1\AppData\Local\Temp\ccMmZBWf.s 			page 15


 406              	IsrEnoUART_ClearPending:
 407              	.LFB12:
 377:Generated_Source\PSoC4/IsrEnoUART.c **** 
 378:Generated_Source\PSoC4/IsrEnoUART.c **** 
 379:Generated_Source\PSoC4/IsrEnoUART.c **** /*******************************************************************************
 380:Generated_Source\PSoC4/IsrEnoUART.c **** * Function Name: IsrEnoUART_ClearPending
 381:Generated_Source\PSoC4/IsrEnoUART.c **** ********************************************************************************
 382:Generated_Source\PSoC4/IsrEnoUART.c **** *
 383:Generated_Source\PSoC4/IsrEnoUART.c **** * Summary:
 384:Generated_Source\PSoC4/IsrEnoUART.c **** *   Clears a pending interrupt in the interrupt controller.
 385:Generated_Source\PSoC4/IsrEnoUART.c **** *
 386:Generated_Source\PSoC4/IsrEnoUART.c **** *   Note Some interrupt sources are clear-on-read and require the block 
 387:Generated_Source\PSoC4/IsrEnoUART.c **** *   interrupt/status register to be read/cleared with the appropriate block API 
 388:Generated_Source\PSoC4/IsrEnoUART.c **** *   (GPIO, UART, and so on). Otherwise the ISR will continue to remain in 
 389:Generated_Source\PSoC4/IsrEnoUART.c **** *   pending state even though the interrupt itself is cleared using this API.
 390:Generated_Source\PSoC4/IsrEnoUART.c **** *
 391:Generated_Source\PSoC4/IsrEnoUART.c **** * Parameters:
 392:Generated_Source\PSoC4/IsrEnoUART.c **** *   None
 393:Generated_Source\PSoC4/IsrEnoUART.c **** *
 394:Generated_Source\PSoC4/IsrEnoUART.c **** * Return:
 395:Generated_Source\PSoC4/IsrEnoUART.c **** *   None
 396:Generated_Source\PSoC4/IsrEnoUART.c **** *
 397:Generated_Source\PSoC4/IsrEnoUART.c **** *******************************************************************************/
 398:Generated_Source\PSoC4/IsrEnoUART.c **** void IsrEnoUART_ClearPending(void)
 399:Generated_Source\PSoC4/IsrEnoUART.c **** {
 408              		.loc 1 399 0
 409              		.cfi_startproc
 410              		@ args = 0, pretend = 0, frame = 0
 411              		@ frame_needed = 0, uses_anonymous_args = 0
 412              		@ link register save eliminated.
 400:Generated_Source\PSoC4/IsrEnoUART.c ****     *IsrEnoUART_INTC_CLR_PD = IsrEnoUART__INTC_MASK;
 413              		.loc 1 400 0
 414 0000 8022     		movs	r2, #128
 415 0002 D200     		lsls	r2, r2, #3
 416 0004 014B     		ldr	r3, .L36
 417 0006 1A60     		str	r2, [r3]
 401:Generated_Source\PSoC4/IsrEnoUART.c **** }
 418              		.loc 1 401 0
 419              		@ sp needed
 420 0008 7047     		bx	lr
 421              	.L37:
 422 000a C046     		.align	2
 423              	.L36:
 424 000c 80E200E0 		.word	-536812928
 425              		.cfi_endproc
 426              	.LFE12:
 427              		.size	IsrEnoUART_ClearPending, .-IsrEnoUART_ClearPending
 428              		.text
 429              	.Letext0:
 430              		.file 2 "Generated_Source\\PSoC4/cytypes.h"
 431              		.file 3 "Generated_Source\\PSoC4/CyLib.h"
 432              		.section	.debug_info,"",%progbits
 433              	.Ldebug_info0:
 434 0000 01030000 		.4byte	0x301
 435 0004 0400     		.2byte	0x4
 436 0006 00000000 		.4byte	.Ldebug_abbrev0
 437 000a 04       		.byte	0x4
ARM GAS  C:\Users\ELEASO~1\AppData\Local\Temp\ccMmZBWf.s 			page 16


 438 000b 01       		.uleb128 0x1
 439 000c 91010000 		.4byte	.LASF36
 440 0010 0C       		.byte	0xc
 441 0011 65020000 		.4byte	.LASF37
 442 0015 CE020000 		.4byte	.LASF38
 443 0019 00000000 		.4byte	.Ldebug_ranges0+0
 444 001d 00000000 		.4byte	0
 445 0021 00000000 		.4byte	.Ldebug_line0
 446 0025 02       		.uleb128 0x2
 447 0026 01       		.byte	0x1
 448 0027 06       		.byte	0x6
 449 0028 2C030000 		.4byte	.LASF0
 450 002c 02       		.uleb128 0x2
 451 002d 01       		.byte	0x1
 452 002e 08       		.byte	0x8
 453 002f 77000000 		.4byte	.LASF1
 454 0033 02       		.uleb128 0x2
 455 0034 02       		.byte	0x2
 456 0035 05       		.byte	0x5
 457 0036 A0020000 		.4byte	.LASF2
 458 003a 02       		.uleb128 0x2
 459 003b 02       		.byte	0x2
 460 003c 07       		.byte	0x7
 461 003d 47000000 		.4byte	.LASF3
 462 0041 02       		.uleb128 0x2
 463 0042 04       		.byte	0x4
 464 0043 05       		.byte	0x5
 465 0044 B9020000 		.4byte	.LASF4
 466 0048 02       		.uleb128 0x2
 467 0049 04       		.byte	0x4
 468 004a 07       		.byte	0x7
 469 004b D3000000 		.4byte	.LASF5
 470 004f 02       		.uleb128 0x2
 471 0050 08       		.byte	0x8
 472 0051 05       		.byte	0x5
 473 0052 3D020000 		.4byte	.LASF6
 474 0056 02       		.uleb128 0x2
 475 0057 08       		.byte	0x8
 476 0058 07       		.byte	0x7
 477 0059 60000000 		.4byte	.LASF7
 478 005d 03       		.uleb128 0x3
 479 005e 04       		.byte	0x4
 480 005f 05       		.byte	0x5
 481 0060 696E7400 		.ascii	"int\000"
 482 0064 02       		.uleb128 0x2
 483 0065 04       		.byte	0x4
 484 0066 07       		.byte	0x7
 485 0067 59010000 		.4byte	.LASF8
 486 006b 04       		.uleb128 0x4
 487 006c E5000000 		.4byte	.LASF9
 488 0070 02       		.byte	0x2
 489 0071 B901     		.2byte	0x1b9
 490 0073 2C000000 		.4byte	0x2c
 491 0077 04       		.uleb128 0x4
 492 0078 3B010000 		.4byte	.LASF10
 493 007c 02       		.byte	0x2
 494 007d BB01     		.2byte	0x1bb
ARM GAS  C:\Users\ELEASO~1\AppData\Local\Temp\ccMmZBWf.s 			page 17


 495 007f 48000000 		.4byte	0x48
 496 0083 02       		.uleb128 0x2
 497 0084 04       		.byte	0x4
 498 0085 04       		.byte	0x4
 499 0086 5A000000 		.4byte	.LASF11
 500 008a 02       		.uleb128 0x2
 501 008b 08       		.byte	0x8
 502 008c 04       		.byte	0x4
 503 008d 1D010000 		.4byte	.LASF12
 504 0091 02       		.uleb128 0x2
 505 0092 01       		.byte	0x1
 506 0093 08       		.byte	0x8
 507 0094 60020000 		.4byte	.LASF13
 508 0098 04       		.uleb128 0x4
 509 0099 00000000 		.4byte	.LASF14
 510 009d 02       		.byte	0x2
 511 009e 6502     		.2byte	0x265
 512 00a0 A4000000 		.4byte	0xa4
 513 00a4 05       		.uleb128 0x5
 514 00a5 77000000 		.4byte	0x77
 515 00a9 04       		.uleb128 0x4
 516 00aa 84010000 		.4byte	.LASF15
 517 00ae 02       		.byte	0x2
 518 00af 7502     		.2byte	0x275
 519 00b1 B5000000 		.4byte	0xb5
 520 00b5 06       		.uleb128 0x6
 521 00b6 04       		.byte	0x4
 522 00b7 BB000000 		.4byte	0xbb
 523 00bb 07       		.uleb128 0x7
 524 00bc 02       		.uleb128 0x2
 525 00bd 08       		.byte	0x8
 526 00be 04       		.byte	0x4
 527 00bf C2020000 		.4byte	.LASF16
 528 00c3 02       		.uleb128 0x2
 529 00c4 04       		.byte	0x4
 530 00c5 07       		.byte	0x7
 531 00c6 1F020000 		.4byte	.LASF17
 532 00ca 08       		.uleb128 0x8
 533 00cb 4B020000 		.4byte	.LASF24
 534 00cf 01       		.byte	0x1
 535 00d0 9F       		.byte	0x9f
 536 00d1 00000000 		.4byte	.LFB3
 537 00d5 02000000 		.4byte	.LFE3-.LFB3
 538 00d9 01       		.uleb128 0x1
 539 00da 9C       		.byte	0x9c
 540 00db 09       		.uleb128 0x9
 541 00dc AF000000 		.4byte	.LASF18
 542 00e0 01       		.byte	0x1
 543 00e1 C7       		.byte	0xc7
 544 00e2 00000000 		.4byte	.LFB4
 545 00e6 0C000000 		.4byte	.LFE4-.LFB4
 546 00ea 01       		.uleb128 0x1
 547 00eb 9C       		.byte	0x9c
 548 00ec FE000000 		.4byte	0xfe
 549 00f0 0A       		.uleb128 0xa
 550 00f1 66010000 		.4byte	.LASF20
 551 00f5 01       		.byte	0x1
ARM GAS  C:\Users\ELEASO~1\AppData\Local\Temp\ccMmZBWf.s 			page 18


 552 00f6 C7       		.byte	0xc7
 553 00f7 A9000000 		.4byte	0xa9
 554 00fb 01       		.uleb128 0x1
 555 00fc 50       		.byte	0x50
 556 00fd 00       		.byte	0
 557 00fe 0B       		.uleb128 0xb
 558 00ff 28020000 		.4byte	.LASF26
 559 0103 01       		.byte	0x1
 560 0104 DB       		.byte	0xdb
 561 0105 A9000000 		.4byte	0xa9
 562 0109 00000000 		.4byte	.LFB5
 563 010d 0C000000 		.4byte	.LFE5-.LFB5
 564 0111 01       		.uleb128 0x1
 565 0112 9C       		.byte	0x9c
 566 0113 09       		.uleb128 0x9
 567 0114 89020000 		.4byte	.LASF19
 568 0118 01       		.byte	0x1
 569 0119 F9       		.byte	0xf9
 570 011a 00000000 		.4byte	.LFB6
 571 011e 24000000 		.4byte	.LFE6-.LFB6
 572 0122 01       		.uleb128 0x1
 573 0123 9C       		.byte	0x9c
 574 0124 65010000 		.4byte	0x165
 575 0128 0C       		.uleb128 0xc
 576 0129 EB000000 		.4byte	.LASF21
 577 012d 01       		.byte	0x1
 578 012e F9       		.byte	0xf9
 579 012f 6B000000 		.4byte	0x6b
 580 0133 00000000 		.4byte	.LLST0
 581 0137 0D       		.uleb128 0xd
 582 0138 C4000000 		.4byte	.LASF22
 583 013c 01       		.byte	0x1
 584 013d FB       		.byte	0xfb
 585 013e 6B000000 		.4byte	0x6b
 586 0142 21000000 		.4byte	.LLST1
 587 0146 0E       		.uleb128 0xe
 588 0147 AA020000 		.4byte	.LASF23
 589 014b 01       		.byte	0x1
 590 014c FC       		.byte	0xfc
 591 014d 77000000 		.4byte	0x77
 592 0151 16       		.byte	0x16
 593 0152 0F       		.uleb128 0xf
 594 0153 08000000 		.4byte	.LVL3
 595 0157 EE020000 		.4byte	0x2ee
 596 015b 0F       		.uleb128 0xf
 597 015c 1A000000 		.4byte	.LVL4
 598 0160 F9020000 		.4byte	0x2f9
 599 0164 00       		.byte	0
 600 0165 10       		.uleb128 0x10
 601 0166 24010000 		.4byte	.LASF39
 602 016a 01       		.byte	0x1
 603 016b 1501     		.2byte	0x115
 604 016d 6B000000 		.4byte	0x6b
 605 0171 00000000 		.4byte	.LFB7
 606 0175 10000000 		.4byte	.LFE7-.LFB7
 607 0179 01       		.uleb128 0x1
 608 017a 9C       		.byte	0x9c
ARM GAS  C:\Users\ELEASO~1\AppData\Local\Temp\ccMmZBWf.s 			page 19


 609 017b 9D010000 		.4byte	0x19d
 610 017f 11       		.uleb128 0x11
 611 0180 EB000000 		.4byte	.LASF21
 612 0184 01       		.byte	0x1
 613 0185 1701     		.2byte	0x117
 614 0187 77000000 		.4byte	0x77
 615 018b 34000000 		.4byte	.LLST2
 616 018f 12       		.uleb128 0x12
 617 0190 AA020000 		.4byte	.LASF23
 618 0194 01       		.byte	0x1
 619 0195 1801     		.2byte	0x118
 620 0197 77000000 		.4byte	0x77
 621 019b 16       		.byte	0x16
 622 019c 00       		.byte	0
 623 019d 13       		.uleb128 0x13
 624 019e 9D000000 		.4byte	.LASF25
 625 01a2 01       		.byte	0x1
 626 01a3 3001     		.2byte	0x130
 627 01a5 00000000 		.4byte	.LFB8
 628 01a9 10000000 		.4byte	.LFE8-.LFB8
 629 01ad 01       		.uleb128 0x1
 630 01ae 9C       		.byte	0x9c
 631 01af 14       		.uleb128 0x14
 632 01b0 38030000 		.4byte	.LASF27
 633 01b4 01       		.byte	0x1
 634 01b5 4501     		.2byte	0x145
 635 01b7 6B000000 		.4byte	0x6b
 636 01bb 00000000 		.4byte	.LFB9
 637 01bf 14000000 		.4byte	.LFE9-.LFB9
 638 01c3 01       		.uleb128 0x1
 639 01c4 9C       		.byte	0x9c
 640 01c5 13       		.uleb128 0x13
 641 01c6 34000000 		.4byte	.LASF28
 642 01ca 01       		.byte	0x1
 643 01cb 5A01     		.2byte	0x15a
 644 01cd 00000000 		.4byte	.LFB10
 645 01d1 10000000 		.4byte	.LFE10-.LFB10
 646 01d5 01       		.uleb128 0x1
 647 01d6 9C       		.byte	0x9c
 648 01d7 09       		.uleb128 0x9
 649 01d8 06000000 		.4byte	.LASF29
 650 01dc 01       		.byte	0x1
 651 01dd 38       		.byte	0x38
 652 01de 00000000 		.4byte	.LFB0
 653 01e2 1C000000 		.4byte	.LFE0-.LFB0
 654 01e6 01       		.uleb128 0x1
 655 01e7 9C       		.byte	0x9c
 656 01e8 29020000 		.4byte	0x229
 657 01ec 0F       		.uleb128 0xf
 658 01ed 06000000 		.4byte	.LVL8
 659 01f1 C5010000 		.4byte	0x1c5
 660 01f5 15       		.uleb128 0x15
 661 01f6 0C000000 		.4byte	.LVL9
 662 01fa DB000000 		.4byte	0xdb
 663 01fe 0C020000 		.4byte	0x20c
 664 0202 16       		.uleb128 0x16
 665 0203 01       		.uleb128 0x1
ARM GAS  C:\Users\ELEASO~1\AppData\Local\Temp\ccMmZBWf.s 			page 20


 666 0204 50       		.byte	0x50
 667 0205 05       		.uleb128 0x5
 668 0206 03       		.byte	0x3
 669 0207 00000000 		.4byte	IsrEnoUART_Interrupt
 670 020b 00       		.byte	0
 671 020c 15       		.uleb128 0x15
 672 020d 12000000 		.4byte	.LVL10
 673 0211 13010000 		.4byte	0x113
 674 0215 1F020000 		.4byte	0x21f
 675 0219 16       		.uleb128 0x16
 676 021a 01       		.uleb128 0x1
 677 021b 50       		.byte	0x50
 678 021c 01       		.uleb128 0x1
 679 021d 30       		.byte	0x30
 680 021e 00       		.byte	0
 681 021f 0F       		.uleb128 0xf
 682 0220 16000000 		.4byte	.LVL11
 683 0224 9D010000 		.4byte	0x19d
 684 0228 00       		.byte	0
 685 0229 09       		.uleb128 0x9
 686 022a F4000000 		.4byte	.LASF30
 687 022e 01       		.byte	0x1
 688 022f 63       		.byte	0x63
 689 0230 00000000 		.4byte	.LFB1
 690 0234 1A000000 		.4byte	.LFE1-.LFB1
 691 0238 01       		.uleb128 0x1
 692 0239 9C       		.byte	0x9c
 693 023a 87020000 		.4byte	0x287
 694 023e 0C       		.uleb128 0xc
 695 023f 66010000 		.4byte	.LASF20
 696 0243 01       		.byte	0x1
 697 0244 63       		.byte	0x63
 698 0245 A9000000 		.4byte	0xa9
 699 0249 56000000 		.4byte	.LLST3
 700 024d 0F       		.uleb128 0xf
 701 024e 08000000 		.4byte	.LVL13
 702 0252 C5010000 		.4byte	0x1c5
 703 0256 15       		.uleb128 0x15
 704 0257 0E000000 		.4byte	.LVL14
 705 025b DB000000 		.4byte	0xdb
 706 025f 6A020000 		.4byte	0x26a
 707 0263 16       		.uleb128 0x16
 708 0264 01       		.uleb128 0x1
 709 0265 50       		.byte	0x50
 710 0266 02       		.uleb128 0x2
 711 0267 74       		.byte	0x74
 712 0268 00       		.sleb128 0
 713 0269 00       		.byte	0
 714 026a 15       		.uleb128 0x15
 715 026b 14000000 		.4byte	.LVL15
 716 026f 13010000 		.4byte	0x113
 717 0273 7D020000 		.4byte	0x27d
 718 0277 16       		.uleb128 0x16
 719 0278 01       		.uleb128 0x1
 720 0279 50       		.byte	0x50
 721 027a 01       		.uleb128 0x1
 722 027b 30       		.byte	0x30
ARM GAS  C:\Users\ELEASO~1\AppData\Local\Temp\ccMmZBWf.s 			page 21


 723 027c 00       		.byte	0
 724 027d 0F       		.uleb128 0xf
 725 027e 18000000 		.4byte	.LVL16
 726 0282 9D010000 		.4byte	0x19d
 727 0286 00       		.byte	0
 728 0287 09       		.uleb128 0x9
 729 0288 17000000 		.4byte	.LASF31
 730 028c 01       		.byte	0x1
 731 028d 81       		.byte	0x81
 732 028e 00000000 		.4byte	.LFB2
 733 0292 14000000 		.4byte	.LFE2-.LFB2
 734 0296 01       		.uleb128 0x1
 735 0297 9C       		.byte	0x9c
 736 0298 AF020000 		.4byte	0x2af
 737 029c 0F       		.uleb128 0xf
 738 029d 06000000 		.4byte	.LVL18
 739 02a1 C5010000 		.4byte	0x1c5
 740 02a5 0F       		.uleb128 0xf
 741 02a6 0C000000 		.4byte	.LVL19
 742 02aa DB000000 		.4byte	0xdb
 743 02ae 00       		.byte	0
 744 02af 13       		.uleb128 0x13
 745 02b0 07010000 		.4byte	.LASF32
 746 02b4 01       		.byte	0x1
 747 02b5 7501     		.2byte	0x175
 748 02b7 00000000 		.4byte	.LFB11
 749 02bb 10000000 		.4byte	.LFE11-.LFB11
 750 02bf 01       		.uleb128 0x1
 751 02c0 9C       		.byte	0x9c
 752 02c1 13       		.uleb128 0x13
 753 02c2 85000000 		.4byte	.LASF33
 754 02c6 01       		.byte	0x1
 755 02c7 8E01     		.2byte	0x18e
 756 02c9 00000000 		.4byte	.LFB12
 757 02cd 10000000 		.4byte	.LFE12-.LFB12
 758 02d1 01       		.uleb128 0x1
 759 02d2 9C       		.byte	0x9c
 760 02d3 17       		.uleb128 0x17
 761 02d4 A9000000 		.4byte	0xa9
 762 02d8 E3020000 		.4byte	0x2e3
 763 02dc 18       		.uleb128 0x18
 764 02dd C3000000 		.4byte	0xc3
 765 02e1 2F       		.byte	0x2f
 766 02e2 00       		.byte	0
 767 02e3 19       		.uleb128 0x19
 768 02e4 27000000 		.4byte	.LASF40
 769 02e8 01       		.byte	0x1
 770 02e9 21       		.byte	0x21
 771 02ea D3020000 		.4byte	0x2d3
 772 02ee 1A       		.uleb128 0x1a
 773 02ef 42010000 		.4byte	.LASF34
 774 02f3 42010000 		.4byte	.LASF34
 775 02f7 03       		.byte	0x3
 776 02f8 E5       		.byte	0xe5
 777 02f9 1A       		.uleb128 0x1a
 778 02fa 6E010000 		.4byte	.LASF35
 779 02fe 6E010000 		.4byte	.LASF35
ARM GAS  C:\Users\ELEASO~1\AppData\Local\Temp\ccMmZBWf.s 			page 22


 780 0302 03       		.byte	0x3
 781 0303 E6       		.byte	0xe6
 782 0304 00       		.byte	0
 783              		.section	.debug_abbrev,"",%progbits
 784              	.Ldebug_abbrev0:
 785 0000 01       		.uleb128 0x1
 786 0001 11       		.uleb128 0x11
 787 0002 01       		.byte	0x1
 788 0003 25       		.uleb128 0x25
 789 0004 0E       		.uleb128 0xe
 790 0005 13       		.uleb128 0x13
 791 0006 0B       		.uleb128 0xb
 792 0007 03       		.uleb128 0x3
 793 0008 0E       		.uleb128 0xe
 794 0009 1B       		.uleb128 0x1b
 795 000a 0E       		.uleb128 0xe
 796 000b 55       		.uleb128 0x55
 797 000c 17       		.uleb128 0x17
 798 000d 11       		.uleb128 0x11
 799 000e 01       		.uleb128 0x1
 800 000f 10       		.uleb128 0x10
 801 0010 17       		.uleb128 0x17
 802 0011 00       		.byte	0
 803 0012 00       		.byte	0
 804 0013 02       		.uleb128 0x2
 805 0014 24       		.uleb128 0x24
 806 0015 00       		.byte	0
 807 0016 0B       		.uleb128 0xb
 808 0017 0B       		.uleb128 0xb
 809 0018 3E       		.uleb128 0x3e
 810 0019 0B       		.uleb128 0xb
 811 001a 03       		.uleb128 0x3
 812 001b 0E       		.uleb128 0xe
 813 001c 00       		.byte	0
 814 001d 00       		.byte	0
 815 001e 03       		.uleb128 0x3
 816 001f 24       		.uleb128 0x24
 817 0020 00       		.byte	0
 818 0021 0B       		.uleb128 0xb
 819 0022 0B       		.uleb128 0xb
 820 0023 3E       		.uleb128 0x3e
 821 0024 0B       		.uleb128 0xb
 822 0025 03       		.uleb128 0x3
 823 0026 08       		.uleb128 0x8
 824 0027 00       		.byte	0
 825 0028 00       		.byte	0
 826 0029 04       		.uleb128 0x4
 827 002a 16       		.uleb128 0x16
 828 002b 00       		.byte	0
 829 002c 03       		.uleb128 0x3
 830 002d 0E       		.uleb128 0xe
 831 002e 3A       		.uleb128 0x3a
 832 002f 0B       		.uleb128 0xb
 833 0030 3B       		.uleb128 0x3b
 834 0031 05       		.uleb128 0x5
 835 0032 49       		.uleb128 0x49
 836 0033 13       		.uleb128 0x13
ARM GAS  C:\Users\ELEASO~1\AppData\Local\Temp\ccMmZBWf.s 			page 23


 837 0034 00       		.byte	0
 838 0035 00       		.byte	0
 839 0036 05       		.uleb128 0x5
 840 0037 35       		.uleb128 0x35
 841 0038 00       		.byte	0
 842 0039 49       		.uleb128 0x49
 843 003a 13       		.uleb128 0x13
 844 003b 00       		.byte	0
 845 003c 00       		.byte	0
 846 003d 06       		.uleb128 0x6
 847 003e 0F       		.uleb128 0xf
 848 003f 00       		.byte	0
 849 0040 0B       		.uleb128 0xb
 850 0041 0B       		.uleb128 0xb
 851 0042 49       		.uleb128 0x49
 852 0043 13       		.uleb128 0x13
 853 0044 00       		.byte	0
 854 0045 00       		.byte	0
 855 0046 07       		.uleb128 0x7
 856 0047 15       		.uleb128 0x15
 857 0048 00       		.byte	0
 858 0049 27       		.uleb128 0x27
 859 004a 19       		.uleb128 0x19
 860 004b 00       		.byte	0
 861 004c 00       		.byte	0
 862 004d 08       		.uleb128 0x8
 863 004e 2E       		.uleb128 0x2e
 864 004f 00       		.byte	0
 865 0050 3F       		.uleb128 0x3f
 866 0051 19       		.uleb128 0x19
 867 0052 03       		.uleb128 0x3
 868 0053 0E       		.uleb128 0xe
 869 0054 3A       		.uleb128 0x3a
 870 0055 0B       		.uleb128 0xb
 871 0056 3B       		.uleb128 0x3b
 872 0057 0B       		.uleb128 0xb
 873 0058 27       		.uleb128 0x27
 874 0059 19       		.uleb128 0x19
 875 005a 11       		.uleb128 0x11
 876 005b 01       		.uleb128 0x1
 877 005c 12       		.uleb128 0x12
 878 005d 06       		.uleb128 0x6
 879 005e 40       		.uleb128 0x40
 880 005f 18       		.uleb128 0x18
 881 0060 9742     		.uleb128 0x2117
 882 0062 19       		.uleb128 0x19
 883 0063 00       		.byte	0
 884 0064 00       		.byte	0
 885 0065 09       		.uleb128 0x9
 886 0066 2E       		.uleb128 0x2e
 887 0067 01       		.byte	0x1
 888 0068 3F       		.uleb128 0x3f
 889 0069 19       		.uleb128 0x19
 890 006a 03       		.uleb128 0x3
 891 006b 0E       		.uleb128 0xe
 892 006c 3A       		.uleb128 0x3a
 893 006d 0B       		.uleb128 0xb
ARM GAS  C:\Users\ELEASO~1\AppData\Local\Temp\ccMmZBWf.s 			page 24


 894 006e 3B       		.uleb128 0x3b
 895 006f 0B       		.uleb128 0xb
 896 0070 27       		.uleb128 0x27
 897 0071 19       		.uleb128 0x19
 898 0072 11       		.uleb128 0x11
 899 0073 01       		.uleb128 0x1
 900 0074 12       		.uleb128 0x12
 901 0075 06       		.uleb128 0x6
 902 0076 40       		.uleb128 0x40
 903 0077 18       		.uleb128 0x18
 904 0078 9742     		.uleb128 0x2117
 905 007a 19       		.uleb128 0x19
 906 007b 01       		.uleb128 0x1
 907 007c 13       		.uleb128 0x13
 908 007d 00       		.byte	0
 909 007e 00       		.byte	0
 910 007f 0A       		.uleb128 0xa
 911 0080 05       		.uleb128 0x5
 912 0081 00       		.byte	0
 913 0082 03       		.uleb128 0x3
 914 0083 0E       		.uleb128 0xe
 915 0084 3A       		.uleb128 0x3a
 916 0085 0B       		.uleb128 0xb
 917 0086 3B       		.uleb128 0x3b
 918 0087 0B       		.uleb128 0xb
 919 0088 49       		.uleb128 0x49
 920 0089 13       		.uleb128 0x13
 921 008a 02       		.uleb128 0x2
 922 008b 18       		.uleb128 0x18
 923 008c 00       		.byte	0
 924 008d 00       		.byte	0
 925 008e 0B       		.uleb128 0xb
 926 008f 2E       		.uleb128 0x2e
 927 0090 00       		.byte	0
 928 0091 3F       		.uleb128 0x3f
 929 0092 19       		.uleb128 0x19
 930 0093 03       		.uleb128 0x3
 931 0094 0E       		.uleb128 0xe
 932 0095 3A       		.uleb128 0x3a
 933 0096 0B       		.uleb128 0xb
 934 0097 3B       		.uleb128 0x3b
 935 0098 0B       		.uleb128 0xb
 936 0099 27       		.uleb128 0x27
 937 009a 19       		.uleb128 0x19
 938 009b 49       		.uleb128 0x49
 939 009c 13       		.uleb128 0x13
 940 009d 11       		.uleb128 0x11
 941 009e 01       		.uleb128 0x1
 942 009f 12       		.uleb128 0x12
 943 00a0 06       		.uleb128 0x6
 944 00a1 40       		.uleb128 0x40
 945 00a2 18       		.uleb128 0x18
 946 00a3 9742     		.uleb128 0x2117
 947 00a5 19       		.uleb128 0x19
 948 00a6 00       		.byte	0
 949 00a7 00       		.byte	0
 950 00a8 0C       		.uleb128 0xc
ARM GAS  C:\Users\ELEASO~1\AppData\Local\Temp\ccMmZBWf.s 			page 25


 951 00a9 05       		.uleb128 0x5
 952 00aa 00       		.byte	0
 953 00ab 03       		.uleb128 0x3
 954 00ac 0E       		.uleb128 0xe
 955 00ad 3A       		.uleb128 0x3a
 956 00ae 0B       		.uleb128 0xb
 957 00af 3B       		.uleb128 0x3b
 958 00b0 0B       		.uleb128 0xb
 959 00b1 49       		.uleb128 0x49
 960 00b2 13       		.uleb128 0x13
 961 00b3 02       		.uleb128 0x2
 962 00b4 17       		.uleb128 0x17
 963 00b5 00       		.byte	0
 964 00b6 00       		.byte	0
 965 00b7 0D       		.uleb128 0xd
 966 00b8 34       		.uleb128 0x34
 967 00b9 00       		.byte	0
 968 00ba 03       		.uleb128 0x3
 969 00bb 0E       		.uleb128 0xe
 970 00bc 3A       		.uleb128 0x3a
 971 00bd 0B       		.uleb128 0xb
 972 00be 3B       		.uleb128 0x3b
 973 00bf 0B       		.uleb128 0xb
 974 00c0 49       		.uleb128 0x49
 975 00c1 13       		.uleb128 0x13
 976 00c2 02       		.uleb128 0x2
 977 00c3 17       		.uleb128 0x17
 978 00c4 00       		.byte	0
 979 00c5 00       		.byte	0
 980 00c6 0E       		.uleb128 0xe
 981 00c7 34       		.uleb128 0x34
 982 00c8 00       		.byte	0
 983 00c9 03       		.uleb128 0x3
 984 00ca 0E       		.uleb128 0xe
 985 00cb 3A       		.uleb128 0x3a
 986 00cc 0B       		.uleb128 0xb
 987 00cd 3B       		.uleb128 0x3b
 988 00ce 0B       		.uleb128 0xb
 989 00cf 49       		.uleb128 0x49
 990 00d0 13       		.uleb128 0x13
 991 00d1 1C       		.uleb128 0x1c
 992 00d2 0B       		.uleb128 0xb
 993 00d3 00       		.byte	0
 994 00d4 00       		.byte	0
 995 00d5 0F       		.uleb128 0xf
 996 00d6 898201   		.uleb128 0x4109
 997 00d9 00       		.byte	0
 998 00da 11       		.uleb128 0x11
 999 00db 01       		.uleb128 0x1
 1000 00dc 31       		.uleb128 0x31
 1001 00dd 13       		.uleb128 0x13
 1002 00de 00       		.byte	0
 1003 00df 00       		.byte	0
 1004 00e0 10       		.uleb128 0x10
 1005 00e1 2E       		.uleb128 0x2e
 1006 00e2 01       		.byte	0x1
 1007 00e3 3F       		.uleb128 0x3f
ARM GAS  C:\Users\ELEASO~1\AppData\Local\Temp\ccMmZBWf.s 			page 26


 1008 00e4 19       		.uleb128 0x19
 1009 00e5 03       		.uleb128 0x3
 1010 00e6 0E       		.uleb128 0xe
 1011 00e7 3A       		.uleb128 0x3a
 1012 00e8 0B       		.uleb128 0xb
 1013 00e9 3B       		.uleb128 0x3b
 1014 00ea 05       		.uleb128 0x5
 1015 00eb 27       		.uleb128 0x27
 1016 00ec 19       		.uleb128 0x19
 1017 00ed 49       		.uleb128 0x49
 1018 00ee 13       		.uleb128 0x13
 1019 00ef 11       		.uleb128 0x11
 1020 00f0 01       		.uleb128 0x1
 1021 00f1 12       		.uleb128 0x12
 1022 00f2 06       		.uleb128 0x6
 1023 00f3 40       		.uleb128 0x40
 1024 00f4 18       		.uleb128 0x18
 1025 00f5 9742     		.uleb128 0x2117
 1026 00f7 19       		.uleb128 0x19
 1027 00f8 01       		.uleb128 0x1
 1028 00f9 13       		.uleb128 0x13
 1029 00fa 00       		.byte	0
 1030 00fb 00       		.byte	0
 1031 00fc 11       		.uleb128 0x11
 1032 00fd 34       		.uleb128 0x34
 1033 00fe 00       		.byte	0
 1034 00ff 03       		.uleb128 0x3
 1035 0100 0E       		.uleb128 0xe
 1036 0101 3A       		.uleb128 0x3a
 1037 0102 0B       		.uleb128 0xb
 1038 0103 3B       		.uleb128 0x3b
 1039 0104 05       		.uleb128 0x5
 1040 0105 49       		.uleb128 0x49
 1041 0106 13       		.uleb128 0x13
 1042 0107 02       		.uleb128 0x2
 1043 0108 17       		.uleb128 0x17
 1044 0109 00       		.byte	0
 1045 010a 00       		.byte	0
 1046 010b 12       		.uleb128 0x12
 1047 010c 34       		.uleb128 0x34
 1048 010d 00       		.byte	0
 1049 010e 03       		.uleb128 0x3
 1050 010f 0E       		.uleb128 0xe
 1051 0110 3A       		.uleb128 0x3a
 1052 0111 0B       		.uleb128 0xb
 1053 0112 3B       		.uleb128 0x3b
 1054 0113 05       		.uleb128 0x5
 1055 0114 49       		.uleb128 0x49
 1056 0115 13       		.uleb128 0x13
 1057 0116 1C       		.uleb128 0x1c
 1058 0117 0B       		.uleb128 0xb
 1059 0118 00       		.byte	0
 1060 0119 00       		.byte	0
 1061 011a 13       		.uleb128 0x13
 1062 011b 2E       		.uleb128 0x2e
 1063 011c 00       		.byte	0
 1064 011d 3F       		.uleb128 0x3f
ARM GAS  C:\Users\ELEASO~1\AppData\Local\Temp\ccMmZBWf.s 			page 27


 1065 011e 19       		.uleb128 0x19
 1066 011f 03       		.uleb128 0x3
 1067 0120 0E       		.uleb128 0xe
 1068 0121 3A       		.uleb128 0x3a
 1069 0122 0B       		.uleb128 0xb
 1070 0123 3B       		.uleb128 0x3b
 1071 0124 05       		.uleb128 0x5
 1072 0125 27       		.uleb128 0x27
 1073 0126 19       		.uleb128 0x19
 1074 0127 11       		.uleb128 0x11
 1075 0128 01       		.uleb128 0x1
 1076 0129 12       		.uleb128 0x12
 1077 012a 06       		.uleb128 0x6
 1078 012b 40       		.uleb128 0x40
 1079 012c 18       		.uleb128 0x18
 1080 012d 9742     		.uleb128 0x2117
 1081 012f 19       		.uleb128 0x19
 1082 0130 00       		.byte	0
 1083 0131 00       		.byte	0
 1084 0132 14       		.uleb128 0x14
 1085 0133 2E       		.uleb128 0x2e
 1086 0134 00       		.byte	0
 1087 0135 3F       		.uleb128 0x3f
 1088 0136 19       		.uleb128 0x19
 1089 0137 03       		.uleb128 0x3
 1090 0138 0E       		.uleb128 0xe
 1091 0139 3A       		.uleb128 0x3a
 1092 013a 0B       		.uleb128 0xb
 1093 013b 3B       		.uleb128 0x3b
 1094 013c 05       		.uleb128 0x5
 1095 013d 27       		.uleb128 0x27
 1096 013e 19       		.uleb128 0x19
 1097 013f 49       		.uleb128 0x49
 1098 0140 13       		.uleb128 0x13
 1099 0141 11       		.uleb128 0x11
 1100 0142 01       		.uleb128 0x1
 1101 0143 12       		.uleb128 0x12
 1102 0144 06       		.uleb128 0x6
 1103 0145 40       		.uleb128 0x40
 1104 0146 18       		.uleb128 0x18
 1105 0147 9742     		.uleb128 0x2117
 1106 0149 19       		.uleb128 0x19
 1107 014a 00       		.byte	0
 1108 014b 00       		.byte	0
 1109 014c 15       		.uleb128 0x15
 1110 014d 898201   		.uleb128 0x4109
 1111 0150 01       		.byte	0x1
 1112 0151 11       		.uleb128 0x11
 1113 0152 01       		.uleb128 0x1
 1114 0153 31       		.uleb128 0x31
 1115 0154 13       		.uleb128 0x13
 1116 0155 01       		.uleb128 0x1
 1117 0156 13       		.uleb128 0x13
 1118 0157 00       		.byte	0
 1119 0158 00       		.byte	0
 1120 0159 16       		.uleb128 0x16
 1121 015a 8A8201   		.uleb128 0x410a
ARM GAS  C:\Users\ELEASO~1\AppData\Local\Temp\ccMmZBWf.s 			page 28


 1122 015d 00       		.byte	0
 1123 015e 02       		.uleb128 0x2
 1124 015f 18       		.uleb128 0x18
 1125 0160 9142     		.uleb128 0x2111
 1126 0162 18       		.uleb128 0x18
 1127 0163 00       		.byte	0
 1128 0164 00       		.byte	0
 1129 0165 17       		.uleb128 0x17
 1130 0166 01       		.uleb128 0x1
 1131 0167 01       		.byte	0x1
 1132 0168 49       		.uleb128 0x49
 1133 0169 13       		.uleb128 0x13
 1134 016a 01       		.uleb128 0x1
 1135 016b 13       		.uleb128 0x13
 1136 016c 00       		.byte	0
 1137 016d 00       		.byte	0
 1138 016e 18       		.uleb128 0x18
 1139 016f 21       		.uleb128 0x21
 1140 0170 00       		.byte	0
 1141 0171 49       		.uleb128 0x49
 1142 0172 13       		.uleb128 0x13
 1143 0173 2F       		.uleb128 0x2f
 1144 0174 0B       		.uleb128 0xb
 1145 0175 00       		.byte	0
 1146 0176 00       		.byte	0
 1147 0177 19       		.uleb128 0x19
 1148 0178 34       		.uleb128 0x34
 1149 0179 00       		.byte	0
 1150 017a 03       		.uleb128 0x3
 1151 017b 0E       		.uleb128 0xe
 1152 017c 3A       		.uleb128 0x3a
 1153 017d 0B       		.uleb128 0xb
 1154 017e 3B       		.uleb128 0x3b
 1155 017f 0B       		.uleb128 0xb
 1156 0180 49       		.uleb128 0x49
 1157 0181 13       		.uleb128 0x13
 1158 0182 3F       		.uleb128 0x3f
 1159 0183 19       		.uleb128 0x19
 1160 0184 3C       		.uleb128 0x3c
 1161 0185 19       		.uleb128 0x19
 1162 0186 00       		.byte	0
 1163 0187 00       		.byte	0
 1164 0188 1A       		.uleb128 0x1a
 1165 0189 2E       		.uleb128 0x2e
 1166 018a 00       		.byte	0
 1167 018b 3F       		.uleb128 0x3f
 1168 018c 19       		.uleb128 0x19
 1169 018d 3C       		.uleb128 0x3c
 1170 018e 19       		.uleb128 0x19
 1171 018f 6E       		.uleb128 0x6e
 1172 0190 0E       		.uleb128 0xe
 1173 0191 03       		.uleb128 0x3
 1174 0192 0E       		.uleb128 0xe
 1175 0193 3A       		.uleb128 0x3a
 1176 0194 0B       		.uleb128 0xb
 1177 0195 3B       		.uleb128 0x3b
 1178 0196 0B       		.uleb128 0xb
ARM GAS  C:\Users\ELEASO~1\AppData\Local\Temp\ccMmZBWf.s 			page 29


 1179 0197 00       		.byte	0
 1180 0198 00       		.byte	0
 1181 0199 00       		.byte	0
 1182              		.section	.debug_loc,"",%progbits
 1183              	.Ldebug_loc0:
 1184              	.LLST0:
 1185 0000 00000000 		.4byte	.LVL1
 1186 0004 07000000 		.4byte	.LVL3-1
 1187 0008 0100     		.2byte	0x1
 1188 000a 50       		.byte	0x50
 1189 000b 07000000 		.4byte	.LVL3-1
 1190 000f 24000000 		.4byte	.LFE6
 1191 0013 0400     		.2byte	0x4
 1192 0015 F3       		.byte	0xf3
 1193 0016 01       		.uleb128 0x1
 1194 0017 50       		.byte	0x50
 1195 0018 9F       		.byte	0x9f
 1196 0019 00000000 		.4byte	0
 1197 001d 00000000 		.4byte	0
 1198              	.LLST1:
 1199 0021 08000000 		.4byte	.LVL3
 1200 0025 19000000 		.4byte	.LVL4-1
 1201 0029 0100     		.2byte	0x1
 1202 002b 50       		.byte	0x50
 1203 002c 00000000 		.4byte	0
 1204 0030 00000000 		.4byte	0
 1205              	.LLST2:
 1206 0034 06000000 		.4byte	.LVL6
 1207 0038 0A000000 		.4byte	.LVL7
 1208 003c 0500     		.2byte	0x5
 1209 003e 70       		.byte	0x70
 1210 003f 00       		.sleb128 0
 1211 0040 33       		.byte	0x33
 1212 0041 1A       		.byte	0x1a
 1213 0042 9F       		.byte	0x9f
 1214 0043 0A000000 		.4byte	.LVL7
 1215 0047 10000000 		.4byte	.LFE7
 1216 004b 0100     		.2byte	0x1
 1217 004d 50       		.byte	0x50
 1218 004e 00000000 		.4byte	0
 1219 0052 00000000 		.4byte	0
 1220              	.LLST3:
 1221 0056 00000000 		.4byte	.LVL12
 1222 005a 07000000 		.4byte	.LVL13-1
 1223 005e 0100     		.2byte	0x1
 1224 0060 50       		.byte	0x50
 1225 0061 07000000 		.4byte	.LVL13-1
 1226 0065 18000000 		.4byte	.LVL17
 1227 0069 0100     		.2byte	0x1
 1228 006b 54       		.byte	0x54
 1229 006c 18000000 		.4byte	.LVL17
 1230 0070 1A000000 		.4byte	.LFE1
 1231 0074 0400     		.2byte	0x4
 1232 0076 F3       		.byte	0xf3
 1233 0077 01       		.uleb128 0x1
 1234 0078 50       		.byte	0x50
 1235 0079 9F       		.byte	0x9f
ARM GAS  C:\Users\ELEASO~1\AppData\Local\Temp\ccMmZBWf.s 			page 30


 1236 007a 00000000 		.4byte	0
 1237 007e 00000000 		.4byte	0
 1238              		.section	.debug_aranges,"",%progbits
 1239 0000 7C000000 		.4byte	0x7c
 1240 0004 0200     		.2byte	0x2
 1241 0006 00000000 		.4byte	.Ldebug_info0
 1242 000a 04       		.byte	0x4
 1243 000b 00       		.byte	0
 1244 000c 0000     		.2byte	0
 1245 000e 0000     		.2byte	0
 1246 0010 00000000 		.4byte	.LFB3
 1247 0014 02000000 		.4byte	.LFE3-.LFB3
 1248 0018 00000000 		.4byte	.LFB4
 1249 001c 0C000000 		.4byte	.LFE4-.LFB4
 1250 0020 00000000 		.4byte	.LFB5
 1251 0024 0C000000 		.4byte	.LFE5-.LFB5
 1252 0028 00000000 		.4byte	.LFB6
 1253 002c 24000000 		.4byte	.LFE6-.LFB6
 1254 0030 00000000 		.4byte	.LFB7
 1255 0034 10000000 		.4byte	.LFE7-.LFB7
 1256 0038 00000000 		.4byte	.LFB8
 1257 003c 10000000 		.4byte	.LFE8-.LFB8
 1258 0040 00000000 		.4byte	.LFB9
 1259 0044 14000000 		.4byte	.LFE9-.LFB9
 1260 0048 00000000 		.4byte	.LFB10
 1261 004c 10000000 		.4byte	.LFE10-.LFB10
 1262 0050 00000000 		.4byte	.LFB0
 1263 0054 1C000000 		.4byte	.LFE0-.LFB0
 1264 0058 00000000 		.4byte	.LFB1
 1265 005c 1A000000 		.4byte	.LFE1-.LFB1
 1266 0060 00000000 		.4byte	.LFB2
 1267 0064 14000000 		.4byte	.LFE2-.LFB2
 1268 0068 00000000 		.4byte	.LFB11
 1269 006c 10000000 		.4byte	.LFE11-.LFB11
 1270 0070 00000000 		.4byte	.LFB12
 1271 0074 10000000 		.4byte	.LFE12-.LFB12
 1272 0078 00000000 		.4byte	0
 1273 007c 00000000 		.4byte	0
 1274              		.section	.debug_ranges,"",%progbits
 1275              	.Ldebug_ranges0:
 1276 0000 00000000 		.4byte	.LFB3
 1277 0004 02000000 		.4byte	.LFE3
 1278 0008 00000000 		.4byte	.LFB4
 1279 000c 0C000000 		.4byte	.LFE4
 1280 0010 00000000 		.4byte	.LFB5
 1281 0014 0C000000 		.4byte	.LFE5
 1282 0018 00000000 		.4byte	.LFB6
 1283 001c 24000000 		.4byte	.LFE6
 1284 0020 00000000 		.4byte	.LFB7
 1285 0024 10000000 		.4byte	.LFE7
 1286 0028 00000000 		.4byte	.LFB8
 1287 002c 10000000 		.4byte	.LFE8
 1288 0030 00000000 		.4byte	.LFB9
 1289 0034 14000000 		.4byte	.LFE9
 1290 0038 00000000 		.4byte	.LFB10
 1291 003c 10000000 		.4byte	.LFE10
 1292 0040 00000000 		.4byte	.LFB0
ARM GAS  C:\Users\ELEASO~1\AppData\Local\Temp\ccMmZBWf.s 			page 31


 1293 0044 1C000000 		.4byte	.LFE0
 1294 0048 00000000 		.4byte	.LFB1
 1295 004c 1A000000 		.4byte	.LFE1
 1296 0050 00000000 		.4byte	.LFB2
 1297 0054 14000000 		.4byte	.LFE2
 1298 0058 00000000 		.4byte	.LFB11
 1299 005c 10000000 		.4byte	.LFE11
 1300 0060 00000000 		.4byte	.LFB12
 1301 0064 10000000 		.4byte	.LFE12
 1302 0068 00000000 		.4byte	0
 1303 006c 00000000 		.4byte	0
 1304              		.section	.debug_line,"",%progbits
 1305              	.Ldebug_line0:
 1306 0000 52010000 		.section	.debug_str,"MS",%progbits,1
 1306      02005200 
 1306      00000201 
 1306      FB0E0D00 
 1306      01010101 
 1307              	.LASF14:
 1308 0000 72656733 		.ascii	"reg32\000"
 1308      3200
 1309              	.LASF29:
 1310 0006 49737245 		.ascii	"IsrEnoUART_Start\000"
 1310      6E6F5541 
 1310      52545F53 
 1310      74617274 
 1310      00
 1311              	.LASF31:
 1312 0017 49737245 		.ascii	"IsrEnoUART_Stop\000"
 1312      6E6F5541 
 1312      52545F53 
 1312      746F7000 
 1313              	.LASF40:
 1314 0027 43795261 		.ascii	"CyRamVectors\000"
 1314      6D566563 
 1314      746F7273 
 1314      00
 1315              	.LASF28:
 1316 0034 49737245 		.ascii	"IsrEnoUART_Disable\000"
 1316      6E6F5541 
 1316      52545F44 
 1316      69736162 
 1316      6C6500
 1317              	.LASF3:
 1318 0047 73686F72 		.ascii	"short unsigned int\000"
 1318      7420756E 
 1318      7369676E 
 1318      65642069 
 1318      6E7400
 1319              	.LASF11:
 1320 005a 666C6F61 		.ascii	"float\000"
 1320      7400
 1321              	.LASF7:
 1322 0060 6C6F6E67 		.ascii	"long long unsigned int\000"
 1322      206C6F6E 
 1322      6720756E 
 1322      7369676E 
ARM GAS  C:\Users\ELEASO~1\AppData\Local\Temp\ccMmZBWf.s 			page 32


 1322      65642069 
 1323              	.LASF1:
 1324 0077 756E7369 		.ascii	"unsigned char\000"
 1324      676E6564 
 1324      20636861 
 1324      7200
 1325              	.LASF33:
 1326 0085 49737245 		.ascii	"IsrEnoUART_ClearPending\000"
 1326      6E6F5541 
 1326      52545F43 
 1326      6C656172 
 1326      50656E64 
 1327              	.LASF25:
 1328 009d 49737245 		.ascii	"IsrEnoUART_Enable\000"
 1328      6E6F5541 
 1328      52545F45 
 1328      6E61626C 
 1328      6500
 1329              	.LASF18:
 1330 00af 49737245 		.ascii	"IsrEnoUART_SetVector\000"
 1330      6E6F5541 
 1330      52545F53 
 1330      65745665 
 1330      63746F72 
 1331              	.LASF22:
 1332 00c4 696E7465 		.ascii	"interruptState\000"
 1332      72727570 
 1332      74537461 
 1332      746500
 1333              	.LASF5:
 1334 00d3 6C6F6E67 		.ascii	"long unsigned int\000"
 1334      20756E73 
 1334      69676E65 
 1334      6420696E 
 1334      7400
 1335              	.LASF9:
 1336 00e5 75696E74 		.ascii	"uint8\000"
 1336      3800
 1337              	.LASF21:
 1338 00eb 7072696F 		.ascii	"priority\000"
 1338      72697479 
 1338      00
 1339              	.LASF30:
 1340 00f4 49737245 		.ascii	"IsrEnoUART_StartEx\000"
 1340      6E6F5541 
 1340      52545F53 
 1340      74617274 
 1340      457800
 1341              	.LASF32:
 1342 0107 49737245 		.ascii	"IsrEnoUART_SetPending\000"
 1342      6E6F5541 
 1342      52545F53 
 1342      65745065 
 1342      6E64696E 
 1343              	.LASF12:
 1344 011d 646F7562 		.ascii	"double\000"
 1344      6C6500
ARM GAS  C:\Users\ELEASO~1\AppData\Local\Temp\ccMmZBWf.s 			page 33


 1345              	.LASF39:
 1346 0124 49737245 		.ascii	"IsrEnoUART_GetPriority\000"
 1346      6E6F5541 
 1346      52545F47 
 1346      65745072 
 1346      696F7269 
 1347              	.LASF10:
 1348 013b 75696E74 		.ascii	"uint32\000"
 1348      333200
 1349              	.LASF34:
 1350 0142 4379456E 		.ascii	"CyEnterCriticalSection\000"
 1350      74657243 
 1350      72697469 
 1350      63616C53 
 1350      65637469 
 1351              	.LASF8:
 1352 0159 756E7369 		.ascii	"unsigned int\000"
 1352      676E6564 
 1352      20696E74 
 1352      00
 1353              	.LASF20:
 1354 0166 61646472 		.ascii	"address\000"
 1354      65737300 
 1355              	.LASF35:
 1356 016e 43794578 		.ascii	"CyExitCriticalSection\000"
 1356      69744372 
 1356      69746963 
 1356      616C5365 
 1356      6374696F 
 1357              	.LASF15:
 1358 0184 63796973 		.ascii	"cyisraddress\000"
 1358      72616464 
 1358      72657373 
 1358      00
 1359              	.LASF36:
 1360 0191 474E5520 		.ascii	"GNU C11 5.4.1 20160609 (release) [ARM/embedded-5-br"
 1360      43313120 
 1360      352E342E 
 1360      31203230 
 1360      31363036 
 1361 01c4 616E6368 		.ascii	"anch revision 237715] -mcpu=cortex-m0 -mthumb -g -O"
 1361      20726576 
 1361      6973696F 
 1361      6E203233 
 1361      37373135 
 1362 01f7 67202D66 		.ascii	"g -ffunction-sections -ffat-lto-objects\000"
 1362      66756E63 
 1362      74696F6E 
 1362      2D736563 
 1362      74696F6E 
 1363              	.LASF17:
 1364 021f 73697A65 		.ascii	"sizetype\000"
 1364      74797065 
 1364      00
 1365              	.LASF26:
 1366 0228 49737245 		.ascii	"IsrEnoUART_GetVector\000"
 1366      6E6F5541 
ARM GAS  C:\Users\ELEASO~1\AppData\Local\Temp\ccMmZBWf.s 			page 34


 1366      52545F47 
 1366      65745665 
 1366      63746F72 
 1367              	.LASF6:
 1368 023d 6C6F6E67 		.ascii	"long long int\000"
 1368      206C6F6E 
 1368      6720696E 
 1368      7400
 1369              	.LASF24:
 1370 024b 49737245 		.ascii	"IsrEnoUART_Interrupt\000"
 1370      6E6F5541 
 1370      52545F49 
 1370      6E746572 
 1370      72757074 
 1371              	.LASF13:
 1372 0260 63686172 		.ascii	"char\000"
 1372      00
 1373              	.LASF37:
 1374 0265 47656E65 		.ascii	"Generated_Source\\PSoC4\\IsrEnoUART.c\000"
 1374      72617465 
 1374      645F536F 
 1374      75726365 
 1374      5C50536F 
 1375              	.LASF19:
 1376 0289 49737245 		.ascii	"IsrEnoUART_SetPriority\000"
 1376      6E6F5541 
 1376      52545F53 
 1376      65745072 
 1376      696F7269 
 1377              	.LASF2:
 1378 02a0 73686F72 		.ascii	"short int\000"
 1378      7420696E 
 1378      7400
 1379              	.LASF23:
 1380 02aa 7072696F 		.ascii	"priorityOffset\000"
 1380      72697479 
 1380      4F666673 
 1380      657400
 1381              	.LASF4:
 1382 02b9 6C6F6E67 		.ascii	"long int\000"
 1382      20696E74 
 1382      00
 1383              	.LASF16:
 1384 02c2 6C6F6E67 		.ascii	"long double\000"
 1384      20646F75 
 1384      626C6500 
 1385              	.LASF38:
 1386 02ce 433A5C55 		.ascii	"C:\\Users\\EleaSoluciones\\Desktop\\Cosas\\EleaTouc"
 1386      73657273 
 1386      5C456C65 
 1386      61536F6C 
 1386      7563696F 
 1387 02fc 685C456C 		.ascii	"h\\EleaTouch_V3_0_BOTONES_KEYPAD\\EleaTouch.cydsn\000"
 1387      6561546F 
 1387      7563685F 
 1387      56335F30 
 1387      5F424F54 
ARM GAS  C:\Users\ELEASO~1\AppData\Local\Temp\ccMmZBWf.s 			page 35


 1388              	.LASF0:
 1389 032c 7369676E 		.ascii	"signed char\000"
 1389      65642063 
 1389      68617200 
 1390              	.LASF27:
 1391 0338 49737245 		.ascii	"IsrEnoUART_GetState\000"
 1391      6E6F5541 
 1391      52545F47 
 1391      65745374 
 1391      61746500 
 1392              		.ident	"GCC: (GNU Tools for ARM Embedded Processors) 5.4.1 20160609 (release) [ARM/embedded-5-bran
