ARM GAS  C:\Users\Elea\AppData\Local\Temp\cc4k3Y37.s 			page 1


   1              		.cpu cortex-m0
   2              		.fpu softvfp
   3              		.eabi_attribute 20, 1
   4              		.eabi_attribute 21, 1
   5              		.eabi_attribute 23, 3
   6              		.eabi_attribute 24, 1
   7              		.eabi_attribute 25, 1
   8              		.eabi_attribute 26, 1
   9              		.eabi_attribute 30, 1
  10              		.eabi_attribute 34, 0
  11              		.eabi_attribute 18, 4
  12              		.code	16
  13              		.file	"cyutils.c"
  14              		.text
  15              	.Ltext0:
  16              		.cfi_sections	.debug_frame
  17              		.section	.text.CySetReg24,"ax",%progbits
  18              		.align	2
  19              		.global	CySetReg24
  20              		.code	16
  21              		.thumb_func
  22              		.type	CySetReg24, %function
  23              	CySetReg24:
  24              	.LFB0:
  25              		.file 1 "Generated_Source\\PSoC4\\cyutils.c"
   1:Generated_Source\PSoC4/cyutils.c **** /***************************************************************************//**
   2:Generated_Source\PSoC4/cyutils.c **** * \file cyutils.c
   3:Generated_Source\PSoC4/cyutils.c **** * \version 5.50
   4:Generated_Source\PSoC4/cyutils.c **** *
   5:Generated_Source\PSoC4/cyutils.c **** * \brief Provides a function to handle 24-bit value writes.
   6:Generated_Source\PSoC4/cyutils.c **** *
   7:Generated_Source\PSoC4/cyutils.c **** ********************************************************************************
   8:Generated_Source\PSoC4/cyutils.c **** * \copyright
   9:Generated_Source\PSoC4/cyutils.c **** * Copyright 2008-2016, Cypress Semiconductor Corporation.  All rights reserved.
  10:Generated_Source\PSoC4/cyutils.c **** * You may use this file only in accordance with the license, terms, conditions,
  11:Generated_Source\PSoC4/cyutils.c **** * disclaimers, and limitations in the end user license agreement accompanying
  12:Generated_Source\PSoC4/cyutils.c **** * the software package with which this file was provided.
  13:Generated_Source\PSoC4/cyutils.c **** *******************************************************************************/
  14:Generated_Source\PSoC4/cyutils.c **** 
  15:Generated_Source\PSoC4/cyutils.c **** #include "cytypes.h"
  16:Generated_Source\PSoC4/cyutils.c **** 
  17:Generated_Source\PSoC4/cyutils.c **** #if (!CY_PSOC3)
  18:Generated_Source\PSoC4/cyutils.c **** 
  19:Generated_Source\PSoC4/cyutils.c ****     /***************************************************************************
  20:Generated_Source\PSoC4/cyutils.c ****     * Function Name: CySetReg24
  21:Generated_Source\PSoC4/cyutils.c ****     ************************************************************************//**
  22:Generated_Source\PSoC4/cyutils.c ****     *
  23:Generated_Source\PSoC4/cyutils.c ****     * Writes a 24-bit value to the specified register.
  24:Generated_Source\PSoC4/cyutils.c ****     *
  25:Generated_Source\PSoC4/cyutils.c ****     * \param addr The address where data must be written.
  26:Generated_Source\PSoC4/cyutils.c ****     * \param value The data that must be written.
  27:Generated_Source\PSoC4/cyutils.c ****     *
  28:Generated_Source\PSoC4/cyutils.c ****     * \reentrant No
  29:Generated_Source\PSoC4/cyutils.c ****     *
  30:Generated_Source\PSoC4/cyutils.c ****     ***************************************************************************/
  31:Generated_Source\PSoC4/cyutils.c ****     void CySetReg24(uint32 volatile * addr, uint32 value)
  32:Generated_Source\PSoC4/cyutils.c ****     {
ARM GAS  C:\Users\Elea\AppData\Local\Temp\cc4k3Y37.s 			page 2


  26              		.loc 1 32 0
  27              		.cfi_startproc
  28              	.LVL0:
  33:Generated_Source\PSoC4/cyutils.c ****         uint8 volatile *tmpAddr;
  34:Generated_Source\PSoC4/cyutils.c **** 
  35:Generated_Source\PSoC4/cyutils.c ****         tmpAddr = (uint8 volatile *) addr;
  36:Generated_Source\PSoC4/cyutils.c **** 
  37:Generated_Source\PSoC4/cyutils.c ****         tmpAddr[0u] = (uint8) value;
  29              		.loc 1 37 0
  30 0000 CBB2     		uxtb	r3, r1
  31 0002 0370     		strb	r3, [r0]
  38:Generated_Source\PSoC4/cyutils.c ****         tmpAddr[1u] = (uint8) (value >> 8u);
  32              		.loc 1 38 0
  33 0004 0B0A     		lsr	r3, r1, #8
  34 0006 DBB2     		uxtb	r3, r3
  35 0008 4370     		strb	r3, [r0, #1]
  39:Generated_Source\PSoC4/cyutils.c ****         tmpAddr[2u] = (uint8) (value >> 16u);
  36              		.loc 1 39 0
  37 000a 090C     		lsr	r1, r1, #16
  38              	.LVL1:
  39 000c C9B2     		uxtb	r1, r1
  40 000e 8170     		strb	r1, [r0, #2]
  40:Generated_Source\PSoC4/cyutils.c ****     }
  41              		.loc 1 40 0
  42              		@ sp needed
  43 0010 7047     		bx	lr
  44              		.cfi_endproc
  45              	.LFE0:
  46              		.size	CySetReg24, .-CySetReg24
  47 0012 C046     		.section	.text.CyGetReg24,"ax",%progbits
  48              		.align	2
  49              		.global	CyGetReg24
  50              		.code	16
  51              		.thumb_func
  52              		.type	CyGetReg24, %function
  53              	CyGetReg24:
  54              	.LFB1:
  41:Generated_Source\PSoC4/cyutils.c **** 
  42:Generated_Source\PSoC4/cyutils.c **** 
  43:Generated_Source\PSoC4/cyutils.c ****     #if(CY_PSOC4)
  44:Generated_Source\PSoC4/cyutils.c **** 
  45:Generated_Source\PSoC4/cyutils.c ****         /***************************************************************************
  46:Generated_Source\PSoC4/cyutils.c ****         * Function Name: CyGetReg24
  47:Generated_Source\PSoC4/cyutils.c ****         ************************************************************************//**
  48:Generated_Source\PSoC4/cyutils.c ****         *
  49:Generated_Source\PSoC4/cyutils.c ****         * Reads the 24-bit value from the specified register.
  50:Generated_Source\PSoC4/cyutils.c ****         *
  51:Generated_Source\PSoC4/cyutils.c ****         * \param addr The address where data must be read.
  52:Generated_Source\PSoC4/cyutils.c ****         *
  53:Generated_Source\PSoC4/cyutils.c ****         * \reentrant No
  54:Generated_Source\PSoC4/cyutils.c ****         *
  55:Generated_Source\PSoC4/cyutils.c ****         ***************************************************************************/
  56:Generated_Source\PSoC4/cyutils.c ****         uint32 CyGetReg24(uint32 const volatile * addr)
  57:Generated_Source\PSoC4/cyutils.c ****         {
  55              		.loc 1 57 0
  56              		.cfi_startproc
  57              	.LVL2:
ARM GAS  C:\Users\Elea\AppData\Local\Temp\cc4k3Y37.s 			page 3


  58:Generated_Source\PSoC4/cyutils.c ****             uint8 const volatile *tmpAddr;
  59:Generated_Source\PSoC4/cyutils.c ****             uint32 value;
  60:Generated_Source\PSoC4/cyutils.c **** 
  61:Generated_Source\PSoC4/cyutils.c ****             tmpAddr = (uint8 const volatile *) addr;
  62:Generated_Source\PSoC4/cyutils.c **** 
  63:Generated_Source\PSoC4/cyutils.c ****             value  =  (uint32) tmpAddr[0u];
  58              		.loc 1 63 0
  59 0000 0278     		ldrb	r2, [r0]
  60              	.LVL3:
  64:Generated_Source\PSoC4/cyutils.c ****             value |= ((uint32) tmpAddr[1u] << 8u );
  61              		.loc 1 64 0
  62 0002 4378     		ldrb	r3, [r0, #1]
  63 0004 1B02     		lsl	r3, r3, #8
  64 0006 1343     		orr	r3, r2
  65              	.LVL4:
  65:Generated_Source\PSoC4/cyutils.c ****             value |= ((uint32) tmpAddr[2u] << 16u);
  66              		.loc 1 65 0
  67 0008 8078     		ldrb	r0, [r0, #2]
  68              	.LVL5:
  69 000a 0004     		lsl	r0, r0, #16
  70 000c 1843     		orr	r0, r3
  71              	.LVL6:
  66:Generated_Source\PSoC4/cyutils.c **** 
  67:Generated_Source\PSoC4/cyutils.c ****             return(value);
  68:Generated_Source\PSoC4/cyutils.c ****         }
  72              		.loc 1 68 0
  73              		@ sp needed
  74 000e 7047     		bx	lr
  75              		.cfi_endproc
  76              	.LFE1:
  77              		.size	CyGetReg24, .-CyGetReg24
  78              		.text
  79              	.Letext0:
  80              		.file 2 "Generated_Source\\PSoC4\\cytypes.h"
  81              		.section	.debug_info,"",%progbits
  82              	.Ldebug_info0:
  83 0000 47010000 		.4byte	0x147
  84 0004 0400     		.2byte	0x4
  85 0006 00000000 		.4byte	.Ldebug_abbrev0
  86 000a 04       		.byte	0x4
  87 000b 01       		.uleb128 0x1
  88 000c 03010000 		.4byte	.LASF17
  89 0010 01       		.byte	0x1
  90 0011 CF000000 		.4byte	.LASF18
  91 0015 00000000 		.4byte	.LASF19
  92 0019 00000000 		.4byte	.Ldebug_ranges0+0
  93 001d 00000000 		.4byte	0
  94 0021 00000000 		.4byte	.Ldebug_line0
  95 0025 02       		.uleb128 0x2
  96 0026 01       		.byte	0x1
  97 0027 06       		.byte	0x6
  98 0028 AA010000 		.4byte	.LASF0
  99 002c 02       		.uleb128 0x2
 100 002d 01       		.byte	0x1
 101 002e 08       		.byte	0x8
 102 002f 62000000 		.4byte	.LASF1
 103 0033 02       		.uleb128 0x2
ARM GAS  C:\Users\Elea\AppData\Local\Temp\cc4k3Y37.s 			page 4


 104 0034 02       		.byte	0x2
 105 0035 05       		.byte	0x5
 106 0036 91010000 		.4byte	.LASF2
 107 003a 02       		.uleb128 0x2
 108 003b 02       		.byte	0x2
 109 003c 07       		.byte	0x7
 110 003d 8A000000 		.4byte	.LASF3
 111 0041 02       		.uleb128 0x2
 112 0042 04       		.byte	0x4
 113 0043 05       		.byte	0x5
 114 0044 A1010000 		.4byte	.LASF4
 115 0048 02       		.uleb128 0x2
 116 0049 04       		.byte	0x4
 117 004a 07       		.byte	0x7
 118 004b 78000000 		.4byte	.LASF5
 119 004f 02       		.uleb128 0x2
 120 0050 08       		.byte	0x8
 121 0051 05       		.byte	0x5
 122 0052 F0000000 		.4byte	.LASF6
 123 0056 02       		.uleb128 0x2
 124 0057 08       		.byte	0x8
 125 0058 07       		.byte	0x7
 126 0059 B8000000 		.4byte	.LASF7
 127 005d 03       		.uleb128 0x3
 128 005e 04       		.byte	0x4
 129 005f 05       		.byte	0x5
 130 0060 696E7400 		.ascii	"int\000"
 131 0064 02       		.uleb128 0x2
 132 0065 04       		.byte	0x4
 133 0066 07       		.byte	0x7
 134 0067 AB000000 		.4byte	.LASF8
 135 006b 04       		.uleb128 0x4
 136 006c 9B010000 		.4byte	.LASF9
 137 0070 02       		.byte	0x2
 138 0071 B901     		.2byte	0x1b9
 139 0073 2C000000 		.4byte	0x2c
 140 0077 04       		.uleb128 0x4
 141 0078 A4000000 		.4byte	.LASF10
 142 007c 02       		.byte	0x2
 143 007d BB01     		.2byte	0x1bb
 144 007f 48000000 		.4byte	0x48
 145 0083 02       		.uleb128 0x2
 146 0084 04       		.byte	0x4
 147 0085 04       		.byte	0x4
 148 0086 5C000000 		.4byte	.LASF11
 149 008a 02       		.uleb128 0x2
 150 008b 08       		.byte	0x8
 151 008c 04       		.byte	0x4
 152 008d 9D000000 		.4byte	.LASF12
 153 0091 02       		.uleb128 0x2
 154 0092 01       		.byte	0x1
 155 0093 08       		.byte	0x8
 156 0094 FE000000 		.4byte	.LASF13
 157 0098 05       		.uleb128 0x5
 158 0099 6B000000 		.4byte	0x6b
 159 009d 05       		.uleb128 0x5
 160 009e 77000000 		.4byte	0x77
ARM GAS  C:\Users\Elea\AppData\Local\Temp\cc4k3Y37.s 			page 5


 161 00a2 06       		.uleb128 0x6
 162 00a3 4C000000 		.4byte	.LASF20
 163 00a7 01       		.byte	0x1
 164 00a8 1F       		.byte	0x1f
 165 00a9 00000000 		.4byte	.LFB0
 166 00ad 12000000 		.4byte	.LFE0-.LFB0
 167 00b1 01       		.uleb128 0x1
 168 00b2 9C       		.byte	0x9c
 169 00b3 E1000000 		.4byte	0xe1
 170 00b7 07       		.uleb128 0x7
 171 00b8 57000000 		.4byte	.LASF14
 172 00bc 01       		.byte	0x1
 173 00bd 1F       		.byte	0x1f
 174 00be E1000000 		.4byte	0xe1
 175 00c2 01       		.uleb128 0x1
 176 00c3 50       		.byte	0x50
 177 00c4 08       		.uleb128 0x8
 178 00c5 3B000000 		.4byte	.LASF15
 179 00c9 01       		.byte	0x1
 180 00ca 1F       		.byte	0x1f
 181 00cb 77000000 		.4byte	0x77
 182 00cf 00000000 		.4byte	.LLST0
 183 00d3 09       		.uleb128 0x9
 184 00d4 70000000 		.4byte	.LASF16
 185 00d8 01       		.byte	0x1
 186 00d9 21       		.byte	0x21
 187 00da E7000000 		.4byte	0xe7
 188 00de 01       		.uleb128 0x1
 189 00df 50       		.byte	0x50
 190 00e0 00       		.byte	0
 191 00e1 0A       		.uleb128 0xa
 192 00e2 04       		.byte	0x4
 193 00e3 9D000000 		.4byte	0x9d
 194 00e7 0A       		.uleb128 0xa
 195 00e8 04       		.byte	0x4
 196 00e9 98000000 		.4byte	0x98
 197 00ed 0B       		.uleb128 0xb
 198 00ee 41000000 		.4byte	.LASF21
 199 00f2 01       		.byte	0x1
 200 00f3 38       		.byte	0x38
 201 00f4 77000000 		.4byte	0x77
 202 00f8 00000000 		.4byte	.LFB1
 203 00fc 10000000 		.4byte	.LFE1-.LFB1
 204 0100 01       		.uleb128 0x1
 205 0101 9C       		.byte	0x9c
 206 0102 34010000 		.4byte	0x134
 207 0106 08       		.uleb128 0x8
 208 0107 57000000 		.4byte	.LASF14
 209 010b 01       		.byte	0x1
 210 010c 38       		.byte	0x38
 211 010d 34010000 		.4byte	0x134
 212 0111 21000000 		.4byte	.LLST1
 213 0115 0C       		.uleb128 0xc
 214 0116 70000000 		.4byte	.LASF16
 215 011a 01       		.byte	0x1
 216 011b 3A       		.byte	0x3a
 217 011c 3F010000 		.4byte	0x13f
ARM GAS  C:\Users\Elea\AppData\Local\Temp\cc4k3Y37.s 			page 6


 218 0120 21000000 		.4byte	.LLST1
 219 0124 0C       		.uleb128 0xc
 220 0125 3B000000 		.4byte	.LASF15
 221 0129 01       		.byte	0x1
 222 012a 3B       		.byte	0x3b
 223 012b 77000000 		.4byte	0x77
 224 012f 42000000 		.4byte	.LLST3
 225 0133 00       		.byte	0
 226 0134 0A       		.uleb128 0xa
 227 0135 04       		.byte	0x4
 228 0136 3A010000 		.4byte	0x13a
 229 013a 0D       		.uleb128 0xd
 230 013b 9D000000 		.4byte	0x9d
 231 013f 0A       		.uleb128 0xa
 232 0140 04       		.byte	0x4
 233 0141 45010000 		.4byte	0x145
 234 0145 0D       		.uleb128 0xd
 235 0146 98000000 		.4byte	0x98
 236 014a 00       		.byte	0
 237              		.section	.debug_abbrev,"",%progbits
 238              	.Ldebug_abbrev0:
 239 0000 01       		.uleb128 0x1
 240 0001 11       		.uleb128 0x11
 241 0002 01       		.byte	0x1
 242 0003 25       		.uleb128 0x25
 243 0004 0E       		.uleb128 0xe
 244 0005 13       		.uleb128 0x13
 245 0006 0B       		.uleb128 0xb
 246 0007 03       		.uleb128 0x3
 247 0008 0E       		.uleb128 0xe
 248 0009 1B       		.uleb128 0x1b
 249 000a 0E       		.uleb128 0xe
 250 000b 55       		.uleb128 0x55
 251 000c 17       		.uleb128 0x17
 252 000d 11       		.uleb128 0x11
 253 000e 01       		.uleb128 0x1
 254 000f 10       		.uleb128 0x10
 255 0010 17       		.uleb128 0x17
 256 0011 00       		.byte	0
 257 0012 00       		.byte	0
 258 0013 02       		.uleb128 0x2
 259 0014 24       		.uleb128 0x24
 260 0015 00       		.byte	0
 261 0016 0B       		.uleb128 0xb
 262 0017 0B       		.uleb128 0xb
 263 0018 3E       		.uleb128 0x3e
 264 0019 0B       		.uleb128 0xb
 265 001a 03       		.uleb128 0x3
 266 001b 0E       		.uleb128 0xe
 267 001c 00       		.byte	0
 268 001d 00       		.byte	0
 269 001e 03       		.uleb128 0x3
 270 001f 24       		.uleb128 0x24
 271 0020 00       		.byte	0
 272 0021 0B       		.uleb128 0xb
 273 0022 0B       		.uleb128 0xb
 274 0023 3E       		.uleb128 0x3e
ARM GAS  C:\Users\Elea\AppData\Local\Temp\cc4k3Y37.s 			page 7


 275 0024 0B       		.uleb128 0xb
 276 0025 03       		.uleb128 0x3
 277 0026 08       		.uleb128 0x8
 278 0027 00       		.byte	0
 279 0028 00       		.byte	0
 280 0029 04       		.uleb128 0x4
 281 002a 16       		.uleb128 0x16
 282 002b 00       		.byte	0
 283 002c 03       		.uleb128 0x3
 284 002d 0E       		.uleb128 0xe
 285 002e 3A       		.uleb128 0x3a
 286 002f 0B       		.uleb128 0xb
 287 0030 3B       		.uleb128 0x3b
 288 0031 05       		.uleb128 0x5
 289 0032 49       		.uleb128 0x49
 290 0033 13       		.uleb128 0x13
 291 0034 00       		.byte	0
 292 0035 00       		.byte	0
 293 0036 05       		.uleb128 0x5
 294 0037 35       		.uleb128 0x35
 295 0038 00       		.byte	0
 296 0039 49       		.uleb128 0x49
 297 003a 13       		.uleb128 0x13
 298 003b 00       		.byte	0
 299 003c 00       		.byte	0
 300 003d 06       		.uleb128 0x6
 301 003e 2E       		.uleb128 0x2e
 302 003f 01       		.byte	0x1
 303 0040 3F       		.uleb128 0x3f
 304 0041 19       		.uleb128 0x19
 305 0042 03       		.uleb128 0x3
 306 0043 0E       		.uleb128 0xe
 307 0044 3A       		.uleb128 0x3a
 308 0045 0B       		.uleb128 0xb
 309 0046 3B       		.uleb128 0x3b
 310 0047 0B       		.uleb128 0xb
 311 0048 27       		.uleb128 0x27
 312 0049 19       		.uleb128 0x19
 313 004a 11       		.uleb128 0x11
 314 004b 01       		.uleb128 0x1
 315 004c 12       		.uleb128 0x12
 316 004d 06       		.uleb128 0x6
 317 004e 40       		.uleb128 0x40
 318 004f 18       		.uleb128 0x18
 319 0050 9742     		.uleb128 0x2117
 320 0052 19       		.uleb128 0x19
 321 0053 01       		.uleb128 0x1
 322 0054 13       		.uleb128 0x13
 323 0055 00       		.byte	0
 324 0056 00       		.byte	0
 325 0057 07       		.uleb128 0x7
 326 0058 05       		.uleb128 0x5
 327 0059 00       		.byte	0
 328 005a 03       		.uleb128 0x3
 329 005b 0E       		.uleb128 0xe
 330 005c 3A       		.uleb128 0x3a
 331 005d 0B       		.uleb128 0xb
ARM GAS  C:\Users\Elea\AppData\Local\Temp\cc4k3Y37.s 			page 8


 332 005e 3B       		.uleb128 0x3b
 333 005f 0B       		.uleb128 0xb
 334 0060 49       		.uleb128 0x49
 335 0061 13       		.uleb128 0x13
 336 0062 02       		.uleb128 0x2
 337 0063 18       		.uleb128 0x18
 338 0064 00       		.byte	0
 339 0065 00       		.byte	0
 340 0066 08       		.uleb128 0x8
 341 0067 05       		.uleb128 0x5
 342 0068 00       		.byte	0
 343 0069 03       		.uleb128 0x3
 344 006a 0E       		.uleb128 0xe
 345 006b 3A       		.uleb128 0x3a
 346 006c 0B       		.uleb128 0xb
 347 006d 3B       		.uleb128 0x3b
 348 006e 0B       		.uleb128 0xb
 349 006f 49       		.uleb128 0x49
 350 0070 13       		.uleb128 0x13
 351 0071 02       		.uleb128 0x2
 352 0072 17       		.uleb128 0x17
 353 0073 00       		.byte	0
 354 0074 00       		.byte	0
 355 0075 09       		.uleb128 0x9
 356 0076 34       		.uleb128 0x34
 357 0077 00       		.byte	0
 358 0078 03       		.uleb128 0x3
 359 0079 0E       		.uleb128 0xe
 360 007a 3A       		.uleb128 0x3a
 361 007b 0B       		.uleb128 0xb
 362 007c 3B       		.uleb128 0x3b
 363 007d 0B       		.uleb128 0xb
 364 007e 49       		.uleb128 0x49
 365 007f 13       		.uleb128 0x13
 366 0080 02       		.uleb128 0x2
 367 0081 18       		.uleb128 0x18
 368 0082 00       		.byte	0
 369 0083 00       		.byte	0
 370 0084 0A       		.uleb128 0xa
 371 0085 0F       		.uleb128 0xf
 372 0086 00       		.byte	0
 373 0087 0B       		.uleb128 0xb
 374 0088 0B       		.uleb128 0xb
 375 0089 49       		.uleb128 0x49
 376 008a 13       		.uleb128 0x13
 377 008b 00       		.byte	0
 378 008c 00       		.byte	0
 379 008d 0B       		.uleb128 0xb
 380 008e 2E       		.uleb128 0x2e
 381 008f 01       		.byte	0x1
 382 0090 3F       		.uleb128 0x3f
 383 0091 19       		.uleb128 0x19
 384 0092 03       		.uleb128 0x3
 385 0093 0E       		.uleb128 0xe
 386 0094 3A       		.uleb128 0x3a
 387 0095 0B       		.uleb128 0xb
 388 0096 3B       		.uleb128 0x3b
ARM GAS  C:\Users\Elea\AppData\Local\Temp\cc4k3Y37.s 			page 9


 389 0097 0B       		.uleb128 0xb
 390 0098 27       		.uleb128 0x27
 391 0099 19       		.uleb128 0x19
 392 009a 49       		.uleb128 0x49
 393 009b 13       		.uleb128 0x13
 394 009c 11       		.uleb128 0x11
 395 009d 01       		.uleb128 0x1
 396 009e 12       		.uleb128 0x12
 397 009f 06       		.uleb128 0x6
 398 00a0 40       		.uleb128 0x40
 399 00a1 18       		.uleb128 0x18
 400 00a2 9742     		.uleb128 0x2117
 401 00a4 19       		.uleb128 0x19
 402 00a5 01       		.uleb128 0x1
 403 00a6 13       		.uleb128 0x13
 404 00a7 00       		.byte	0
 405 00a8 00       		.byte	0
 406 00a9 0C       		.uleb128 0xc
 407 00aa 34       		.uleb128 0x34
 408 00ab 00       		.byte	0
 409 00ac 03       		.uleb128 0x3
 410 00ad 0E       		.uleb128 0xe
 411 00ae 3A       		.uleb128 0x3a
 412 00af 0B       		.uleb128 0xb
 413 00b0 3B       		.uleb128 0x3b
 414 00b1 0B       		.uleb128 0xb
 415 00b2 49       		.uleb128 0x49
 416 00b3 13       		.uleb128 0x13
 417 00b4 02       		.uleb128 0x2
 418 00b5 17       		.uleb128 0x17
 419 00b6 00       		.byte	0
 420 00b7 00       		.byte	0
 421 00b8 0D       		.uleb128 0xd
 422 00b9 26       		.uleb128 0x26
 423 00ba 00       		.byte	0
 424 00bb 49       		.uleb128 0x49
 425 00bc 13       		.uleb128 0x13
 426 00bd 00       		.byte	0
 427 00be 00       		.byte	0
 428 00bf 00       		.byte	0
 429              		.section	.debug_loc,"",%progbits
 430              	.Ldebug_loc0:
 431              	.LLST0:
 432 0000 00000000 		.4byte	.LVL0
 433 0004 0C000000 		.4byte	.LVL1
 434 0008 0100     		.2byte	0x1
 435 000a 51       		.byte	0x51
 436 000b 0C000000 		.4byte	.LVL1
 437 000f 12000000 		.4byte	.LFE0
 438 0013 0400     		.2byte	0x4
 439 0015 F3       		.byte	0xf3
 440 0016 01       		.uleb128 0x1
 441 0017 51       		.byte	0x51
 442 0018 9F       		.byte	0x9f
 443 0019 00000000 		.4byte	0
 444 001d 00000000 		.4byte	0
 445              	.LLST1:
ARM GAS  C:\Users\Elea\AppData\Local\Temp\cc4k3Y37.s 			page 10


 446 0021 00000000 		.4byte	.LVL2
 447 0025 0A000000 		.4byte	.LVL5
 448 0029 0100     		.2byte	0x1
 449 002b 50       		.byte	0x50
 450 002c 0A000000 		.4byte	.LVL5
 451 0030 10000000 		.4byte	.LFE1
 452 0034 0400     		.2byte	0x4
 453 0036 F3       		.byte	0xf3
 454 0037 01       		.uleb128 0x1
 455 0038 50       		.byte	0x50
 456 0039 9F       		.byte	0x9f
 457 003a 00000000 		.4byte	0
 458 003e 00000000 		.4byte	0
 459              	.LLST3:
 460 0042 02000000 		.4byte	.LVL3
 461 0046 08000000 		.4byte	.LVL4
 462 004a 0600     		.2byte	0x6
 463 004c 72       		.byte	0x72
 464 004d 00       		.sleb128 0
 465 004e 08       		.byte	0x8
 466 004f FF       		.byte	0xff
 467 0050 1A       		.byte	0x1a
 468 0051 9F       		.byte	0x9f
 469 0052 08000000 		.4byte	.LVL4
 470 0056 0E000000 		.4byte	.LVL6
 471 005a 0100     		.2byte	0x1
 472 005c 53       		.byte	0x53
 473 005d 0E000000 		.4byte	.LVL6
 474 0061 10000000 		.4byte	.LFE1
 475 0065 0100     		.2byte	0x1
 476 0067 50       		.byte	0x50
 477 0068 00000000 		.4byte	0
 478 006c 00000000 		.4byte	0
 479              		.section	.debug_aranges,"",%progbits
 480 0000 24000000 		.4byte	0x24
 481 0004 0200     		.2byte	0x2
 482 0006 00000000 		.4byte	.Ldebug_info0
 483 000a 04       		.byte	0x4
 484 000b 00       		.byte	0
 485 000c 0000     		.2byte	0
 486 000e 0000     		.2byte	0
 487 0010 00000000 		.4byte	.LFB0
 488 0014 12000000 		.4byte	.LFE0-.LFB0
 489 0018 00000000 		.4byte	.LFB1
 490 001c 10000000 		.4byte	.LFE1-.LFB1
 491 0020 00000000 		.4byte	0
 492 0024 00000000 		.4byte	0
 493              		.section	.debug_ranges,"",%progbits
 494              	.Ldebug_ranges0:
 495 0000 00000000 		.4byte	.LFB0
 496 0004 12000000 		.4byte	.LFE0
 497 0008 00000000 		.4byte	.LFB1
 498 000c 10000000 		.4byte	.LFE1
 499 0010 00000000 		.4byte	0
 500 0014 00000000 		.4byte	0
 501              		.section	.debug_line,"",%progbits
 502              	.Ldebug_line0:
ARM GAS  C:\Users\Elea\AppData\Local\Temp\cc4k3Y37.s 			page 11


 503 0000 70000000 		.section	.debug_str,"MS",%progbits,1
 503      02004400 
 503      00000201 
 503      FB0E0D00 
 503      01010101 
 504              	.LASF19:
 505 0000 433A5C55 		.ascii	"C:\\Users\\Elea\\Desktop\\DESARROLLO\\EleaTouch\\El"
 505      73657273 
 505      5C456C65 
 505      615C4465 
 505      736B746F 
 506 002d 6561546F 		.ascii	"eaTouch.cydsn\000"
 506      7563682E 
 506      63796473 
 506      6E00
 507              	.LASF15:
 508 003b 76616C75 		.ascii	"value\000"
 508      6500
 509              	.LASF21:
 510 0041 43794765 		.ascii	"CyGetReg24\000"
 510      74526567 
 510      323400
 511              	.LASF20:
 512 004c 43795365 		.ascii	"CySetReg24\000"
 512      74526567 
 512      323400
 513              	.LASF14:
 514 0057 61646472 		.ascii	"addr\000"
 514      00
 515              	.LASF11:
 516 005c 666C6F61 		.ascii	"float\000"
 516      7400
 517              	.LASF1:
 518 0062 756E7369 		.ascii	"unsigned char\000"
 518      676E6564 
 518      20636861 
 518      7200
 519              	.LASF16:
 520 0070 746D7041 		.ascii	"tmpAddr\000"
 520      64647200 
 521              	.LASF5:
 522 0078 6C6F6E67 		.ascii	"long unsigned int\000"
 522      20756E73 
 522      69676E65 
 522      6420696E 
 522      7400
 523              	.LASF3:
 524 008a 73686F72 		.ascii	"short unsigned int\000"
 524      7420756E 
 524      7369676E 
 524      65642069 
 524      6E7400
 525              	.LASF12:
 526 009d 646F7562 		.ascii	"double\000"
 526      6C6500
 527              	.LASF10:
 528 00a4 75696E74 		.ascii	"uint32\000"
ARM GAS  C:\Users\Elea\AppData\Local\Temp\cc4k3Y37.s 			page 12


 528      333200
 529              	.LASF8:
 530 00ab 756E7369 		.ascii	"unsigned int\000"
 530      676E6564 
 530      20696E74 
 530      00
 531              	.LASF7:
 532 00b8 6C6F6E67 		.ascii	"long long unsigned int\000"
 532      206C6F6E 
 532      6720756E 
 532      7369676E 
 532      65642069 
 533              	.LASF18:
 534 00cf 47656E65 		.ascii	"Generated_Source\\PSoC4\\cyutils.c\000"
 534      72617465 
 534      645F536F 
 534      75726365 
 534      5C50536F 
 535              	.LASF6:
 536 00f0 6C6F6E67 		.ascii	"long long int\000"
 536      206C6F6E 
 536      6720696E 
 536      7400
 537              	.LASF13:
 538 00fe 63686172 		.ascii	"char\000"
 538      00
 539              	.LASF17:
 540 0103 474E5520 		.ascii	"GNU C 4.9.3 20150303 (release) [ARM/embedded-4_9-br"
 540      4320342E 
 540      392E3320 
 540      32303135 
 540      30333033 
 541 0136 616E6368 		.ascii	"anch revision 221220] -mcpu=cortex-m0 -mthumb -g -O"
 541      20726576 
 541      6973696F 
 541      6E203232 
 541      31323230 
 542 0169 67202D66 		.ascii	"g -ffunction-sections -ffat-lto-objects\000"
 542      66756E63 
 542      74696F6E 
 542      2D736563 
 542      74696F6E 
 543              	.LASF2:
 544 0191 73686F72 		.ascii	"short int\000"
 544      7420696E 
 544      7400
 545              	.LASF9:
 546 019b 75696E74 		.ascii	"uint8\000"
 546      3800
 547              	.LASF4:
 548 01a1 6C6F6E67 		.ascii	"long int\000"
 548      20696E74 
 548      00
 549              	.LASF0:
 550 01aa 7369676E 		.ascii	"signed char\000"
 550      65642063 
 550      68617200 
ARM GAS  C:\Users\Elea\AppData\Local\Temp\cc4k3Y37.s 			page 13


 551              		.ident	"GCC: (GNU Tools for ARM Embedded Processors) 4.9.3 20150303 (release) [ARM/embedded-4_9-br
