ARM GAS  C:\Users\Elea\AppData\Local\Temp\cc8IS26P.s 			page 1


   1              		.cpu cortex-m0
   2              		.fpu softvfp
   3              		.eabi_attribute 20, 1
   4              		.eabi_attribute 21, 1
   5              		.eabi_attribute 23, 3
   6              		.eabi_attribute 24, 1
   7              		.eabi_attribute 25, 1
   8              		.eabi_attribute 26, 1
   9              		.eabi_attribute 30, 1
  10              		.eabi_attribute 34, 0
  11              		.eabi_attribute 18, 4
  12              		.code	16
  13              		.file	"EnoUART_SCBCLK.c"
  14              		.text
  15              	.Ltext0:
  16              		.cfi_sections	.debug_frame
  17              		.section	.text.EnoUART_SCBCLK_Start,"ax",%progbits
  18              		.align	2
  19              		.global	EnoUART_SCBCLK_Start
  20              		.code	16
  21              		.thumb_func
  22              		.type	EnoUART_SCBCLK_Start, %function
  23              	EnoUART_SCBCLK_Start:
  24              	.LFB0:
  25              		.file 1 "Generated_Source\\PSoC4\\EnoUART_SCBCLK.c"
   1:Generated_Source\PSoC4/EnoUART_SCBCLK.c **** /*******************************************************************************
   2:Generated_Source\PSoC4/EnoUART_SCBCLK.c **** * File Name: EnoUART_SCBCLK.c
   3:Generated_Source\PSoC4/EnoUART_SCBCLK.c **** * Version 2.20
   4:Generated_Source\PSoC4/EnoUART_SCBCLK.c **** *
   5:Generated_Source\PSoC4/EnoUART_SCBCLK.c **** *  Description:
   6:Generated_Source\PSoC4/EnoUART_SCBCLK.c **** *   Provides system API for the clocking, interrupts and watchdog timer.
   7:Generated_Source\PSoC4/EnoUART_SCBCLK.c **** *
   8:Generated_Source\PSoC4/EnoUART_SCBCLK.c **** *  Note:
   9:Generated_Source\PSoC4/EnoUART_SCBCLK.c **** *   Documentation of the API's in this file is located in the
  10:Generated_Source\PSoC4/EnoUART_SCBCLK.c **** *   System Reference Guide provided with PSoC Creator.
  11:Generated_Source\PSoC4/EnoUART_SCBCLK.c **** *
  12:Generated_Source\PSoC4/EnoUART_SCBCLK.c **** ********************************************************************************
  13:Generated_Source\PSoC4/EnoUART_SCBCLK.c **** * Copyright 2008-2012, Cypress Semiconductor Corporation.  All rights reserved.
  14:Generated_Source\PSoC4/EnoUART_SCBCLK.c **** * You may use this file only in accordance with the license, terms, conditions,
  15:Generated_Source\PSoC4/EnoUART_SCBCLK.c **** * disclaimers, and limitations in the end user license agreement accompanying
  16:Generated_Source\PSoC4/EnoUART_SCBCLK.c **** * the software package with which this file was provided.
  17:Generated_Source\PSoC4/EnoUART_SCBCLK.c **** *******************************************************************************/
  18:Generated_Source\PSoC4/EnoUART_SCBCLK.c **** 
  19:Generated_Source\PSoC4/EnoUART_SCBCLK.c **** #include <cydevice_trm.h>
  20:Generated_Source\PSoC4/EnoUART_SCBCLK.c **** #include "EnoUART_SCBCLK.h"
  21:Generated_Source\PSoC4/EnoUART_SCBCLK.c **** 
  22:Generated_Source\PSoC4/EnoUART_SCBCLK.c **** #if defined CYREG_PERI_DIV_CMD
  23:Generated_Source\PSoC4/EnoUART_SCBCLK.c **** 
  24:Generated_Source\PSoC4/EnoUART_SCBCLK.c **** /*******************************************************************************
  25:Generated_Source\PSoC4/EnoUART_SCBCLK.c **** * Function Name: EnoUART_SCBCLK_StartEx
  26:Generated_Source\PSoC4/EnoUART_SCBCLK.c **** ********************************************************************************
  27:Generated_Source\PSoC4/EnoUART_SCBCLK.c **** *
  28:Generated_Source\PSoC4/EnoUART_SCBCLK.c **** * Summary:
  29:Generated_Source\PSoC4/EnoUART_SCBCLK.c **** *  Starts the clock, aligned to the specified running clock.
  30:Generated_Source\PSoC4/EnoUART_SCBCLK.c **** *
  31:Generated_Source\PSoC4/EnoUART_SCBCLK.c **** * Parameters:
  32:Generated_Source\PSoC4/EnoUART_SCBCLK.c **** *  alignClkDiv:  The divider to which phase alignment is performed when the
ARM GAS  C:\Users\Elea\AppData\Local\Temp\cc8IS26P.s 			page 2


  33:Generated_Source\PSoC4/EnoUART_SCBCLK.c **** *    clock is started.
  34:Generated_Source\PSoC4/EnoUART_SCBCLK.c **** *
  35:Generated_Source\PSoC4/EnoUART_SCBCLK.c **** * Returns:
  36:Generated_Source\PSoC4/EnoUART_SCBCLK.c **** *  None
  37:Generated_Source\PSoC4/EnoUART_SCBCLK.c **** *
  38:Generated_Source\PSoC4/EnoUART_SCBCLK.c **** *******************************************************************************/
  39:Generated_Source\PSoC4/EnoUART_SCBCLK.c **** void EnoUART_SCBCLK_StartEx(uint32 alignClkDiv)
  40:Generated_Source\PSoC4/EnoUART_SCBCLK.c **** {
  41:Generated_Source\PSoC4/EnoUART_SCBCLK.c ****     /* Make sure any previous start command has finished. */
  42:Generated_Source\PSoC4/EnoUART_SCBCLK.c ****     while((EnoUART_SCBCLK_CMD_REG & EnoUART_SCBCLK_CMD_ENABLE_MASK) != 0u)
  43:Generated_Source\PSoC4/EnoUART_SCBCLK.c ****     {
  44:Generated_Source\PSoC4/EnoUART_SCBCLK.c ****     }
  45:Generated_Source\PSoC4/EnoUART_SCBCLK.c ****     
  46:Generated_Source\PSoC4/EnoUART_SCBCLK.c ****     /* Specify the target divider and it's alignment divider, and enable. */
  47:Generated_Source\PSoC4/EnoUART_SCBCLK.c ****     EnoUART_SCBCLK_CMD_REG =
  48:Generated_Source\PSoC4/EnoUART_SCBCLK.c ****         ((uint32)EnoUART_SCBCLK__DIV_ID << EnoUART_SCBCLK_CMD_DIV_SHIFT)|
  49:Generated_Source\PSoC4/EnoUART_SCBCLK.c ****         (alignClkDiv << EnoUART_SCBCLK_CMD_PA_DIV_SHIFT) |
  50:Generated_Source\PSoC4/EnoUART_SCBCLK.c ****         (uint32)EnoUART_SCBCLK_CMD_ENABLE_MASK;
  51:Generated_Source\PSoC4/EnoUART_SCBCLK.c **** }
  52:Generated_Source\PSoC4/EnoUART_SCBCLK.c **** 
  53:Generated_Source\PSoC4/EnoUART_SCBCLK.c **** #else
  54:Generated_Source\PSoC4/EnoUART_SCBCLK.c **** 
  55:Generated_Source\PSoC4/EnoUART_SCBCLK.c **** /*******************************************************************************
  56:Generated_Source\PSoC4/EnoUART_SCBCLK.c **** * Function Name: EnoUART_SCBCLK_Start
  57:Generated_Source\PSoC4/EnoUART_SCBCLK.c **** ********************************************************************************
  58:Generated_Source\PSoC4/EnoUART_SCBCLK.c **** *
  59:Generated_Source\PSoC4/EnoUART_SCBCLK.c **** * Summary:
  60:Generated_Source\PSoC4/EnoUART_SCBCLK.c **** *  Starts the clock.
  61:Generated_Source\PSoC4/EnoUART_SCBCLK.c **** *
  62:Generated_Source\PSoC4/EnoUART_SCBCLK.c **** * Parameters:
  63:Generated_Source\PSoC4/EnoUART_SCBCLK.c **** *  None
  64:Generated_Source\PSoC4/EnoUART_SCBCLK.c **** *
  65:Generated_Source\PSoC4/EnoUART_SCBCLK.c **** * Returns:
  66:Generated_Source\PSoC4/EnoUART_SCBCLK.c **** *  None
  67:Generated_Source\PSoC4/EnoUART_SCBCLK.c **** *
  68:Generated_Source\PSoC4/EnoUART_SCBCLK.c **** *******************************************************************************/
  69:Generated_Source\PSoC4/EnoUART_SCBCLK.c **** 
  70:Generated_Source\PSoC4/EnoUART_SCBCLK.c **** void EnoUART_SCBCLK_Start(void)
  71:Generated_Source\PSoC4/EnoUART_SCBCLK.c **** {
  26              		.loc 1 71 0
  27              		.cfi_startproc
  72:Generated_Source\PSoC4/EnoUART_SCBCLK.c ****     /* Set the bit to enable the clock. */
  73:Generated_Source\PSoC4/EnoUART_SCBCLK.c ****     EnoUART_SCBCLK_ENABLE_REG |= EnoUART_SCBCLK__ENABLE_MASK;
  28              		.loc 1 73 0
  29 0000 034A     		ldr	r2, .L2
  30 0002 1368     		ldr	r3, [r2]
  31 0004 8021     		mov	r1, #128
  32 0006 0906     		lsl	r1, r1, #24
  33 0008 0B43     		orr	r3, r1
  34 000a 1360     		str	r3, [r2]
  74:Generated_Source\PSoC4/EnoUART_SCBCLK.c **** }
  35              		.loc 1 74 0
  36              		@ sp needed
  37 000c 7047     		bx	lr
  38              	.L3:
  39 000e C046     		.align	2
  40              	.L2:
ARM GAS  C:\Users\Elea\AppData\Local\Temp\cc8IS26P.s 			page 3


  41 0010 80000240 		.word	1073873024
  42              		.cfi_endproc
  43              	.LFE0:
  44              		.size	EnoUART_SCBCLK_Start, .-EnoUART_SCBCLK_Start
  45              		.section	.text.EnoUART_SCBCLK_Stop,"ax",%progbits
  46              		.align	2
  47              		.global	EnoUART_SCBCLK_Stop
  48              		.code	16
  49              		.thumb_func
  50              		.type	EnoUART_SCBCLK_Stop, %function
  51              	EnoUART_SCBCLK_Stop:
  52              	.LFB1:
  75:Generated_Source\PSoC4/EnoUART_SCBCLK.c **** 
  76:Generated_Source\PSoC4/EnoUART_SCBCLK.c **** #endif /* CYREG_PERI_DIV_CMD */
  77:Generated_Source\PSoC4/EnoUART_SCBCLK.c **** 
  78:Generated_Source\PSoC4/EnoUART_SCBCLK.c **** 
  79:Generated_Source\PSoC4/EnoUART_SCBCLK.c **** /*******************************************************************************
  80:Generated_Source\PSoC4/EnoUART_SCBCLK.c **** * Function Name: EnoUART_SCBCLK_Stop
  81:Generated_Source\PSoC4/EnoUART_SCBCLK.c **** ********************************************************************************
  82:Generated_Source\PSoC4/EnoUART_SCBCLK.c **** *
  83:Generated_Source\PSoC4/EnoUART_SCBCLK.c **** * Summary:
  84:Generated_Source\PSoC4/EnoUART_SCBCLK.c **** *  Stops the clock and returns immediately. This API does not require the
  85:Generated_Source\PSoC4/EnoUART_SCBCLK.c **** *  source clock to be running but may return before the hardware is actually
  86:Generated_Source\PSoC4/EnoUART_SCBCLK.c **** *  disabled.
  87:Generated_Source\PSoC4/EnoUART_SCBCLK.c **** *
  88:Generated_Source\PSoC4/EnoUART_SCBCLK.c **** * Parameters:
  89:Generated_Source\PSoC4/EnoUART_SCBCLK.c **** *  None
  90:Generated_Source\PSoC4/EnoUART_SCBCLK.c **** *
  91:Generated_Source\PSoC4/EnoUART_SCBCLK.c **** * Returns:
  92:Generated_Source\PSoC4/EnoUART_SCBCLK.c **** *  None
  93:Generated_Source\PSoC4/EnoUART_SCBCLK.c **** *
  94:Generated_Source\PSoC4/EnoUART_SCBCLK.c **** *******************************************************************************/
  95:Generated_Source\PSoC4/EnoUART_SCBCLK.c **** void EnoUART_SCBCLK_Stop(void)
  96:Generated_Source\PSoC4/EnoUART_SCBCLK.c **** {
  53              		.loc 1 96 0
  54              		.cfi_startproc
  97:Generated_Source\PSoC4/EnoUART_SCBCLK.c **** #if defined CYREG_PERI_DIV_CMD
  98:Generated_Source\PSoC4/EnoUART_SCBCLK.c **** 
  99:Generated_Source\PSoC4/EnoUART_SCBCLK.c ****     /* Make sure any previous start command has finished. */
 100:Generated_Source\PSoC4/EnoUART_SCBCLK.c ****     while((EnoUART_SCBCLK_CMD_REG & EnoUART_SCBCLK_CMD_ENABLE_MASK) != 0u)
 101:Generated_Source\PSoC4/EnoUART_SCBCLK.c ****     {
 102:Generated_Source\PSoC4/EnoUART_SCBCLK.c ****     }
 103:Generated_Source\PSoC4/EnoUART_SCBCLK.c ****     
 104:Generated_Source\PSoC4/EnoUART_SCBCLK.c ****     /* Specify the target divider and it's alignment divider, and disable. */
 105:Generated_Source\PSoC4/EnoUART_SCBCLK.c ****     EnoUART_SCBCLK_CMD_REG =
 106:Generated_Source\PSoC4/EnoUART_SCBCLK.c ****         ((uint32)EnoUART_SCBCLK__DIV_ID << EnoUART_SCBCLK_CMD_DIV_SHIFT)|
 107:Generated_Source\PSoC4/EnoUART_SCBCLK.c ****         ((uint32)EnoUART_SCBCLK_CMD_DISABLE_MASK);
 108:Generated_Source\PSoC4/EnoUART_SCBCLK.c **** 
 109:Generated_Source\PSoC4/EnoUART_SCBCLK.c **** #else
 110:Generated_Source\PSoC4/EnoUART_SCBCLK.c **** 
 111:Generated_Source\PSoC4/EnoUART_SCBCLK.c ****     /* Clear the bit to disable the clock. */
 112:Generated_Source\PSoC4/EnoUART_SCBCLK.c ****     EnoUART_SCBCLK_ENABLE_REG &= (uint32)(~EnoUART_SCBCLK__ENABLE_MASK);
  55              		.loc 1 112 0
  56 0000 024A     		ldr	r2, .L5
  57 0002 1368     		ldr	r3, [r2]
  58 0004 5B00     		lsl	r3, r3, #1
  59 0006 5B08     		lsr	r3, r3, #1
ARM GAS  C:\Users\Elea\AppData\Local\Temp\cc8IS26P.s 			page 4


  60 0008 1360     		str	r3, [r2]
 113:Generated_Source\PSoC4/EnoUART_SCBCLK.c ****     
 114:Generated_Source\PSoC4/EnoUART_SCBCLK.c **** #endif /* CYREG_PERI_DIV_CMD */
 115:Generated_Source\PSoC4/EnoUART_SCBCLK.c **** }
  61              		.loc 1 115 0
  62              		@ sp needed
  63 000a 7047     		bx	lr
  64              	.L6:
  65              		.align	2
  66              	.L5:
  67 000c 80000240 		.word	1073873024
  68              		.cfi_endproc
  69              	.LFE1:
  70              		.size	EnoUART_SCBCLK_Stop, .-EnoUART_SCBCLK_Stop
  71              		.section	.text.EnoUART_SCBCLK_SetFractionalDividerRegister,"ax",%progbits
  72              		.align	2
  73              		.global	EnoUART_SCBCLK_SetFractionalDividerRegister
  74              		.code	16
  75              		.thumb_func
  76              		.type	EnoUART_SCBCLK_SetFractionalDividerRegister, %function
  77              	EnoUART_SCBCLK_SetFractionalDividerRegister:
  78              	.LFB2:
 116:Generated_Source\PSoC4/EnoUART_SCBCLK.c **** 
 117:Generated_Source\PSoC4/EnoUART_SCBCLK.c **** 
 118:Generated_Source\PSoC4/EnoUART_SCBCLK.c **** /*******************************************************************************
 119:Generated_Source\PSoC4/EnoUART_SCBCLK.c **** * Function Name: EnoUART_SCBCLK_SetFractionalDividerRegister
 120:Generated_Source\PSoC4/EnoUART_SCBCLK.c **** ********************************************************************************
 121:Generated_Source\PSoC4/EnoUART_SCBCLK.c **** *
 122:Generated_Source\PSoC4/EnoUART_SCBCLK.c **** * Summary:
 123:Generated_Source\PSoC4/EnoUART_SCBCLK.c **** *  Modifies the clock divider and the fractional divider.
 124:Generated_Source\PSoC4/EnoUART_SCBCLK.c **** *
 125:Generated_Source\PSoC4/EnoUART_SCBCLK.c **** * Parameters:
 126:Generated_Source\PSoC4/EnoUART_SCBCLK.c **** *  clkDivider:  Divider register value (0-65535). This value is NOT the
 127:Generated_Source\PSoC4/EnoUART_SCBCLK.c **** *    divider; the clock hardware divides by clkDivider plus one. For example,
 128:Generated_Source\PSoC4/EnoUART_SCBCLK.c **** *    to divide the clock by 2, this parameter should be set to 1.
 129:Generated_Source\PSoC4/EnoUART_SCBCLK.c **** *  fracDivider:  Fractional Divider register value (0-31).
 130:Generated_Source\PSoC4/EnoUART_SCBCLK.c **** * Returns:
 131:Generated_Source\PSoC4/EnoUART_SCBCLK.c **** *  None
 132:Generated_Source\PSoC4/EnoUART_SCBCLK.c **** *
 133:Generated_Source\PSoC4/EnoUART_SCBCLK.c **** *******************************************************************************/
 134:Generated_Source\PSoC4/EnoUART_SCBCLK.c **** void EnoUART_SCBCLK_SetFractionalDividerRegister(uint16 clkDivider, uint8 clkFractional)
 135:Generated_Source\PSoC4/EnoUART_SCBCLK.c **** {
  79              		.loc 1 135 0
  80              		.cfi_startproc
  81              	.LVL0:
 136:Generated_Source\PSoC4/EnoUART_SCBCLK.c ****     uint32 maskVal;
 137:Generated_Source\PSoC4/EnoUART_SCBCLK.c ****     uint32 regVal;
 138:Generated_Source\PSoC4/EnoUART_SCBCLK.c ****     
 139:Generated_Source\PSoC4/EnoUART_SCBCLK.c **** #if defined (EnoUART_SCBCLK__FRAC_MASK) || defined (CYREG_PERI_DIV_CMD)
 140:Generated_Source\PSoC4/EnoUART_SCBCLK.c ****     
 141:Generated_Source\PSoC4/EnoUART_SCBCLK.c **** 	/* get all but divider bits */
 142:Generated_Source\PSoC4/EnoUART_SCBCLK.c ****     maskVal = EnoUART_SCBCLK_DIV_REG & 
 143:Generated_Source\PSoC4/EnoUART_SCBCLK.c ****                     (uint32)(~(uint32)(EnoUART_SCBCLK_DIV_INT_MASK | EnoUART_SCBCLK_DIV_FRAC_MASK))
 144:Generated_Source\PSoC4/EnoUART_SCBCLK.c **** 	/* combine mask and new divider vals into 32-bit value */
 145:Generated_Source\PSoC4/EnoUART_SCBCLK.c ****     regVal = maskVal |
 146:Generated_Source\PSoC4/EnoUART_SCBCLK.c ****         ((uint32)((uint32)clkDivider <<  EnoUART_SCBCLK_DIV_INT_SHIFT) & EnoUART_SCBCLK_DIV_INT_MAS
 147:Generated_Source\PSoC4/EnoUART_SCBCLK.c ****         ((uint32)((uint32)clkFractional << EnoUART_SCBCLK_DIV_FRAC_SHIFT) & EnoUART_SCBCLK_DIV_FRAC
ARM GAS  C:\Users\Elea\AppData\Local\Temp\cc8IS26P.s 			page 5


 148:Generated_Source\PSoC4/EnoUART_SCBCLK.c ****     
 149:Generated_Source\PSoC4/EnoUART_SCBCLK.c **** #else
 150:Generated_Source\PSoC4/EnoUART_SCBCLK.c ****     /* get all but integer divider bits */
 151:Generated_Source\PSoC4/EnoUART_SCBCLK.c ****     maskVal = EnoUART_SCBCLK_DIV_REG & (uint32)(~(uint32)EnoUART_SCBCLK__DIVIDER_MASK);
  82              		.loc 1 151 0
  83 0000 034A     		ldr	r2, .L8
  84 0002 1368     		ldr	r3, [r2]
  85 0004 1B0C     		lsr	r3, r3, #16
  86 0006 1B04     		lsl	r3, r3, #16
  87              	.LVL1:
 152:Generated_Source\PSoC4/EnoUART_SCBCLK.c ****     /* combine mask and new divider val into 32-bit value */
 153:Generated_Source\PSoC4/EnoUART_SCBCLK.c ****     regVal = clkDivider | maskVal;
  88              		.loc 1 153 0
  89 0008 1843     		orr	r0, r3
  90              	.LVL2:
 154:Generated_Source\PSoC4/EnoUART_SCBCLK.c ****     
 155:Generated_Source\PSoC4/EnoUART_SCBCLK.c **** #endif /* EnoUART_SCBCLK__FRAC_MASK || CYREG_PERI_DIV_CMD */
 156:Generated_Source\PSoC4/EnoUART_SCBCLK.c **** 
 157:Generated_Source\PSoC4/EnoUART_SCBCLK.c ****     EnoUART_SCBCLK_DIV_REG = regVal;
  91              		.loc 1 157 0
  92 000a 1060     		str	r0, [r2]
 158:Generated_Source\PSoC4/EnoUART_SCBCLK.c **** }
  93              		.loc 1 158 0
  94              		@ sp needed
  95 000c 7047     		bx	lr
  96              	.L9:
  97 000e C046     		.align	2
  98              	.L8:
  99 0010 80000240 		.word	1073873024
 100              		.cfi_endproc
 101              	.LFE2:
 102              		.size	EnoUART_SCBCLK_SetFractionalDividerRegister, .-EnoUART_SCBCLK_SetFractionalDividerRegister
 103              		.section	.text.EnoUART_SCBCLK_GetDividerRegister,"ax",%progbits
 104              		.align	2
 105              		.global	EnoUART_SCBCLK_GetDividerRegister
 106              		.code	16
 107              		.thumb_func
 108              		.type	EnoUART_SCBCLK_GetDividerRegister, %function
 109              	EnoUART_SCBCLK_GetDividerRegister:
 110              	.LFB3:
 159:Generated_Source\PSoC4/EnoUART_SCBCLK.c **** 
 160:Generated_Source\PSoC4/EnoUART_SCBCLK.c **** 
 161:Generated_Source\PSoC4/EnoUART_SCBCLK.c **** /*******************************************************************************
 162:Generated_Source\PSoC4/EnoUART_SCBCLK.c **** * Function Name: EnoUART_SCBCLK_GetDividerRegister
 163:Generated_Source\PSoC4/EnoUART_SCBCLK.c **** ********************************************************************************
 164:Generated_Source\PSoC4/EnoUART_SCBCLK.c **** *
 165:Generated_Source\PSoC4/EnoUART_SCBCLK.c **** * Summary:
 166:Generated_Source\PSoC4/EnoUART_SCBCLK.c **** *  Gets the clock divider register value.
 167:Generated_Source\PSoC4/EnoUART_SCBCLK.c **** *
 168:Generated_Source\PSoC4/EnoUART_SCBCLK.c **** * Parameters:
 169:Generated_Source\PSoC4/EnoUART_SCBCLK.c **** *  None
 170:Generated_Source\PSoC4/EnoUART_SCBCLK.c **** *
 171:Generated_Source\PSoC4/EnoUART_SCBCLK.c **** * Returns:
 172:Generated_Source\PSoC4/EnoUART_SCBCLK.c **** *  Divide value of the clock minus 1. For example, if the clock is set to
 173:Generated_Source\PSoC4/EnoUART_SCBCLK.c **** *  divide by 2, the return value will be 1.
 174:Generated_Source\PSoC4/EnoUART_SCBCLK.c **** *
 175:Generated_Source\PSoC4/EnoUART_SCBCLK.c **** *******************************************************************************/
ARM GAS  C:\Users\Elea\AppData\Local\Temp\cc8IS26P.s 			page 6


 176:Generated_Source\PSoC4/EnoUART_SCBCLK.c **** uint16 EnoUART_SCBCLK_GetDividerRegister(void)
 177:Generated_Source\PSoC4/EnoUART_SCBCLK.c **** {
 111              		.loc 1 177 0
 112              		.cfi_startproc
 178:Generated_Source\PSoC4/EnoUART_SCBCLK.c ****     return (uint16)((EnoUART_SCBCLK_DIV_REG & EnoUART_SCBCLK_DIV_INT_MASK)
 113              		.loc 1 178 0
 114 0000 014B     		ldr	r3, .L11
 115 0002 1868     		ldr	r0, [r3]
 116 0004 80B2     		uxth	r0, r0
 179:Generated_Source\PSoC4/EnoUART_SCBCLK.c ****         >> EnoUART_SCBCLK_DIV_INT_SHIFT);
 180:Generated_Source\PSoC4/EnoUART_SCBCLK.c **** }
 117              		.loc 1 180 0
 118              		@ sp needed
 119 0006 7047     		bx	lr
 120              	.L12:
 121              		.align	2
 122              	.L11:
 123 0008 80000240 		.word	1073873024
 124              		.cfi_endproc
 125              	.LFE3:
 126              		.size	EnoUART_SCBCLK_GetDividerRegister, .-EnoUART_SCBCLK_GetDividerRegister
 127              		.section	.text.EnoUART_SCBCLK_GetFractionalDividerRegister,"ax",%progbits
 128              		.align	2
 129              		.global	EnoUART_SCBCLK_GetFractionalDividerRegister
 130              		.code	16
 131              		.thumb_func
 132              		.type	EnoUART_SCBCLK_GetFractionalDividerRegister, %function
 133              	EnoUART_SCBCLK_GetFractionalDividerRegister:
 134              	.LFB4:
 181:Generated_Source\PSoC4/EnoUART_SCBCLK.c **** 
 182:Generated_Source\PSoC4/EnoUART_SCBCLK.c **** 
 183:Generated_Source\PSoC4/EnoUART_SCBCLK.c **** /*******************************************************************************
 184:Generated_Source\PSoC4/EnoUART_SCBCLK.c **** * Function Name: EnoUART_SCBCLK_GetFractionalDividerRegister
 185:Generated_Source\PSoC4/EnoUART_SCBCLK.c **** ********************************************************************************
 186:Generated_Source\PSoC4/EnoUART_SCBCLK.c **** *
 187:Generated_Source\PSoC4/EnoUART_SCBCLK.c **** * Summary:
 188:Generated_Source\PSoC4/EnoUART_SCBCLK.c **** *  Gets the clock fractional divider register value.
 189:Generated_Source\PSoC4/EnoUART_SCBCLK.c **** *
 190:Generated_Source\PSoC4/EnoUART_SCBCLK.c **** * Parameters:
 191:Generated_Source\PSoC4/EnoUART_SCBCLK.c **** *  None
 192:Generated_Source\PSoC4/EnoUART_SCBCLK.c **** *
 193:Generated_Source\PSoC4/EnoUART_SCBCLK.c **** * Returns:
 194:Generated_Source\PSoC4/EnoUART_SCBCLK.c **** *  Fractional Divide value of the clock
 195:Generated_Source\PSoC4/EnoUART_SCBCLK.c **** *  0 if the fractional divider is not in use.
 196:Generated_Source\PSoC4/EnoUART_SCBCLK.c **** *
 197:Generated_Source\PSoC4/EnoUART_SCBCLK.c **** *******************************************************************************/
 198:Generated_Source\PSoC4/EnoUART_SCBCLK.c **** uint8 EnoUART_SCBCLK_GetFractionalDividerRegister(void)
 199:Generated_Source\PSoC4/EnoUART_SCBCLK.c **** {
 135              		.loc 1 199 0
 136              		.cfi_startproc
 200:Generated_Source\PSoC4/EnoUART_SCBCLK.c **** #if defined (EnoUART_SCBCLK__FRAC_MASK)
 201:Generated_Source\PSoC4/EnoUART_SCBCLK.c ****     /* return fractional divider bits */
 202:Generated_Source\PSoC4/EnoUART_SCBCLK.c ****     return (uint8)((EnoUART_SCBCLK_DIV_REG & EnoUART_SCBCLK_DIV_FRAC_MASK)
 203:Generated_Source\PSoC4/EnoUART_SCBCLK.c ****         >> EnoUART_SCBCLK_DIV_FRAC_SHIFT);
 204:Generated_Source\PSoC4/EnoUART_SCBCLK.c **** #else
 205:Generated_Source\PSoC4/EnoUART_SCBCLK.c ****     return 0u;
 206:Generated_Source\PSoC4/EnoUART_SCBCLK.c **** #endif /* EnoUART_SCBCLK__FRAC_MASK */
ARM GAS  C:\Users\Elea\AppData\Local\Temp\cc8IS26P.s 			page 7


 207:Generated_Source\PSoC4/EnoUART_SCBCLK.c **** }
 137              		.loc 1 207 0
 138 0000 0020     		mov	r0, #0
 139              		@ sp needed
 140 0002 7047     		bx	lr
 141              		.cfi_endproc
 142              	.LFE4:
 143              		.size	EnoUART_SCBCLK_GetFractionalDividerRegister, .-EnoUART_SCBCLK_GetFractionalDividerRegister
 144              		.text
 145              	.Letext0:
 146              		.file 2 "Generated_Source\\PSoC4/cytypes.h"
 147              		.section	.debug_info,"",%progbits
 148              	.Ldebug_info0:
 149 0000 4A010000 		.4byte	0x14a
 150 0004 0400     		.2byte	0x4
 151 0006 00000000 		.4byte	.Ldebug_abbrev0
 152 000a 04       		.byte	0x4
 153 000b 01       		.uleb128 0x1
 154 000c A5010000 		.4byte	.LASF24
 155 0010 01       		.byte	0x1
 156 0011 2A010000 		.4byte	.LASF25
 157 0015 06000000 		.4byte	.LASF26
 158 0019 00000000 		.4byte	.Ldebug_ranges0+0
 159 001d 00000000 		.4byte	0
 160 0021 00000000 		.4byte	.Ldebug_line0
 161 0025 02       		.uleb128 0x2
 162 0026 01       		.byte	0x1
 163 0027 06       		.byte	0x6
 164 0028 60020000 		.4byte	.LASF0
 165 002c 02       		.uleb128 0x2
 166 002d 01       		.byte	0x1
 167 002e 08       		.byte	0x8
 168 002f 7B000000 		.4byte	.LASF1
 169 0033 02       		.uleb128 0x2
 170 0034 02       		.byte	0x2
 171 0035 05       		.byte	0x5
 172 0036 33020000 		.4byte	.LASF2
 173 003a 02       		.uleb128 0x2
 174 003b 02       		.byte	0x2
 175 003c 07       		.byte	0x7
 176 003d C7000000 		.4byte	.LASF3
 177 0041 02       		.uleb128 0x2
 178 0042 04       		.byte	0x4
 179 0043 05       		.byte	0x5
 180 0044 43020000 		.4byte	.LASF4
 181 0048 02       		.uleb128 0x2
 182 0049 04       		.byte	0x4
 183 004a 07       		.byte	0x7
 184 004b B5000000 		.4byte	.LASF5
 185 004f 02       		.uleb128 0x2
 186 0050 08       		.byte	0x8
 187 0051 05       		.byte	0x5
 188 0052 92010000 		.4byte	.LASF6
 189 0056 02       		.uleb128 0x2
 190 0057 08       		.byte	0x8
 191 0058 07       		.byte	0x7
 192 0059 66010000 		.4byte	.LASF7
ARM GAS  C:\Users\Elea\AppData\Local\Temp\cc8IS26P.s 			page 8


 193 005d 03       		.uleb128 0x3
 194 005e 04       		.byte	0x4
 195 005f 05       		.byte	0x5
 196 0060 696E7400 		.ascii	"int\000"
 197 0064 02       		.uleb128 0x2
 198 0065 04       		.byte	0x4
 199 0066 07       		.byte	0x7
 200 0067 59010000 		.4byte	.LASF8
 201 006b 04       		.uleb128 0x4
 202 006c 3D020000 		.4byte	.LASF9
 203 0070 02       		.byte	0x2
 204 0071 B901     		.2byte	0x1b9
 205 0073 2C000000 		.4byte	0x2c
 206 0077 04       		.uleb128 0x4
 207 0078 F3000000 		.4byte	.LASF10
 208 007c 02       		.byte	0x2
 209 007d BA01     		.2byte	0x1ba
 210 007f 3A000000 		.4byte	0x3a
 211 0083 04       		.uleb128 0x4
 212 0084 52010000 		.4byte	.LASF11
 213 0088 02       		.byte	0x2
 214 0089 BB01     		.2byte	0x1bb
 215 008b 48000000 		.4byte	0x48
 216 008f 02       		.uleb128 0x2
 217 0090 04       		.byte	0x4
 218 0091 04       		.byte	0x4
 219 0092 75000000 		.4byte	.LASF12
 220 0096 02       		.uleb128 0x2
 221 0097 08       		.byte	0x8
 222 0098 04       		.byte	0x4
 223 0099 EC000000 		.4byte	.LASF13
 224 009d 02       		.uleb128 0x2
 225 009e 01       		.byte	0x1
 226 009f 08       		.byte	0x8
 227 00a0 A0010000 		.4byte	.LASF14
 228 00a4 04       		.uleb128 0x4
 229 00a5 00000000 		.4byte	.LASF15
 230 00a9 02       		.byte	0x2
 231 00aa 6502     		.2byte	0x265
 232 00ac B0000000 		.4byte	0xb0
 233 00b0 05       		.uleb128 0x5
 234 00b1 83000000 		.4byte	0x83
 235 00b5 06       		.uleb128 0x6
 236 00b6 7D010000 		.4byte	.LASF16
 237 00ba 01       		.byte	0x1
 238 00bb 46       		.byte	0x46
 239 00bc 00000000 		.4byte	.LFB0
 240 00c0 14000000 		.4byte	.LFE0-.LFB0
 241 00c4 01       		.uleb128 0x1
 242 00c5 9C       		.byte	0x9c
 243 00c6 06       		.uleb128 0x6
 244 00c7 4C020000 		.4byte	.LASF17
 245 00cb 01       		.byte	0x1
 246 00cc 5F       		.byte	0x5f
 247 00cd 00000000 		.4byte	.LFB1
 248 00d1 10000000 		.4byte	.LFE1-.LFB1
 249 00d5 01       		.uleb128 0x1
ARM GAS  C:\Users\Elea\AppData\Local\Temp\cc8IS26P.s 			page 9


 250 00d6 9C       		.byte	0x9c
 251 00d7 07       		.uleb128 0x7
 252 00d8 89000000 		.4byte	.LASF27
 253 00dc 01       		.byte	0x1
 254 00dd 86       		.byte	0x86
 255 00de 00000000 		.4byte	.LFB2
 256 00e2 14000000 		.4byte	.LFE2-.LFB2
 257 00e6 01       		.uleb128 0x1
 258 00e7 9C       		.byte	0x9c
 259 00e8 23010000 		.4byte	0x123
 260 00ec 08       		.uleb128 0x8
 261 00ed E1000000 		.4byte	.LASF18
 262 00f1 01       		.byte	0x1
 263 00f2 86       		.byte	0x86
 264 00f3 77000000 		.4byte	0x77
 265 00f7 00000000 		.4byte	.LLST0
 266 00fb 09       		.uleb128 0x9
 267 00fc FA000000 		.4byte	.LASF19
 268 0100 01       		.byte	0x1
 269 0101 86       		.byte	0x86
 270 0102 6B000000 		.4byte	0x6b
 271 0106 01       		.uleb128 0x1
 272 0107 51       		.byte	0x51
 273 0108 0A       		.uleb128 0xa
 274 0109 41000000 		.4byte	.LASF20
 275 010d 01       		.byte	0x1
 276 010e 88       		.byte	0x88
 277 010f 83000000 		.4byte	0x83
 278 0113 01       		.uleb128 0x1
 279 0114 53       		.byte	0x53
 280 0115 0A       		.uleb128 0xa
 281 0116 DA000000 		.4byte	.LASF21
 282 011a 01       		.byte	0x1
 283 011b 89       		.byte	0x89
 284 011c 83000000 		.4byte	0x83
 285 0120 01       		.uleb128 0x1
 286 0121 50       		.byte	0x50
 287 0122 00       		.byte	0
 288 0123 0B       		.uleb128 0xb
 289 0124 08010000 		.4byte	.LASF22
 290 0128 01       		.byte	0x1
 291 0129 B0       		.byte	0xb0
 292 012a 77000000 		.4byte	0x77
 293 012e 00000000 		.4byte	.LFB3
 294 0132 0C000000 		.4byte	.LFE3-.LFB3
 295 0136 01       		.uleb128 0x1
 296 0137 9C       		.byte	0x9c
 297 0138 0B       		.uleb128 0xb
 298 0139 49000000 		.4byte	.LASF23
 299 013d 01       		.byte	0x1
 300 013e C6       		.byte	0xc6
 301 013f 6B000000 		.4byte	0x6b
 302 0143 00000000 		.4byte	.LFB4
 303 0147 04000000 		.4byte	.LFE4-.LFB4
 304 014b 01       		.uleb128 0x1
 305 014c 9C       		.byte	0x9c
 306 014d 00       		.byte	0
ARM GAS  C:\Users\Elea\AppData\Local\Temp\cc8IS26P.s 			page 10


 307              		.section	.debug_abbrev,"",%progbits
 308              	.Ldebug_abbrev0:
 309 0000 01       		.uleb128 0x1
 310 0001 11       		.uleb128 0x11
 311 0002 01       		.byte	0x1
 312 0003 25       		.uleb128 0x25
 313 0004 0E       		.uleb128 0xe
 314 0005 13       		.uleb128 0x13
 315 0006 0B       		.uleb128 0xb
 316 0007 03       		.uleb128 0x3
 317 0008 0E       		.uleb128 0xe
 318 0009 1B       		.uleb128 0x1b
 319 000a 0E       		.uleb128 0xe
 320 000b 55       		.uleb128 0x55
 321 000c 17       		.uleb128 0x17
 322 000d 11       		.uleb128 0x11
 323 000e 01       		.uleb128 0x1
 324 000f 10       		.uleb128 0x10
 325 0010 17       		.uleb128 0x17
 326 0011 00       		.byte	0
 327 0012 00       		.byte	0
 328 0013 02       		.uleb128 0x2
 329 0014 24       		.uleb128 0x24
 330 0015 00       		.byte	0
 331 0016 0B       		.uleb128 0xb
 332 0017 0B       		.uleb128 0xb
 333 0018 3E       		.uleb128 0x3e
 334 0019 0B       		.uleb128 0xb
 335 001a 03       		.uleb128 0x3
 336 001b 0E       		.uleb128 0xe
 337 001c 00       		.byte	0
 338 001d 00       		.byte	0
 339 001e 03       		.uleb128 0x3
 340 001f 24       		.uleb128 0x24
 341 0020 00       		.byte	0
 342 0021 0B       		.uleb128 0xb
 343 0022 0B       		.uleb128 0xb
 344 0023 3E       		.uleb128 0x3e
 345 0024 0B       		.uleb128 0xb
 346 0025 03       		.uleb128 0x3
 347 0026 08       		.uleb128 0x8
 348 0027 00       		.byte	0
 349 0028 00       		.byte	0
 350 0029 04       		.uleb128 0x4
 351 002a 16       		.uleb128 0x16
 352 002b 00       		.byte	0
 353 002c 03       		.uleb128 0x3
 354 002d 0E       		.uleb128 0xe
 355 002e 3A       		.uleb128 0x3a
 356 002f 0B       		.uleb128 0xb
 357 0030 3B       		.uleb128 0x3b
 358 0031 05       		.uleb128 0x5
 359 0032 49       		.uleb128 0x49
 360 0033 13       		.uleb128 0x13
 361 0034 00       		.byte	0
 362 0035 00       		.byte	0
 363 0036 05       		.uleb128 0x5
ARM GAS  C:\Users\Elea\AppData\Local\Temp\cc8IS26P.s 			page 11


 364 0037 35       		.uleb128 0x35
 365 0038 00       		.byte	0
 366 0039 49       		.uleb128 0x49
 367 003a 13       		.uleb128 0x13
 368 003b 00       		.byte	0
 369 003c 00       		.byte	0
 370 003d 06       		.uleb128 0x6
 371 003e 2E       		.uleb128 0x2e
 372 003f 00       		.byte	0
 373 0040 3F       		.uleb128 0x3f
 374 0041 19       		.uleb128 0x19
 375 0042 03       		.uleb128 0x3
 376 0043 0E       		.uleb128 0xe
 377 0044 3A       		.uleb128 0x3a
 378 0045 0B       		.uleb128 0xb
 379 0046 3B       		.uleb128 0x3b
 380 0047 0B       		.uleb128 0xb
 381 0048 27       		.uleb128 0x27
 382 0049 19       		.uleb128 0x19
 383 004a 11       		.uleb128 0x11
 384 004b 01       		.uleb128 0x1
 385 004c 12       		.uleb128 0x12
 386 004d 06       		.uleb128 0x6
 387 004e 40       		.uleb128 0x40
 388 004f 18       		.uleb128 0x18
 389 0050 9742     		.uleb128 0x2117
 390 0052 19       		.uleb128 0x19
 391 0053 00       		.byte	0
 392 0054 00       		.byte	0
 393 0055 07       		.uleb128 0x7
 394 0056 2E       		.uleb128 0x2e
 395 0057 01       		.byte	0x1
 396 0058 3F       		.uleb128 0x3f
 397 0059 19       		.uleb128 0x19
 398 005a 03       		.uleb128 0x3
 399 005b 0E       		.uleb128 0xe
 400 005c 3A       		.uleb128 0x3a
 401 005d 0B       		.uleb128 0xb
 402 005e 3B       		.uleb128 0x3b
 403 005f 0B       		.uleb128 0xb
 404 0060 27       		.uleb128 0x27
 405 0061 19       		.uleb128 0x19
 406 0062 11       		.uleb128 0x11
 407 0063 01       		.uleb128 0x1
 408 0064 12       		.uleb128 0x12
 409 0065 06       		.uleb128 0x6
 410 0066 40       		.uleb128 0x40
 411 0067 18       		.uleb128 0x18
 412 0068 9742     		.uleb128 0x2117
 413 006a 19       		.uleb128 0x19
 414 006b 01       		.uleb128 0x1
 415 006c 13       		.uleb128 0x13
 416 006d 00       		.byte	0
 417 006e 00       		.byte	0
 418 006f 08       		.uleb128 0x8
 419 0070 05       		.uleb128 0x5
 420 0071 00       		.byte	0
ARM GAS  C:\Users\Elea\AppData\Local\Temp\cc8IS26P.s 			page 12


 421 0072 03       		.uleb128 0x3
 422 0073 0E       		.uleb128 0xe
 423 0074 3A       		.uleb128 0x3a
 424 0075 0B       		.uleb128 0xb
 425 0076 3B       		.uleb128 0x3b
 426 0077 0B       		.uleb128 0xb
 427 0078 49       		.uleb128 0x49
 428 0079 13       		.uleb128 0x13
 429 007a 02       		.uleb128 0x2
 430 007b 17       		.uleb128 0x17
 431 007c 00       		.byte	0
 432 007d 00       		.byte	0
 433 007e 09       		.uleb128 0x9
 434 007f 05       		.uleb128 0x5
 435 0080 00       		.byte	0
 436 0081 03       		.uleb128 0x3
 437 0082 0E       		.uleb128 0xe
 438 0083 3A       		.uleb128 0x3a
 439 0084 0B       		.uleb128 0xb
 440 0085 3B       		.uleb128 0x3b
 441 0086 0B       		.uleb128 0xb
 442 0087 49       		.uleb128 0x49
 443 0088 13       		.uleb128 0x13
 444 0089 02       		.uleb128 0x2
 445 008a 18       		.uleb128 0x18
 446 008b 00       		.byte	0
 447 008c 00       		.byte	0
 448 008d 0A       		.uleb128 0xa
 449 008e 34       		.uleb128 0x34
 450 008f 00       		.byte	0
 451 0090 03       		.uleb128 0x3
 452 0091 0E       		.uleb128 0xe
 453 0092 3A       		.uleb128 0x3a
 454 0093 0B       		.uleb128 0xb
 455 0094 3B       		.uleb128 0x3b
 456 0095 0B       		.uleb128 0xb
 457 0096 49       		.uleb128 0x49
 458 0097 13       		.uleb128 0x13
 459 0098 02       		.uleb128 0x2
 460 0099 18       		.uleb128 0x18
 461 009a 00       		.byte	0
 462 009b 00       		.byte	0
 463 009c 0B       		.uleb128 0xb
 464 009d 2E       		.uleb128 0x2e
 465 009e 00       		.byte	0
 466 009f 3F       		.uleb128 0x3f
 467 00a0 19       		.uleb128 0x19
 468 00a1 03       		.uleb128 0x3
 469 00a2 0E       		.uleb128 0xe
 470 00a3 3A       		.uleb128 0x3a
 471 00a4 0B       		.uleb128 0xb
 472 00a5 3B       		.uleb128 0x3b
 473 00a6 0B       		.uleb128 0xb
 474 00a7 27       		.uleb128 0x27
 475 00a8 19       		.uleb128 0x19
 476 00a9 49       		.uleb128 0x49
 477 00aa 13       		.uleb128 0x13
ARM GAS  C:\Users\Elea\AppData\Local\Temp\cc8IS26P.s 			page 13


 478 00ab 11       		.uleb128 0x11
 479 00ac 01       		.uleb128 0x1
 480 00ad 12       		.uleb128 0x12
 481 00ae 06       		.uleb128 0x6
 482 00af 40       		.uleb128 0x40
 483 00b0 18       		.uleb128 0x18
 484 00b1 9742     		.uleb128 0x2117
 485 00b3 19       		.uleb128 0x19
 486 00b4 00       		.byte	0
 487 00b5 00       		.byte	0
 488 00b6 00       		.byte	0
 489              		.section	.debug_loc,"",%progbits
 490              	.Ldebug_loc0:
 491              	.LLST0:
 492 0000 00000000 		.4byte	.LVL0
 493 0004 0A000000 		.4byte	.LVL2
 494 0008 0100     		.2byte	0x1
 495 000a 50       		.byte	0x50
 496 000b 0A000000 		.4byte	.LVL2
 497 000f 14000000 		.4byte	.LFE2
 498 0013 0400     		.2byte	0x4
 499 0015 F3       		.byte	0xf3
 500 0016 01       		.uleb128 0x1
 501 0017 50       		.byte	0x50
 502 0018 9F       		.byte	0x9f
 503 0019 00000000 		.4byte	0
 504 001d 00000000 		.4byte	0
 505              		.section	.debug_aranges,"",%progbits
 506 0000 3C000000 		.4byte	0x3c
 507 0004 0200     		.2byte	0x2
 508 0006 00000000 		.4byte	.Ldebug_info0
 509 000a 04       		.byte	0x4
 510 000b 00       		.byte	0
 511 000c 0000     		.2byte	0
 512 000e 0000     		.2byte	0
 513 0010 00000000 		.4byte	.LFB0
 514 0014 14000000 		.4byte	.LFE0-.LFB0
 515 0018 00000000 		.4byte	.LFB1
 516 001c 10000000 		.4byte	.LFE1-.LFB1
 517 0020 00000000 		.4byte	.LFB2
 518 0024 14000000 		.4byte	.LFE2-.LFB2
 519 0028 00000000 		.4byte	.LFB3
 520 002c 0C000000 		.4byte	.LFE3-.LFB3
 521 0030 00000000 		.4byte	.LFB4
 522 0034 04000000 		.4byte	.LFE4-.LFB4
 523 0038 00000000 		.4byte	0
 524 003c 00000000 		.4byte	0
 525              		.section	.debug_ranges,"",%progbits
 526              	.Ldebug_ranges0:
 527 0000 00000000 		.4byte	.LFB0
 528 0004 14000000 		.4byte	.LFE0
 529 0008 00000000 		.4byte	.LFB1
 530 000c 10000000 		.4byte	.LFE1
 531 0010 00000000 		.4byte	.LFB2
 532 0014 14000000 		.4byte	.LFE2
 533 0018 00000000 		.4byte	.LFB3
 534 001c 0C000000 		.4byte	.LFE3
ARM GAS  C:\Users\Elea\AppData\Local\Temp\cc8IS26P.s 			page 14


 535 0020 00000000 		.4byte	.LFB4
 536 0024 04000000 		.4byte	.LFE4
 537 0028 00000000 		.4byte	0
 538 002c 00000000 		.4byte	0
 539              		.section	.debug_line,"",%progbits
 540              	.Ldebug_line0:
 541 0000 B0000000 		.section	.debug_str,"MS",%progbits,1
 541      02004B00 
 541      00000201 
 541      FB0E0D00 
 541      01010101 
 542              	.LASF15:
 543 0000 72656733 		.ascii	"reg32\000"
 543      3200
 544              	.LASF26:
 545 0006 433A5C55 		.ascii	"C:\\Users\\Elea\\Desktop\\DESARROLLO\\EleaTouch\\El"
 545      73657273 
 545      5C456C65 
 545      615C4465 
 545      736B746F 
 546 0033 6561546F 		.ascii	"eaTouch.cydsn\000"
 546      7563682E 
 546      63796473 
 546      6E00
 547              	.LASF20:
 548 0041 6D61736B 		.ascii	"maskVal\000"
 548      56616C00 
 549              	.LASF23:
 550 0049 456E6F55 		.ascii	"EnoUART_SCBCLK_GetFractionalDividerRegister\000"
 550      4152545F 
 550      53434243 
 550      4C4B5F47 
 550      65744672 
 551              	.LASF12:
 552 0075 666C6F61 		.ascii	"float\000"
 552      7400
 553              	.LASF1:
 554 007b 756E7369 		.ascii	"unsigned char\000"
 554      676E6564 
 554      20636861 
 554      7200
 555              	.LASF27:
 556 0089 456E6F55 		.ascii	"EnoUART_SCBCLK_SetFractionalDividerRegister\000"
 556      4152545F 
 556      53434243 
 556      4C4B5F53 
 556      65744672 
 557              	.LASF5:
 558 00b5 6C6F6E67 		.ascii	"long unsigned int\000"
 558      20756E73 
 558      69676E65 
 558      6420696E 
 558      7400
 559              	.LASF3:
 560 00c7 73686F72 		.ascii	"short unsigned int\000"
 560      7420756E 
 560      7369676E 
ARM GAS  C:\Users\Elea\AppData\Local\Temp\cc8IS26P.s 			page 15


 560      65642069 
 560      6E7400
 561              	.LASF21:
 562 00da 72656756 		.ascii	"regVal\000"
 562      616C00
 563              	.LASF18:
 564 00e1 636C6B44 		.ascii	"clkDivider\000"
 564      69766964 
 564      657200
 565              	.LASF13:
 566 00ec 646F7562 		.ascii	"double\000"
 566      6C6500
 567              	.LASF10:
 568 00f3 75696E74 		.ascii	"uint16\000"
 568      313600
 569              	.LASF19:
 570 00fa 636C6B46 		.ascii	"clkFractional\000"
 570      72616374 
 570      696F6E61 
 570      6C00
 571              	.LASF22:
 572 0108 456E6F55 		.ascii	"EnoUART_SCBCLK_GetDividerRegister\000"
 572      4152545F 
 572      53434243 
 572      4C4B5F47 
 572      65744469 
 573              	.LASF25:
 574 012a 47656E65 		.ascii	"Generated_Source\\PSoC4\\EnoUART_SCBCLK.c\000"
 574      72617465 
 574      645F536F 
 574      75726365 
 574      5C50536F 
 575              	.LASF11:
 576 0152 75696E74 		.ascii	"uint32\000"
 576      333200
 577              	.LASF8:
 578 0159 756E7369 		.ascii	"unsigned int\000"
 578      676E6564 
 578      20696E74 
 578      00
 579              	.LASF7:
 580 0166 6C6F6E67 		.ascii	"long long unsigned int\000"
 580      206C6F6E 
 580      6720756E 
 580      7369676E 
 580      65642069 
 581              	.LASF16:
 582 017d 456E6F55 		.ascii	"EnoUART_SCBCLK_Start\000"
 582      4152545F 
 582      53434243 
 582      4C4B5F53 
 582      74617274 
 583              	.LASF6:
 584 0192 6C6F6E67 		.ascii	"long long int\000"
 584      206C6F6E 
 584      6720696E 
 584      7400
ARM GAS  C:\Users\Elea\AppData\Local\Temp\cc8IS26P.s 			page 16


 585              	.LASF14:
 586 01a0 63686172 		.ascii	"char\000"
 586      00
 587              	.LASF24:
 588 01a5 474E5520 		.ascii	"GNU C 4.9.3 20150303 (release) [ARM/embedded-4_9-br"
 588      4320342E 
 588      392E3320 
 588      32303135 
 588      30333033 
 589 01d8 616E6368 		.ascii	"anch revision 221220] -mcpu=cortex-m0 -mthumb -g -O"
 589      20726576 
 589      6973696F 
 589      6E203232 
 589      31323230 
 590 020b 67202D66 		.ascii	"g -ffunction-sections -ffat-lto-objects\000"
 590      66756E63 
 590      74696F6E 
 590      2D736563 
 590      74696F6E 
 591              	.LASF2:
 592 0233 73686F72 		.ascii	"short int\000"
 592      7420696E 
 592      7400
 593              	.LASF9:
 594 023d 75696E74 		.ascii	"uint8\000"
 594      3800
 595              	.LASF4:
 596 0243 6C6F6E67 		.ascii	"long int\000"
 596      20696E74 
 596      00
 597              	.LASF17:
 598 024c 456E6F55 		.ascii	"EnoUART_SCBCLK_Stop\000"
 598      4152545F 
 598      53434243 
 598      4C4B5F53 
 598      746F7000 
 599              	.LASF0:
 600 0260 7369676E 		.ascii	"signed char\000"
 600      65642063 
 600      68617200 
 601              		.ident	"GCC: (GNU Tools for ARM Embedded Processors) 4.9.3 20150303 (release) [ARM/embedded-4_9-br
