ARM GAS  C:\Users\Elea\AppData\Local\Temp\ccpYzos7.s 			page 1


   1              		.cpu cortex-m0
   2              		.fpu softvfp
   3              		.eabi_attribute 20, 1
   4              		.eabi_attribute 21, 1
   5              		.eabi_attribute 23, 3
   6              		.eabi_attribute 24, 1
   7              		.eabi_attribute 25, 1
   8              		.eabi_attribute 26, 1
   9              		.eabi_attribute 30, 1
  10              		.eabi_attribute 34, 0
  11              		.eabi_attribute 18, 4
  12              		.code	16
  13              		.file	"IsrExternalINPUT.c"
  14              		.text
  15              	.Ltext0:
  16              		.cfi_sections	.debug_frame
  17              		.section	.text.IsrExternalINPUT_Interrupt,"ax",%progbits
  18              		.align	2
  19              		.global	IsrExternalINPUT_Interrupt
  20              		.code	16
  21              		.thumb_func
  22              		.type	IsrExternalINPUT_Interrupt, %function
  23              	IsrExternalINPUT_Interrupt:
  24              	.LFB3:
  25              		.file 1 "Generated_Source\\PSoC4\\IsrExternalINPUT.c"
   1:Generated_Source\PSoC4/IsrExternalINPUT.c **** /*******************************************************************************
   2:Generated_Source\PSoC4/IsrExternalINPUT.c **** * File Name: IsrExternalINPUT.c  
   3:Generated_Source\PSoC4/IsrExternalINPUT.c **** * Version 1.70
   4:Generated_Source\PSoC4/IsrExternalINPUT.c **** *
   5:Generated_Source\PSoC4/IsrExternalINPUT.c **** *  Description:
   6:Generated_Source\PSoC4/IsrExternalINPUT.c **** *   API for controlling the state of an interrupt.
   7:Generated_Source\PSoC4/IsrExternalINPUT.c **** *
   8:Generated_Source\PSoC4/IsrExternalINPUT.c **** *
   9:Generated_Source\PSoC4/IsrExternalINPUT.c **** *  Note:
  10:Generated_Source\PSoC4/IsrExternalINPUT.c **** *
  11:Generated_Source\PSoC4/IsrExternalINPUT.c **** ********************************************************************************
  12:Generated_Source\PSoC4/IsrExternalINPUT.c **** * Copyright 2008-2015, Cypress Semiconductor Corporation.  All rights reserved.
  13:Generated_Source\PSoC4/IsrExternalINPUT.c **** * You may use this file only in accordance with the license, terms, conditions, 
  14:Generated_Source\PSoC4/IsrExternalINPUT.c **** * disclaimers, and limitations in the end user license agreement accompanying 
  15:Generated_Source\PSoC4/IsrExternalINPUT.c **** * the software package with which this file was provided.
  16:Generated_Source\PSoC4/IsrExternalINPUT.c **** *******************************************************************************/
  17:Generated_Source\PSoC4/IsrExternalINPUT.c **** 
  18:Generated_Source\PSoC4/IsrExternalINPUT.c **** 
  19:Generated_Source\PSoC4/IsrExternalINPUT.c **** #include <cydevice_trm.h>
  20:Generated_Source\PSoC4/IsrExternalINPUT.c **** #include <CyLib.h>
  21:Generated_Source\PSoC4/IsrExternalINPUT.c **** #include <IsrExternalINPUT.h>
  22:Generated_Source\PSoC4/IsrExternalINPUT.c **** #include "cyapicallbacks.h"
  23:Generated_Source\PSoC4/IsrExternalINPUT.c **** 
  24:Generated_Source\PSoC4/IsrExternalINPUT.c **** #if !defined(IsrExternalINPUT__REMOVED) /* Check for removal by optimization */
  25:Generated_Source\PSoC4/IsrExternalINPUT.c **** 
  26:Generated_Source\PSoC4/IsrExternalINPUT.c **** /*******************************************************************************
  27:Generated_Source\PSoC4/IsrExternalINPUT.c **** *  Place your includes, defines and code here 
  28:Generated_Source\PSoC4/IsrExternalINPUT.c **** ********************************************************************************/
  29:Generated_Source\PSoC4/IsrExternalINPUT.c **** /* `#START IsrExternalINPUT_intc` */
  30:Generated_Source\PSoC4/IsrExternalINPUT.c **** 
  31:Generated_Source\PSoC4/IsrExternalINPUT.c **** /* `#END` */
  32:Generated_Source\PSoC4/IsrExternalINPUT.c **** 
ARM GAS  C:\Users\Elea\AppData\Local\Temp\ccpYzos7.s 			page 2


  33:Generated_Source\PSoC4/IsrExternalINPUT.c **** extern cyisraddress CyRamVectors[CYINT_IRQ_BASE + CY_NUM_INTERRUPTS];
  34:Generated_Source\PSoC4/IsrExternalINPUT.c **** 
  35:Generated_Source\PSoC4/IsrExternalINPUT.c **** /* Declared in startup, used to set unused interrupts to. */
  36:Generated_Source\PSoC4/IsrExternalINPUT.c **** CY_ISR_PROTO(IntDefaultHandler);
  37:Generated_Source\PSoC4/IsrExternalINPUT.c **** 
  38:Generated_Source\PSoC4/IsrExternalINPUT.c **** 
  39:Generated_Source\PSoC4/IsrExternalINPUT.c **** /*******************************************************************************
  40:Generated_Source\PSoC4/IsrExternalINPUT.c **** * Function Name: IsrExternalINPUT_Start
  41:Generated_Source\PSoC4/IsrExternalINPUT.c **** ********************************************************************************
  42:Generated_Source\PSoC4/IsrExternalINPUT.c **** *
  43:Generated_Source\PSoC4/IsrExternalINPUT.c **** * Summary:
  44:Generated_Source\PSoC4/IsrExternalINPUT.c **** *  Set up the interrupt and enable it. This function disables the interrupt, 
  45:Generated_Source\PSoC4/IsrExternalINPUT.c **** *  sets the default interrupt vector, sets the priority from the value in the
  46:Generated_Source\PSoC4/IsrExternalINPUT.c **** *  Design Wide Resources Interrupt Editor, then enables the interrupt to the 
  47:Generated_Source\PSoC4/IsrExternalINPUT.c **** *  interrupt controller.
  48:Generated_Source\PSoC4/IsrExternalINPUT.c **** *
  49:Generated_Source\PSoC4/IsrExternalINPUT.c **** * Parameters:  
  50:Generated_Source\PSoC4/IsrExternalINPUT.c **** *   None
  51:Generated_Source\PSoC4/IsrExternalINPUT.c **** *
  52:Generated_Source\PSoC4/IsrExternalINPUT.c **** * Return:
  53:Generated_Source\PSoC4/IsrExternalINPUT.c **** *   None
  54:Generated_Source\PSoC4/IsrExternalINPUT.c **** *
  55:Generated_Source\PSoC4/IsrExternalINPUT.c **** *******************************************************************************/
  56:Generated_Source\PSoC4/IsrExternalINPUT.c **** void IsrExternalINPUT_Start(void)
  57:Generated_Source\PSoC4/IsrExternalINPUT.c **** {
  58:Generated_Source\PSoC4/IsrExternalINPUT.c ****     /* For all we know the interrupt is active. */
  59:Generated_Source\PSoC4/IsrExternalINPUT.c ****     IsrExternalINPUT_Disable();
  60:Generated_Source\PSoC4/IsrExternalINPUT.c **** 
  61:Generated_Source\PSoC4/IsrExternalINPUT.c ****     /* Set the ISR to point to the IsrExternalINPUT Interrupt. */
  62:Generated_Source\PSoC4/IsrExternalINPUT.c ****     IsrExternalINPUT_SetVector(&IsrExternalINPUT_Interrupt);
  63:Generated_Source\PSoC4/IsrExternalINPUT.c **** 
  64:Generated_Source\PSoC4/IsrExternalINPUT.c ****     /* Set the priority. */
  65:Generated_Source\PSoC4/IsrExternalINPUT.c ****     IsrExternalINPUT_SetPriority((uint8)IsrExternalINPUT_INTC_PRIOR_NUMBER);
  66:Generated_Source\PSoC4/IsrExternalINPUT.c **** 
  67:Generated_Source\PSoC4/IsrExternalINPUT.c ****     /* Enable it. */
  68:Generated_Source\PSoC4/IsrExternalINPUT.c ****     IsrExternalINPUT_Enable();
  69:Generated_Source\PSoC4/IsrExternalINPUT.c **** }
  70:Generated_Source\PSoC4/IsrExternalINPUT.c **** 
  71:Generated_Source\PSoC4/IsrExternalINPUT.c **** 
  72:Generated_Source\PSoC4/IsrExternalINPUT.c **** /*******************************************************************************
  73:Generated_Source\PSoC4/IsrExternalINPUT.c **** * Function Name: IsrExternalINPUT_StartEx
  74:Generated_Source\PSoC4/IsrExternalINPUT.c **** ********************************************************************************
  75:Generated_Source\PSoC4/IsrExternalINPUT.c **** *
  76:Generated_Source\PSoC4/IsrExternalINPUT.c **** * Summary:
  77:Generated_Source\PSoC4/IsrExternalINPUT.c **** *  Sets up the interrupt and enables it. This function disables the interrupt,
  78:Generated_Source\PSoC4/IsrExternalINPUT.c **** *  sets the interrupt vector based on the address passed in, sets the priority 
  79:Generated_Source\PSoC4/IsrExternalINPUT.c **** *  from the value in the Design Wide Resources Interrupt Editor, then enables 
  80:Generated_Source\PSoC4/IsrExternalINPUT.c **** *  the interrupt to the interrupt controller.
  81:Generated_Source\PSoC4/IsrExternalINPUT.c **** *  
  82:Generated_Source\PSoC4/IsrExternalINPUT.c **** *  When defining ISR functions, the CY_ISR and CY_ISR_PROTO macros should be 
  83:Generated_Source\PSoC4/IsrExternalINPUT.c **** *  used to provide consistent definition across compilers:
  84:Generated_Source\PSoC4/IsrExternalINPUT.c **** *  
  85:Generated_Source\PSoC4/IsrExternalINPUT.c **** *  Function definition example:
  86:Generated_Source\PSoC4/IsrExternalINPUT.c **** *   CY_ISR(MyISR)
  87:Generated_Source\PSoC4/IsrExternalINPUT.c **** *   {
  88:Generated_Source\PSoC4/IsrExternalINPUT.c **** *   }
  89:Generated_Source\PSoC4/IsrExternalINPUT.c **** *   Function prototype example:
ARM GAS  C:\Users\Elea\AppData\Local\Temp\ccpYzos7.s 			page 3


  90:Generated_Source\PSoC4/IsrExternalINPUT.c **** *   CY_ISR_PROTO(MyISR);
  91:Generated_Source\PSoC4/IsrExternalINPUT.c **** *
  92:Generated_Source\PSoC4/IsrExternalINPUT.c **** * Parameters:  
  93:Generated_Source\PSoC4/IsrExternalINPUT.c **** *   address: Address of the ISR to set in the interrupt vector table.
  94:Generated_Source\PSoC4/IsrExternalINPUT.c **** *
  95:Generated_Source\PSoC4/IsrExternalINPUT.c **** * Return:
  96:Generated_Source\PSoC4/IsrExternalINPUT.c **** *   None
  97:Generated_Source\PSoC4/IsrExternalINPUT.c **** *
  98:Generated_Source\PSoC4/IsrExternalINPUT.c **** *******************************************************************************/
  99:Generated_Source\PSoC4/IsrExternalINPUT.c **** void IsrExternalINPUT_StartEx(cyisraddress address)
 100:Generated_Source\PSoC4/IsrExternalINPUT.c **** {
 101:Generated_Source\PSoC4/IsrExternalINPUT.c ****     /* For all we know the interrupt is active. */
 102:Generated_Source\PSoC4/IsrExternalINPUT.c ****     IsrExternalINPUT_Disable();
 103:Generated_Source\PSoC4/IsrExternalINPUT.c **** 
 104:Generated_Source\PSoC4/IsrExternalINPUT.c ****     /* Set the ISR to point to the IsrExternalINPUT Interrupt. */
 105:Generated_Source\PSoC4/IsrExternalINPUT.c ****     IsrExternalINPUT_SetVector(address);
 106:Generated_Source\PSoC4/IsrExternalINPUT.c **** 
 107:Generated_Source\PSoC4/IsrExternalINPUT.c ****     /* Set the priority. */
 108:Generated_Source\PSoC4/IsrExternalINPUT.c ****     IsrExternalINPUT_SetPriority((uint8)IsrExternalINPUT_INTC_PRIOR_NUMBER);
 109:Generated_Source\PSoC4/IsrExternalINPUT.c **** 
 110:Generated_Source\PSoC4/IsrExternalINPUT.c ****     /* Enable it. */
 111:Generated_Source\PSoC4/IsrExternalINPUT.c ****     IsrExternalINPUT_Enable();
 112:Generated_Source\PSoC4/IsrExternalINPUT.c **** }
 113:Generated_Source\PSoC4/IsrExternalINPUT.c **** 
 114:Generated_Source\PSoC4/IsrExternalINPUT.c **** 
 115:Generated_Source\PSoC4/IsrExternalINPUT.c **** /*******************************************************************************
 116:Generated_Source\PSoC4/IsrExternalINPUT.c **** * Function Name: IsrExternalINPUT_Stop
 117:Generated_Source\PSoC4/IsrExternalINPUT.c **** ********************************************************************************
 118:Generated_Source\PSoC4/IsrExternalINPUT.c **** *
 119:Generated_Source\PSoC4/IsrExternalINPUT.c **** * Summary:
 120:Generated_Source\PSoC4/IsrExternalINPUT.c **** *   Disables and removes the interrupt.
 121:Generated_Source\PSoC4/IsrExternalINPUT.c **** *
 122:Generated_Source\PSoC4/IsrExternalINPUT.c **** * Parameters:  
 123:Generated_Source\PSoC4/IsrExternalINPUT.c **** *   None
 124:Generated_Source\PSoC4/IsrExternalINPUT.c **** *
 125:Generated_Source\PSoC4/IsrExternalINPUT.c **** * Return:
 126:Generated_Source\PSoC4/IsrExternalINPUT.c **** *   None
 127:Generated_Source\PSoC4/IsrExternalINPUT.c **** *
 128:Generated_Source\PSoC4/IsrExternalINPUT.c **** *******************************************************************************/
 129:Generated_Source\PSoC4/IsrExternalINPUT.c **** void IsrExternalINPUT_Stop(void)
 130:Generated_Source\PSoC4/IsrExternalINPUT.c **** {
 131:Generated_Source\PSoC4/IsrExternalINPUT.c ****     /* Disable this interrupt. */
 132:Generated_Source\PSoC4/IsrExternalINPUT.c ****     IsrExternalINPUT_Disable();
 133:Generated_Source\PSoC4/IsrExternalINPUT.c **** 
 134:Generated_Source\PSoC4/IsrExternalINPUT.c ****     /* Set the ISR to point to the passive one. */
 135:Generated_Source\PSoC4/IsrExternalINPUT.c ****     IsrExternalINPUT_SetVector(&IntDefaultHandler);
 136:Generated_Source\PSoC4/IsrExternalINPUT.c **** }
 137:Generated_Source\PSoC4/IsrExternalINPUT.c **** 
 138:Generated_Source\PSoC4/IsrExternalINPUT.c **** 
 139:Generated_Source\PSoC4/IsrExternalINPUT.c **** /*******************************************************************************
 140:Generated_Source\PSoC4/IsrExternalINPUT.c **** * Function Name: IsrExternalINPUT_Interrupt
 141:Generated_Source\PSoC4/IsrExternalINPUT.c **** ********************************************************************************
 142:Generated_Source\PSoC4/IsrExternalINPUT.c **** *
 143:Generated_Source\PSoC4/IsrExternalINPUT.c **** * Summary:
 144:Generated_Source\PSoC4/IsrExternalINPUT.c **** *   The default Interrupt Service Routine for IsrExternalINPUT.
 145:Generated_Source\PSoC4/IsrExternalINPUT.c **** *
 146:Generated_Source\PSoC4/IsrExternalINPUT.c **** *   Add custom code between the START and END comments to keep the next version
ARM GAS  C:\Users\Elea\AppData\Local\Temp\ccpYzos7.s 			page 4


 147:Generated_Source\PSoC4/IsrExternalINPUT.c **** *   of this file from over-writing your code.
 148:Generated_Source\PSoC4/IsrExternalINPUT.c **** *
 149:Generated_Source\PSoC4/IsrExternalINPUT.c **** *   Note You may use either the default ISR by using this API, or you may define
 150:Generated_Source\PSoC4/IsrExternalINPUT.c **** *   your own separate ISR through ISR_StartEx().
 151:Generated_Source\PSoC4/IsrExternalINPUT.c **** *
 152:Generated_Source\PSoC4/IsrExternalINPUT.c **** * Parameters:  
 153:Generated_Source\PSoC4/IsrExternalINPUT.c **** *   None
 154:Generated_Source\PSoC4/IsrExternalINPUT.c **** *
 155:Generated_Source\PSoC4/IsrExternalINPUT.c **** * Return:
 156:Generated_Source\PSoC4/IsrExternalINPUT.c **** *   None
 157:Generated_Source\PSoC4/IsrExternalINPUT.c **** *
 158:Generated_Source\PSoC4/IsrExternalINPUT.c **** *******************************************************************************/
 159:Generated_Source\PSoC4/IsrExternalINPUT.c **** CY_ISR(IsrExternalINPUT_Interrupt)
 160:Generated_Source\PSoC4/IsrExternalINPUT.c **** {
  26              		.loc 1 160 0
  27              		.cfi_startproc
 161:Generated_Source\PSoC4/IsrExternalINPUT.c ****     #ifdef IsrExternalINPUT_INTERRUPT_INTERRUPT_CALLBACK
 162:Generated_Source\PSoC4/IsrExternalINPUT.c ****         IsrExternalINPUT_Interrupt_InterruptCallback();
 163:Generated_Source\PSoC4/IsrExternalINPUT.c ****     #endif /* IsrExternalINPUT_INTERRUPT_INTERRUPT_CALLBACK */ 
 164:Generated_Source\PSoC4/IsrExternalINPUT.c **** 
 165:Generated_Source\PSoC4/IsrExternalINPUT.c ****     /*  Place your Interrupt code here. */
 166:Generated_Source\PSoC4/IsrExternalINPUT.c ****     /* `#START IsrExternalINPUT_Interrupt` */
 167:Generated_Source\PSoC4/IsrExternalINPUT.c **** 
 168:Generated_Source\PSoC4/IsrExternalINPUT.c ****     /* `#END` */
 169:Generated_Source\PSoC4/IsrExternalINPUT.c **** }
  28              		.loc 1 169 0
  29              		@ sp needed
  30 0000 7047     		bx	lr
  31              		.cfi_endproc
  32              	.LFE3:
  33              		.size	IsrExternalINPUT_Interrupt, .-IsrExternalINPUT_Interrupt
  34 0002 C046     		.section	.text.IsrExternalINPUT_SetVector,"ax",%progbits
  35              		.align	2
  36              		.global	IsrExternalINPUT_SetVector
  37              		.code	16
  38              		.thumb_func
  39              		.type	IsrExternalINPUT_SetVector, %function
  40              	IsrExternalINPUT_SetVector:
  41              	.LFB4:
 170:Generated_Source\PSoC4/IsrExternalINPUT.c **** 
 171:Generated_Source\PSoC4/IsrExternalINPUT.c **** 
 172:Generated_Source\PSoC4/IsrExternalINPUT.c **** /*******************************************************************************
 173:Generated_Source\PSoC4/IsrExternalINPUT.c **** * Function Name: IsrExternalINPUT_SetVector
 174:Generated_Source\PSoC4/IsrExternalINPUT.c **** ********************************************************************************
 175:Generated_Source\PSoC4/IsrExternalINPUT.c **** *
 176:Generated_Source\PSoC4/IsrExternalINPUT.c **** * Summary:
 177:Generated_Source\PSoC4/IsrExternalINPUT.c **** *   Change the ISR vector for the Interrupt. Note calling IsrExternalINPUT_Start
 178:Generated_Source\PSoC4/IsrExternalINPUT.c **** *   will override any effect this method would have had. To set the vector 
 179:Generated_Source\PSoC4/IsrExternalINPUT.c **** *   before the component has been started use IsrExternalINPUT_StartEx instead.
 180:Generated_Source\PSoC4/IsrExternalINPUT.c **** * 
 181:Generated_Source\PSoC4/IsrExternalINPUT.c **** *   When defining ISR functions, the CY_ISR and CY_ISR_PROTO macros should be 
 182:Generated_Source\PSoC4/IsrExternalINPUT.c **** *   used to provide consistent definition across compilers:
 183:Generated_Source\PSoC4/IsrExternalINPUT.c **** *
 184:Generated_Source\PSoC4/IsrExternalINPUT.c **** *   Function definition example:
 185:Generated_Source\PSoC4/IsrExternalINPUT.c **** *   CY_ISR(MyISR)
 186:Generated_Source\PSoC4/IsrExternalINPUT.c **** *   {
 187:Generated_Source\PSoC4/IsrExternalINPUT.c **** *   }
ARM GAS  C:\Users\Elea\AppData\Local\Temp\ccpYzos7.s 			page 5


 188:Generated_Source\PSoC4/IsrExternalINPUT.c **** *
 189:Generated_Source\PSoC4/IsrExternalINPUT.c **** *   Function prototype example:
 190:Generated_Source\PSoC4/IsrExternalINPUT.c **** *     CY_ISR_PROTO(MyISR);
 191:Generated_Source\PSoC4/IsrExternalINPUT.c **** *
 192:Generated_Source\PSoC4/IsrExternalINPUT.c **** * Parameters:
 193:Generated_Source\PSoC4/IsrExternalINPUT.c **** *   address: Address of the ISR to set in the interrupt vector table.
 194:Generated_Source\PSoC4/IsrExternalINPUT.c **** *
 195:Generated_Source\PSoC4/IsrExternalINPUT.c **** * Return:
 196:Generated_Source\PSoC4/IsrExternalINPUT.c **** *   None
 197:Generated_Source\PSoC4/IsrExternalINPUT.c **** *
 198:Generated_Source\PSoC4/IsrExternalINPUT.c **** *******************************************************************************/
 199:Generated_Source\PSoC4/IsrExternalINPUT.c **** void IsrExternalINPUT_SetVector(cyisraddress address)
 200:Generated_Source\PSoC4/IsrExternalINPUT.c **** {
  42              		.loc 1 200 0
  43              		.cfi_startproc
  44              	.LVL0:
 201:Generated_Source\PSoC4/IsrExternalINPUT.c ****     CyRamVectors[CYINT_IRQ_BASE + IsrExternalINPUT__INTC_NUMBER] = address;
  45              		.loc 1 201 0
  46 0000 014B     		ldr	r3, .L3
  47 0002 5864     		str	r0, [r3, #68]
 202:Generated_Source\PSoC4/IsrExternalINPUT.c **** }
  48              		.loc 1 202 0
  49              		@ sp needed
  50 0004 7047     		bx	lr
  51              	.L4:
  52 0006 C046     		.align	2
  53              	.L3:
  54 0008 00000000 		.word	CyRamVectors
  55              		.cfi_endproc
  56              	.LFE4:
  57              		.size	IsrExternalINPUT_SetVector, .-IsrExternalINPUT_SetVector
  58              		.section	.text.IsrExternalINPUT_GetVector,"ax",%progbits
  59              		.align	2
  60              		.global	IsrExternalINPUT_GetVector
  61              		.code	16
  62              		.thumb_func
  63              		.type	IsrExternalINPUT_GetVector, %function
  64              	IsrExternalINPUT_GetVector:
  65              	.LFB5:
 203:Generated_Source\PSoC4/IsrExternalINPUT.c **** 
 204:Generated_Source\PSoC4/IsrExternalINPUT.c **** 
 205:Generated_Source\PSoC4/IsrExternalINPUT.c **** /*******************************************************************************
 206:Generated_Source\PSoC4/IsrExternalINPUT.c **** * Function Name: IsrExternalINPUT_GetVector
 207:Generated_Source\PSoC4/IsrExternalINPUT.c **** ********************************************************************************
 208:Generated_Source\PSoC4/IsrExternalINPUT.c **** *
 209:Generated_Source\PSoC4/IsrExternalINPUT.c **** * Summary:
 210:Generated_Source\PSoC4/IsrExternalINPUT.c **** *   Gets the "address" of the current ISR vector for the Interrupt.
 211:Generated_Source\PSoC4/IsrExternalINPUT.c **** *
 212:Generated_Source\PSoC4/IsrExternalINPUT.c **** * Parameters:
 213:Generated_Source\PSoC4/IsrExternalINPUT.c **** *   None
 214:Generated_Source\PSoC4/IsrExternalINPUT.c **** *
 215:Generated_Source\PSoC4/IsrExternalINPUT.c **** * Return:
 216:Generated_Source\PSoC4/IsrExternalINPUT.c **** *   Address of the ISR in the interrupt vector table.
 217:Generated_Source\PSoC4/IsrExternalINPUT.c **** *
 218:Generated_Source\PSoC4/IsrExternalINPUT.c **** *******************************************************************************/
 219:Generated_Source\PSoC4/IsrExternalINPUT.c **** cyisraddress IsrExternalINPUT_GetVector(void)
 220:Generated_Source\PSoC4/IsrExternalINPUT.c **** {
ARM GAS  C:\Users\Elea\AppData\Local\Temp\ccpYzos7.s 			page 6


  66              		.loc 1 220 0
  67              		.cfi_startproc
 221:Generated_Source\PSoC4/IsrExternalINPUT.c ****     return CyRamVectors[CYINT_IRQ_BASE + IsrExternalINPUT__INTC_NUMBER];
  68              		.loc 1 221 0
  69 0000 014B     		ldr	r3, .L6
  70 0002 586C     		ldr	r0, [r3, #68]
 222:Generated_Source\PSoC4/IsrExternalINPUT.c **** }
  71              		.loc 1 222 0
  72              		@ sp needed
  73 0004 7047     		bx	lr
  74              	.L7:
  75 0006 C046     		.align	2
  76              	.L6:
  77 0008 00000000 		.word	CyRamVectors
  78              		.cfi_endproc
  79              	.LFE5:
  80              		.size	IsrExternalINPUT_GetVector, .-IsrExternalINPUT_GetVector
  81              		.section	.text.IsrExternalINPUT_SetPriority,"ax",%progbits
  82              		.align	2
  83              		.global	IsrExternalINPUT_SetPriority
  84              		.code	16
  85              		.thumb_func
  86              		.type	IsrExternalINPUT_SetPriority, %function
  87              	IsrExternalINPUT_SetPriority:
  88              	.LFB6:
 223:Generated_Source\PSoC4/IsrExternalINPUT.c **** 
 224:Generated_Source\PSoC4/IsrExternalINPUT.c **** 
 225:Generated_Source\PSoC4/IsrExternalINPUT.c **** /*******************************************************************************
 226:Generated_Source\PSoC4/IsrExternalINPUT.c **** * Function Name: IsrExternalINPUT_SetPriority
 227:Generated_Source\PSoC4/IsrExternalINPUT.c **** ********************************************************************************
 228:Generated_Source\PSoC4/IsrExternalINPUT.c **** *
 229:Generated_Source\PSoC4/IsrExternalINPUT.c **** * Summary:
 230:Generated_Source\PSoC4/IsrExternalINPUT.c **** *   Sets the Priority of the Interrupt. 
 231:Generated_Source\PSoC4/IsrExternalINPUT.c **** *
 232:Generated_Source\PSoC4/IsrExternalINPUT.c **** *   Note calling IsrExternalINPUT_Start or IsrExternalINPUT_StartEx will 
 233:Generated_Source\PSoC4/IsrExternalINPUT.c **** *   override any effect this API would have had. This API should only be called
 234:Generated_Source\PSoC4/IsrExternalINPUT.c **** *   after IsrExternalINPUT_Start or IsrExternalINPUT_StartEx has been called. 
 235:Generated_Source\PSoC4/IsrExternalINPUT.c **** *   To set the initial priority for the component, use the Design-Wide Resources
 236:Generated_Source\PSoC4/IsrExternalINPUT.c **** *   Interrupt Editor.
 237:Generated_Source\PSoC4/IsrExternalINPUT.c **** *
 238:Generated_Source\PSoC4/IsrExternalINPUT.c **** *   Note This API has no effect on Non-maskable interrupt NMI).
 239:Generated_Source\PSoC4/IsrExternalINPUT.c **** *
 240:Generated_Source\PSoC4/IsrExternalINPUT.c **** * Parameters:
 241:Generated_Source\PSoC4/IsrExternalINPUT.c **** *   priority: Priority of the interrupt, 0 being the highest priority
 242:Generated_Source\PSoC4/IsrExternalINPUT.c **** *             PSoC 3 and PSoC 5LP: Priority is from 0 to 7.
 243:Generated_Source\PSoC4/IsrExternalINPUT.c **** *             PSoC 4: Priority is from 0 to 3.
 244:Generated_Source\PSoC4/IsrExternalINPUT.c **** *
 245:Generated_Source\PSoC4/IsrExternalINPUT.c **** * Return:
 246:Generated_Source\PSoC4/IsrExternalINPUT.c **** *   None
 247:Generated_Source\PSoC4/IsrExternalINPUT.c **** *
 248:Generated_Source\PSoC4/IsrExternalINPUT.c **** *******************************************************************************/
 249:Generated_Source\PSoC4/IsrExternalINPUT.c **** void IsrExternalINPUT_SetPriority(uint8 priority)
 250:Generated_Source\PSoC4/IsrExternalINPUT.c **** {
  89              		.loc 1 250 0
  90              		.cfi_startproc
  91              	.LVL1:
  92 0000 10B5     		push	{r4, lr}
ARM GAS  C:\Users\Elea\AppData\Local\Temp\ccpYzos7.s 			page 7


  93              		.cfi_def_cfa_offset 8
  94              		.cfi_offset 4, -8
  95              		.cfi_offset 14, -4
  96 0002 041C     		mov	r4, r0
  97              	.LVL2:
 251:Generated_Source\PSoC4/IsrExternalINPUT.c **** 	uint8 interruptState;
 252:Generated_Source\PSoC4/IsrExternalINPUT.c ****     uint32 priorityOffset = ((IsrExternalINPUT__INTC_NUMBER % 4u) * 8u) + 6u;
 253:Generated_Source\PSoC4/IsrExternalINPUT.c ****     
 254:Generated_Source\PSoC4/IsrExternalINPUT.c **** 	interruptState = CyEnterCriticalSection();
  98              		.loc 1 254 0
  99 0004 FFF7FEFF 		bl	CyEnterCriticalSection
 100              	.LVL3:
 255:Generated_Source\PSoC4/IsrExternalINPUT.c ****     *IsrExternalINPUT_INTC_PRIOR = (*IsrExternalINPUT_INTC_PRIOR & (uint32)(~IsrExternalINPUT__INTC
 101              		.loc 1 255 0
 102 0008 044A     		ldr	r2, .L9
 103 000a 1168     		ldr	r1, [r2]
 104 000c 044B     		ldr	r3, .L9+4
 105 000e 0B40     		and	r3, r1
 256:Generated_Source\PSoC4/IsrExternalINPUT.c ****                                     ((uint32)priority << priorityOffset);
 106              		.loc 1 256 0
 107 0010 A403     		lsl	r4, r4, #14
 255:Generated_Source\PSoC4/IsrExternalINPUT.c ****     *IsrExternalINPUT_INTC_PRIOR = (*IsrExternalINPUT_INTC_PRIOR & (uint32)(~IsrExternalINPUT__INTC
 108              		.loc 1 255 0
 109 0012 1C43     		orr	r4, r3
 110 0014 1460     		str	r4, [r2]
 257:Generated_Source\PSoC4/IsrExternalINPUT.c **** 	CyExitCriticalSection(interruptState);
 111              		.loc 1 257 0
 112 0016 FFF7FEFF 		bl	CyExitCriticalSection
 113              	.LVL4:
 258:Generated_Source\PSoC4/IsrExternalINPUT.c **** }
 114              		.loc 1 258 0
 115              		@ sp needed
 116 001a 10BD     		pop	{r4, pc}
 117              	.L10:
 118              		.align	2
 119              	.L9:
 120 001c 00E400E0 		.word	-536812544
 121 0020 FF3FFFFF 		.word	-49153
 122              		.cfi_endproc
 123              	.LFE6:
 124              		.size	IsrExternalINPUT_SetPriority, .-IsrExternalINPUT_SetPriority
 125              		.section	.text.IsrExternalINPUT_GetPriority,"ax",%progbits
 126              		.align	2
 127              		.global	IsrExternalINPUT_GetPriority
 128              		.code	16
 129              		.thumb_func
 130              		.type	IsrExternalINPUT_GetPriority, %function
 131              	IsrExternalINPUT_GetPriority:
 132              	.LFB7:
 259:Generated_Source\PSoC4/IsrExternalINPUT.c **** 
 260:Generated_Source\PSoC4/IsrExternalINPUT.c **** 
 261:Generated_Source\PSoC4/IsrExternalINPUT.c **** /*******************************************************************************
 262:Generated_Source\PSoC4/IsrExternalINPUT.c **** * Function Name: IsrExternalINPUT_GetPriority
 263:Generated_Source\PSoC4/IsrExternalINPUT.c **** ********************************************************************************
 264:Generated_Source\PSoC4/IsrExternalINPUT.c **** *
 265:Generated_Source\PSoC4/IsrExternalINPUT.c **** * Summary:
 266:Generated_Source\PSoC4/IsrExternalINPUT.c **** *   Gets the Priority of the Interrupt.
ARM GAS  C:\Users\Elea\AppData\Local\Temp\ccpYzos7.s 			page 8


 267:Generated_Source\PSoC4/IsrExternalINPUT.c **** *
 268:Generated_Source\PSoC4/IsrExternalINPUT.c **** * Parameters:
 269:Generated_Source\PSoC4/IsrExternalINPUT.c **** *   None
 270:Generated_Source\PSoC4/IsrExternalINPUT.c **** *
 271:Generated_Source\PSoC4/IsrExternalINPUT.c **** * Return:
 272:Generated_Source\PSoC4/IsrExternalINPUT.c **** *   Priority of the interrupt, 0 being the highest priority
 273:Generated_Source\PSoC4/IsrExternalINPUT.c **** *    PSoC 3 and PSoC 5LP: Priority is from 0 to 7.
 274:Generated_Source\PSoC4/IsrExternalINPUT.c **** *    PSoC 4: Priority is from 0 to 3.
 275:Generated_Source\PSoC4/IsrExternalINPUT.c **** *
 276:Generated_Source\PSoC4/IsrExternalINPUT.c **** *******************************************************************************/
 277:Generated_Source\PSoC4/IsrExternalINPUT.c **** uint8 IsrExternalINPUT_GetPriority(void)
 278:Generated_Source\PSoC4/IsrExternalINPUT.c **** {
 133              		.loc 1 278 0
 134              		.cfi_startproc
 135              	.LVL5:
 279:Generated_Source\PSoC4/IsrExternalINPUT.c ****     uint32 priority;
 280:Generated_Source\PSoC4/IsrExternalINPUT.c **** 	uint32 priorityOffset = ((IsrExternalINPUT__INTC_NUMBER % 4u) * 8u) + 6u;
 281:Generated_Source\PSoC4/IsrExternalINPUT.c **** 
 282:Generated_Source\PSoC4/IsrExternalINPUT.c ****     priority = (*IsrExternalINPUT_INTC_PRIOR & IsrExternalINPUT__INTC_PRIOR_MASK) >> priorityOffset
 136              		.loc 1 282 0
 137 0000 024B     		ldr	r3, .L12
 138 0002 1868     		ldr	r0, [r3]
 139 0004 0004     		lsl	r0, r0, #16
 140              	.LVL6:
 283:Generated_Source\PSoC4/IsrExternalINPUT.c **** 
 284:Generated_Source\PSoC4/IsrExternalINPUT.c ****     return (uint8)priority;
 141              		.loc 1 284 0
 142 0006 800F     		lsr	r0, r0, #30
 143              	.LVL7:
 285:Generated_Source\PSoC4/IsrExternalINPUT.c **** }
 144              		.loc 1 285 0
 145              		@ sp needed
 146 0008 7047     		bx	lr
 147              	.L13:
 148 000a C046     		.align	2
 149              	.L12:
 150 000c 00E400E0 		.word	-536812544
 151              		.cfi_endproc
 152              	.LFE7:
 153              		.size	IsrExternalINPUT_GetPriority, .-IsrExternalINPUT_GetPriority
 154              		.section	.text.IsrExternalINPUT_Enable,"ax",%progbits
 155              		.align	2
 156              		.global	IsrExternalINPUT_Enable
 157              		.code	16
 158              		.thumb_func
 159              		.type	IsrExternalINPUT_Enable, %function
 160              	IsrExternalINPUT_Enable:
 161              	.LFB8:
 286:Generated_Source\PSoC4/IsrExternalINPUT.c **** 
 287:Generated_Source\PSoC4/IsrExternalINPUT.c **** 
 288:Generated_Source\PSoC4/IsrExternalINPUT.c **** /*******************************************************************************
 289:Generated_Source\PSoC4/IsrExternalINPUT.c **** * Function Name: IsrExternalINPUT_Enable
 290:Generated_Source\PSoC4/IsrExternalINPUT.c **** ********************************************************************************
 291:Generated_Source\PSoC4/IsrExternalINPUT.c **** *
 292:Generated_Source\PSoC4/IsrExternalINPUT.c **** * Summary:
 293:Generated_Source\PSoC4/IsrExternalINPUT.c **** *   Enables the interrupt to the interrupt controller. Do not call this function
 294:Generated_Source\PSoC4/IsrExternalINPUT.c **** *   unless ISR_Start() has been called or the functionality of the ISR_Start() 
ARM GAS  C:\Users\Elea\AppData\Local\Temp\ccpYzos7.s 			page 9


 295:Generated_Source\PSoC4/IsrExternalINPUT.c **** *   function, which sets the vector and the priority, has been called.
 296:Generated_Source\PSoC4/IsrExternalINPUT.c **** *
 297:Generated_Source\PSoC4/IsrExternalINPUT.c **** * Parameters:
 298:Generated_Source\PSoC4/IsrExternalINPUT.c **** *   None
 299:Generated_Source\PSoC4/IsrExternalINPUT.c **** *
 300:Generated_Source\PSoC4/IsrExternalINPUT.c **** * Return:
 301:Generated_Source\PSoC4/IsrExternalINPUT.c **** *   None
 302:Generated_Source\PSoC4/IsrExternalINPUT.c **** *
 303:Generated_Source\PSoC4/IsrExternalINPUT.c **** *******************************************************************************/
 304:Generated_Source\PSoC4/IsrExternalINPUT.c **** void IsrExternalINPUT_Enable(void)
 305:Generated_Source\PSoC4/IsrExternalINPUT.c **** {
 162              		.loc 1 305 0
 163              		.cfi_startproc
 306:Generated_Source\PSoC4/IsrExternalINPUT.c ****     /* Enable the general interrupt. */
 307:Generated_Source\PSoC4/IsrExternalINPUT.c ****     *IsrExternalINPUT_INTC_SET_EN = IsrExternalINPUT__INTC_MASK;
 164              		.loc 1 307 0
 165 0000 0222     		mov	r2, #2
 166 0002 014B     		ldr	r3, .L15
 167 0004 1A60     		str	r2, [r3]
 308:Generated_Source\PSoC4/IsrExternalINPUT.c **** }
 168              		.loc 1 308 0
 169              		@ sp needed
 170 0006 7047     		bx	lr
 171              	.L16:
 172              		.align	2
 173              	.L15:
 174 0008 00E100E0 		.word	-536813312
 175              		.cfi_endproc
 176              	.LFE8:
 177              		.size	IsrExternalINPUT_Enable, .-IsrExternalINPUT_Enable
 178              		.section	.text.IsrExternalINPUT_GetState,"ax",%progbits
 179              		.align	2
 180              		.global	IsrExternalINPUT_GetState
 181              		.code	16
 182              		.thumb_func
 183              		.type	IsrExternalINPUT_GetState, %function
 184              	IsrExternalINPUT_GetState:
 185              	.LFB9:
 309:Generated_Source\PSoC4/IsrExternalINPUT.c **** 
 310:Generated_Source\PSoC4/IsrExternalINPUT.c **** 
 311:Generated_Source\PSoC4/IsrExternalINPUT.c **** /*******************************************************************************
 312:Generated_Source\PSoC4/IsrExternalINPUT.c **** * Function Name: IsrExternalINPUT_GetState
 313:Generated_Source\PSoC4/IsrExternalINPUT.c **** ********************************************************************************
 314:Generated_Source\PSoC4/IsrExternalINPUT.c **** *
 315:Generated_Source\PSoC4/IsrExternalINPUT.c **** * Summary:
 316:Generated_Source\PSoC4/IsrExternalINPUT.c **** *   Gets the state (enabled, disabled) of the Interrupt.
 317:Generated_Source\PSoC4/IsrExternalINPUT.c **** *
 318:Generated_Source\PSoC4/IsrExternalINPUT.c **** * Parameters:
 319:Generated_Source\PSoC4/IsrExternalINPUT.c **** *   None
 320:Generated_Source\PSoC4/IsrExternalINPUT.c **** *
 321:Generated_Source\PSoC4/IsrExternalINPUT.c **** * Return:
 322:Generated_Source\PSoC4/IsrExternalINPUT.c **** *   1 if enabled, 0 if disabled.
 323:Generated_Source\PSoC4/IsrExternalINPUT.c **** *
 324:Generated_Source\PSoC4/IsrExternalINPUT.c **** *******************************************************************************/
 325:Generated_Source\PSoC4/IsrExternalINPUT.c **** uint8 IsrExternalINPUT_GetState(void)
 326:Generated_Source\PSoC4/IsrExternalINPUT.c **** {
 186              		.loc 1 326 0
ARM GAS  C:\Users\Elea\AppData\Local\Temp\ccpYzos7.s 			page 10


 187              		.cfi_startproc
 327:Generated_Source\PSoC4/IsrExternalINPUT.c ****     /* Get the state of the general interrupt. */
 328:Generated_Source\PSoC4/IsrExternalINPUT.c ****     return ((*IsrExternalINPUT_INTC_SET_EN & (uint32)IsrExternalINPUT__INTC_MASK) != 0u) ? 1u:0u;
 188              		.loc 1 328 0
 189 0000 034B     		ldr	r3, .L20
 190 0002 1B68     		ldr	r3, [r3]
 191 0004 9B07     		lsl	r3, r3, #30
 192 0006 01D5     		bpl	.L19
 193 0008 0120     		mov	r0, #1
 194 000a 00E0     		b	.L18
 195              	.L19:
 196 000c 0020     		mov	r0, #0
 197              	.L18:
 329:Generated_Source\PSoC4/IsrExternalINPUT.c **** }
 198              		.loc 1 329 0 discriminator 4
 199              		@ sp needed
 200 000e 7047     		bx	lr
 201              	.L21:
 202              		.align	2
 203              	.L20:
 204 0010 00E100E0 		.word	-536813312
 205              		.cfi_endproc
 206              	.LFE9:
 207              		.size	IsrExternalINPUT_GetState, .-IsrExternalINPUT_GetState
 208              		.section	.text.IsrExternalINPUT_Disable,"ax",%progbits
 209              		.align	2
 210              		.global	IsrExternalINPUT_Disable
 211              		.code	16
 212              		.thumb_func
 213              		.type	IsrExternalINPUT_Disable, %function
 214              	IsrExternalINPUT_Disable:
 215              	.LFB10:
 330:Generated_Source\PSoC4/IsrExternalINPUT.c **** 
 331:Generated_Source\PSoC4/IsrExternalINPUT.c **** 
 332:Generated_Source\PSoC4/IsrExternalINPUT.c **** /*******************************************************************************
 333:Generated_Source\PSoC4/IsrExternalINPUT.c **** * Function Name: IsrExternalINPUT_Disable
 334:Generated_Source\PSoC4/IsrExternalINPUT.c **** ********************************************************************************
 335:Generated_Source\PSoC4/IsrExternalINPUT.c **** *
 336:Generated_Source\PSoC4/IsrExternalINPUT.c **** * Summary:
 337:Generated_Source\PSoC4/IsrExternalINPUT.c **** *   Disables the Interrupt in the interrupt controller.
 338:Generated_Source\PSoC4/IsrExternalINPUT.c **** *
 339:Generated_Source\PSoC4/IsrExternalINPUT.c **** * Parameters:
 340:Generated_Source\PSoC4/IsrExternalINPUT.c **** *   None
 341:Generated_Source\PSoC4/IsrExternalINPUT.c **** *
 342:Generated_Source\PSoC4/IsrExternalINPUT.c **** * Return:
 343:Generated_Source\PSoC4/IsrExternalINPUT.c **** *   None
 344:Generated_Source\PSoC4/IsrExternalINPUT.c **** *
 345:Generated_Source\PSoC4/IsrExternalINPUT.c **** *******************************************************************************/
 346:Generated_Source\PSoC4/IsrExternalINPUT.c **** void IsrExternalINPUT_Disable(void)
 347:Generated_Source\PSoC4/IsrExternalINPUT.c **** {
 216              		.loc 1 347 0
 217              		.cfi_startproc
 348:Generated_Source\PSoC4/IsrExternalINPUT.c ****     /* Disable the general interrupt. */
 349:Generated_Source\PSoC4/IsrExternalINPUT.c ****     *IsrExternalINPUT_INTC_CLR_EN = IsrExternalINPUT__INTC_MASK;
 218              		.loc 1 349 0
 219 0000 0222     		mov	r2, #2
 220 0002 014B     		ldr	r3, .L23
ARM GAS  C:\Users\Elea\AppData\Local\Temp\ccpYzos7.s 			page 11


 221 0004 1A60     		str	r2, [r3]
 350:Generated_Source\PSoC4/IsrExternalINPUT.c **** }
 222              		.loc 1 350 0
 223              		@ sp needed
 224 0006 7047     		bx	lr
 225              	.L24:
 226              		.align	2
 227              	.L23:
 228 0008 80E100E0 		.word	-536813184
 229              		.cfi_endproc
 230              	.LFE10:
 231              		.size	IsrExternalINPUT_Disable, .-IsrExternalINPUT_Disable
 232              		.section	.text.IsrExternalINPUT_Start,"ax",%progbits
 233              		.align	2
 234              		.global	IsrExternalINPUT_Start
 235              		.code	16
 236              		.thumb_func
 237              		.type	IsrExternalINPUT_Start, %function
 238              	IsrExternalINPUT_Start:
 239              	.LFB0:
  57:Generated_Source\PSoC4/IsrExternalINPUT.c ****     /* For all we know the interrupt is active. */
 240              		.loc 1 57 0
 241              		.cfi_startproc
 242 0000 08B5     		push	{r3, lr}
 243              		.cfi_def_cfa_offset 8
 244              		.cfi_offset 3, -8
 245              		.cfi_offset 14, -4
  59:Generated_Source\PSoC4/IsrExternalINPUT.c **** 
 246              		.loc 1 59 0
 247 0002 FFF7FEFF 		bl	IsrExternalINPUT_Disable
 248              	.LVL8:
  62:Generated_Source\PSoC4/IsrExternalINPUT.c **** 
 249              		.loc 1 62 0
 250 0006 0448     		ldr	r0, .L26
 251 0008 FFF7FEFF 		bl	IsrExternalINPUT_SetVector
 252              	.LVL9:
  65:Generated_Source\PSoC4/IsrExternalINPUT.c **** 
 253              		.loc 1 65 0
 254 000c 0320     		mov	r0, #3
 255 000e FFF7FEFF 		bl	IsrExternalINPUT_SetPriority
 256              	.LVL10:
  68:Generated_Source\PSoC4/IsrExternalINPUT.c **** }
 257              		.loc 1 68 0
 258 0012 FFF7FEFF 		bl	IsrExternalINPUT_Enable
 259              	.LVL11:
  69:Generated_Source\PSoC4/IsrExternalINPUT.c **** 
 260              		.loc 1 69 0
 261              		@ sp needed
 262 0016 08BD     		pop	{r3, pc}
 263              	.L27:
 264              		.align	2
 265              	.L26:
 266 0018 00000000 		.word	IsrExternalINPUT_Interrupt
 267              		.cfi_endproc
 268              	.LFE0:
 269              		.size	IsrExternalINPUT_Start, .-IsrExternalINPUT_Start
 270              		.section	.text.IsrExternalINPUT_StartEx,"ax",%progbits
ARM GAS  C:\Users\Elea\AppData\Local\Temp\ccpYzos7.s 			page 12


 271              		.align	2
 272              		.global	IsrExternalINPUT_StartEx
 273              		.code	16
 274              		.thumb_func
 275              		.type	IsrExternalINPUT_StartEx, %function
 276              	IsrExternalINPUT_StartEx:
 277              	.LFB1:
 100:Generated_Source\PSoC4/IsrExternalINPUT.c ****     /* For all we know the interrupt is active. */
 278              		.loc 1 100 0
 279              		.cfi_startproc
 280              	.LVL12:
 281 0000 10B5     		push	{r4, lr}
 282              		.cfi_def_cfa_offset 8
 283              		.cfi_offset 4, -8
 284              		.cfi_offset 14, -4
 285 0002 041C     		mov	r4, r0
 102:Generated_Source\PSoC4/IsrExternalINPUT.c **** 
 286              		.loc 1 102 0
 287 0004 FFF7FEFF 		bl	IsrExternalINPUT_Disable
 288              	.LVL13:
 105:Generated_Source\PSoC4/IsrExternalINPUT.c **** 
 289              		.loc 1 105 0
 290 0008 201C     		mov	r0, r4
 291 000a FFF7FEFF 		bl	IsrExternalINPUT_SetVector
 292              	.LVL14:
 108:Generated_Source\PSoC4/IsrExternalINPUT.c **** 
 293              		.loc 1 108 0
 294 000e 0320     		mov	r0, #3
 295 0010 FFF7FEFF 		bl	IsrExternalINPUT_SetPriority
 296              	.LVL15:
 111:Generated_Source\PSoC4/IsrExternalINPUT.c **** }
 297              		.loc 1 111 0
 298 0014 FFF7FEFF 		bl	IsrExternalINPUT_Enable
 299              	.LVL16:
 112:Generated_Source\PSoC4/IsrExternalINPUT.c **** 
 300              		.loc 1 112 0
 301              		@ sp needed
 302              	.LVL17:
 303 0018 10BD     		pop	{r4, pc}
 304              		.cfi_endproc
 305              	.LFE1:
 306              		.size	IsrExternalINPUT_StartEx, .-IsrExternalINPUT_StartEx
 307 001a C046     		.section	.text.IsrExternalINPUT_Stop,"ax",%progbits
 308              		.align	2
 309              		.global	IsrExternalINPUT_Stop
 310              		.code	16
 311              		.thumb_func
 312              		.type	IsrExternalINPUT_Stop, %function
 313              	IsrExternalINPUT_Stop:
 314              	.LFB2:
 130:Generated_Source\PSoC4/IsrExternalINPUT.c ****     /* Disable this interrupt. */
 315              		.loc 1 130 0
 316              		.cfi_startproc
 317 0000 08B5     		push	{r3, lr}
 318              		.cfi_def_cfa_offset 8
 319              		.cfi_offset 3, -8
 320              		.cfi_offset 14, -4
ARM GAS  C:\Users\Elea\AppData\Local\Temp\ccpYzos7.s 			page 13


 132:Generated_Source\PSoC4/IsrExternalINPUT.c **** 
 321              		.loc 1 132 0
 322 0002 FFF7FEFF 		bl	IsrExternalINPUT_Disable
 323              	.LVL18:
 135:Generated_Source\PSoC4/IsrExternalINPUT.c **** }
 324              		.loc 1 135 0
 325 0006 0248     		ldr	r0, .L30
 326 0008 FFF7FEFF 		bl	IsrExternalINPUT_SetVector
 327              	.LVL19:
 136:Generated_Source\PSoC4/IsrExternalINPUT.c **** 
 328              		.loc 1 136 0
 329              		@ sp needed
 330 000c 08BD     		pop	{r3, pc}
 331              	.L31:
 332 000e C046     		.align	2
 333              	.L30:
 334 0010 00000000 		.word	IntDefaultHandler
 335              		.cfi_endproc
 336              	.LFE2:
 337              		.size	IsrExternalINPUT_Stop, .-IsrExternalINPUT_Stop
 338              		.section	.text.IsrExternalINPUT_SetPending,"ax",%progbits
 339              		.align	2
 340              		.global	IsrExternalINPUT_SetPending
 341              		.code	16
 342              		.thumb_func
 343              		.type	IsrExternalINPUT_SetPending, %function
 344              	IsrExternalINPUT_SetPending:
 345              	.LFB11:
 351:Generated_Source\PSoC4/IsrExternalINPUT.c **** 
 352:Generated_Source\PSoC4/IsrExternalINPUT.c **** 
 353:Generated_Source\PSoC4/IsrExternalINPUT.c **** /*******************************************************************************
 354:Generated_Source\PSoC4/IsrExternalINPUT.c **** * Function Name: IsrExternalINPUT_SetPending
 355:Generated_Source\PSoC4/IsrExternalINPUT.c **** ********************************************************************************
 356:Generated_Source\PSoC4/IsrExternalINPUT.c **** *
 357:Generated_Source\PSoC4/IsrExternalINPUT.c **** * Summary:
 358:Generated_Source\PSoC4/IsrExternalINPUT.c **** *   Causes the Interrupt to enter the pending state, a software method of
 359:Generated_Source\PSoC4/IsrExternalINPUT.c **** *   generating the interrupt.
 360:Generated_Source\PSoC4/IsrExternalINPUT.c **** *
 361:Generated_Source\PSoC4/IsrExternalINPUT.c **** * Parameters:
 362:Generated_Source\PSoC4/IsrExternalINPUT.c **** *   None
 363:Generated_Source\PSoC4/IsrExternalINPUT.c **** *
 364:Generated_Source\PSoC4/IsrExternalINPUT.c **** * Return:
 365:Generated_Source\PSoC4/IsrExternalINPUT.c **** *   None
 366:Generated_Source\PSoC4/IsrExternalINPUT.c **** *
 367:Generated_Source\PSoC4/IsrExternalINPUT.c **** * Side Effects:
 368:Generated_Source\PSoC4/IsrExternalINPUT.c **** *   If interrupts are enabled and the interrupt is set up properly, the ISR is
 369:Generated_Source\PSoC4/IsrExternalINPUT.c **** *   entered (depending on the priority of this interrupt and other pending 
 370:Generated_Source\PSoC4/IsrExternalINPUT.c **** *   interrupts).
 371:Generated_Source\PSoC4/IsrExternalINPUT.c **** *
 372:Generated_Source\PSoC4/IsrExternalINPUT.c **** *******************************************************************************/
 373:Generated_Source\PSoC4/IsrExternalINPUT.c **** void IsrExternalINPUT_SetPending(void)
 374:Generated_Source\PSoC4/IsrExternalINPUT.c **** {
 346              		.loc 1 374 0
 347              		.cfi_startproc
 375:Generated_Source\PSoC4/IsrExternalINPUT.c ****     *IsrExternalINPUT_INTC_SET_PD = IsrExternalINPUT__INTC_MASK;
 348              		.loc 1 375 0
 349 0000 0222     		mov	r2, #2
ARM GAS  C:\Users\Elea\AppData\Local\Temp\ccpYzos7.s 			page 14


 350 0002 014B     		ldr	r3, .L33
 351 0004 1A60     		str	r2, [r3]
 376:Generated_Source\PSoC4/IsrExternalINPUT.c **** }
 352              		.loc 1 376 0
 353              		@ sp needed
 354 0006 7047     		bx	lr
 355              	.L34:
 356              		.align	2
 357              	.L33:
 358 0008 00E200E0 		.word	-536813056
 359              		.cfi_endproc
 360              	.LFE11:
 361              		.size	IsrExternalINPUT_SetPending, .-IsrExternalINPUT_SetPending
 362              		.section	.text.IsrExternalINPUT_ClearPending,"ax",%progbits
 363              		.align	2
 364              		.global	IsrExternalINPUT_ClearPending
 365              		.code	16
 366              		.thumb_func
 367              		.type	IsrExternalINPUT_ClearPending, %function
 368              	IsrExternalINPUT_ClearPending:
 369              	.LFB12:
 377:Generated_Source\PSoC4/IsrExternalINPUT.c **** 
 378:Generated_Source\PSoC4/IsrExternalINPUT.c **** 
 379:Generated_Source\PSoC4/IsrExternalINPUT.c **** /*******************************************************************************
 380:Generated_Source\PSoC4/IsrExternalINPUT.c **** * Function Name: IsrExternalINPUT_ClearPending
 381:Generated_Source\PSoC4/IsrExternalINPUT.c **** ********************************************************************************
 382:Generated_Source\PSoC4/IsrExternalINPUT.c **** *
 383:Generated_Source\PSoC4/IsrExternalINPUT.c **** * Summary:
 384:Generated_Source\PSoC4/IsrExternalINPUT.c **** *   Clears a pending interrupt in the interrupt controller.
 385:Generated_Source\PSoC4/IsrExternalINPUT.c **** *
 386:Generated_Source\PSoC4/IsrExternalINPUT.c **** *   Note Some interrupt sources are clear-on-read and require the block 
 387:Generated_Source\PSoC4/IsrExternalINPUT.c **** *   interrupt/status register to be read/cleared with the appropriate block API 
 388:Generated_Source\PSoC4/IsrExternalINPUT.c **** *   (GPIO, UART, and so on). Otherwise the ISR will continue to remain in 
 389:Generated_Source\PSoC4/IsrExternalINPUT.c **** *   pending state even though the interrupt itself is cleared using this API.
 390:Generated_Source\PSoC4/IsrExternalINPUT.c **** *
 391:Generated_Source\PSoC4/IsrExternalINPUT.c **** * Parameters:
 392:Generated_Source\PSoC4/IsrExternalINPUT.c **** *   None
 393:Generated_Source\PSoC4/IsrExternalINPUT.c **** *
 394:Generated_Source\PSoC4/IsrExternalINPUT.c **** * Return:
 395:Generated_Source\PSoC4/IsrExternalINPUT.c **** *   None
 396:Generated_Source\PSoC4/IsrExternalINPUT.c **** *
 397:Generated_Source\PSoC4/IsrExternalINPUT.c **** *******************************************************************************/
 398:Generated_Source\PSoC4/IsrExternalINPUT.c **** void IsrExternalINPUT_ClearPending(void)
 399:Generated_Source\PSoC4/IsrExternalINPUT.c **** {
 370              		.loc 1 399 0
 371              		.cfi_startproc
 400:Generated_Source\PSoC4/IsrExternalINPUT.c ****     *IsrExternalINPUT_INTC_CLR_PD = IsrExternalINPUT__INTC_MASK;
 372              		.loc 1 400 0
 373 0000 0222     		mov	r2, #2
 374 0002 014B     		ldr	r3, .L36
 375 0004 1A60     		str	r2, [r3]
 401:Generated_Source\PSoC4/IsrExternalINPUT.c **** }
 376              		.loc 1 401 0
 377              		@ sp needed
 378 0006 7047     		bx	lr
 379              	.L37:
 380              		.align	2
ARM GAS  C:\Users\Elea\AppData\Local\Temp\ccpYzos7.s 			page 15


 381              	.L36:
 382 0008 80E200E0 		.word	-536812928
 383              		.cfi_endproc
 384              	.LFE12:
 385              		.size	IsrExternalINPUT_ClearPending, .-IsrExternalINPUT_ClearPending
 386              		.text
 387              	.Letext0:
 388              		.file 2 "Generated_Source\\PSoC4/cytypes.h"
 389              		.file 3 "Generated_Source\\PSoC4/CyLib.h"
 390              		.section	.debug_info,"",%progbits
 391              	.Ldebug_info0:
 392 0000 FC020000 		.4byte	0x2fc
 393 0004 0400     		.2byte	0x4
 394 0006 00000000 		.4byte	.Ldebug_abbrev0
 395 000a 04       		.byte	0x4
 396 000b 01       		.uleb128 0x1
 397 000c 38020000 		.4byte	.LASF33
 398 0010 01       		.byte	0x1
 399 0011 06000000 		.4byte	.LASF34
 400 0015 4A000000 		.4byte	.LASF35
 401 0019 00000000 		.4byte	.Ldebug_ranges0+0
 402 001d 00000000 		.4byte	0
 403 0021 00000000 		.4byte	.Ldebug_line0
 404 0025 02       		.uleb128 0x2
 405 0026 01       		.byte	0x1
 406 0027 06       		.byte	0x6
 407 0028 19030000 		.4byte	.LASF0
 408 002c 02       		.uleb128 0x2
 409 002d 01       		.byte	0x1
 410 002e 08       		.byte	0x8
 411 002f FA000000 		.4byte	.LASF1
 412 0033 02       		.uleb128 0x2
 413 0034 02       		.byte	0x2
 414 0035 05       		.byte	0x5
 415 0036 C6020000 		.4byte	.LASF2
 416 003a 02       		.uleb128 0x2
 417 003b 02       		.byte	0x2
 418 003c 07       		.byte	0x7
 419 003d AD000000 		.4byte	.LASF3
 420 0041 02       		.uleb128 0x2
 421 0042 04       		.byte	0x4
 422 0043 05       		.byte	0x5
 423 0044 F8020000 		.4byte	.LASF4
 424 0048 02       		.uleb128 0x2
 425 0049 04       		.byte	0x4
 426 004a 07       		.byte	0x7
 427 004b 17010000 		.4byte	.LASF5
 428 004f 02       		.uleb128 0x2
 429 0050 08       		.byte	0x8
 430 0051 05       		.byte	0x5
 431 0052 25020000 		.4byte	.LASF6
 432 0056 02       		.uleb128 0x2
 433 0057 08       		.byte	0x8
 434 0058 07       		.byte	0x7
 435 0059 E3000000 		.4byte	.LASF7
 436 005d 03       		.uleb128 0x3
 437 005e 04       		.byte	0x4
ARM GAS  C:\Users\Elea\AppData\Local\Temp\ccpYzos7.s 			page 16


 438 005f 05       		.byte	0x5
 439 0060 696E7400 		.ascii	"int\000"
 440 0064 02       		.uleb128 0x2
 441 0065 04       		.byte	0x4
 442 0066 07       		.byte	0x7
 443 0067 93010000 		.4byte	.LASF8
 444 006b 04       		.uleb128 0x4
 445 006c 29010000 		.4byte	.LASF9
 446 0070 02       		.byte	0x2
 447 0071 B901     		.2byte	0x1b9
 448 0073 2C000000 		.4byte	0x2c
 449 0077 04       		.uleb128 0x4
 450 0078 75010000 		.4byte	.LASF10
 451 007c 02       		.byte	0x2
 452 007d BB01     		.2byte	0x1bb
 453 007f 48000000 		.4byte	0x48
 454 0083 02       		.uleb128 0x2
 455 0084 04       		.byte	0x4
 456 0085 04       		.byte	0x4
 457 0086 DD000000 		.4byte	.LASF11
 458 008a 02       		.uleb128 0x2
 459 008b 08       		.byte	0x8
 460 008c 04       		.byte	0x4
 461 008d 38010000 		.4byte	.LASF12
 462 0091 02       		.uleb128 0x2
 463 0092 01       		.byte	0x1
 464 0093 08       		.byte	0x8
 465 0094 33020000 		.4byte	.LASF13
 466 0098 04       		.uleb128 0x4
 467 0099 00000000 		.4byte	.LASF14
 468 009d 02       		.byte	0x2
 469 009e 6502     		.2byte	0x265
 470 00a0 A4000000 		.4byte	0xa4
 471 00a4 05       		.uleb128 0x5
 472 00a5 77000000 		.4byte	0x77
 473 00a9 04       		.uleb128 0x4
 474 00aa D5010000 		.4byte	.LASF15
 475 00ae 02       		.byte	0x2
 476 00af 7502     		.2byte	0x275
 477 00b1 B5000000 		.4byte	0xb5
 478 00b5 06       		.uleb128 0x6
 479 00b6 04       		.byte	0x4
 480 00b7 BB000000 		.4byte	0xbb
 481 00bb 07       		.uleb128 0x7
 482 00bc 02       		.uleb128 0x2
 483 00bd 04       		.byte	0x4
 484 00be 07       		.byte	0x7
 485 00bf 1C020000 		.4byte	.LASF16
 486 00c3 08       		.uleb128 0x8
 487 00c4 5A010000 		.4byte	.LASF23
 488 00c8 01       		.byte	0x1
 489 00c9 9F       		.byte	0x9f
 490 00ca 00000000 		.4byte	.LFB3
 491 00ce 02000000 		.4byte	.LFE3-.LFB3
 492 00d2 01       		.uleb128 0x1
 493 00d3 9C       		.byte	0x9c
 494 00d4 09       		.uleb128 0x9
ARM GAS  C:\Users\Elea\AppData\Local\Temp\ccpYzos7.s 			page 17


 495 00d5 92000000 		.4byte	.LASF17
 496 00d9 01       		.byte	0x1
 497 00da C7       		.byte	0xc7
 498 00db 00000000 		.4byte	.LFB4
 499 00df 0C000000 		.4byte	.LFE4-.LFB4
 500 00e3 01       		.uleb128 0x1
 501 00e4 9C       		.byte	0x9c
 502 00e5 F7000000 		.4byte	0xf7
 503 00e9 0A       		.uleb128 0xa
 504 00ea B7010000 		.4byte	.LASF19
 505 00ee 01       		.byte	0x1
 506 00ef C7       		.byte	0xc7
 507 00f0 A9000000 		.4byte	0xa9
 508 00f4 01       		.uleb128 0x1
 509 00f5 50       		.byte	0x50
 510 00f6 00       		.byte	0
 511 00f7 0B       		.uleb128 0xb
 512 00f8 3F010000 		.4byte	.LASF25
 513 00fc 01       		.byte	0x1
 514 00fd DB       		.byte	0xdb
 515 00fe A9000000 		.4byte	0xa9
 516 0102 00000000 		.4byte	.LFB5
 517 0106 0C000000 		.4byte	.LFE5-.LFB5
 518 010a 01       		.uleb128 0x1
 519 010b 9C       		.byte	0x9c
 520 010c 09       		.uleb128 0x9
 521 010d C0000000 		.4byte	.LASF18
 522 0111 01       		.byte	0x1
 523 0112 F9       		.byte	0xf9
 524 0113 00000000 		.4byte	.LFB6
 525 0117 24000000 		.4byte	.LFE6-.LFB6
 526 011b 01       		.uleb128 0x1
 527 011c 9C       		.byte	0x9c
 528 011d 5E010000 		.4byte	0x15e
 529 0121 0C       		.uleb128 0xc
 530 0122 2F010000 		.4byte	.LASF20
 531 0126 01       		.byte	0x1
 532 0127 F9       		.byte	0xf9
 533 0128 6B000000 		.4byte	0x6b
 534 012c 00000000 		.4byte	.LLST0
 535 0130 0D       		.uleb128 0xd
 536 0131 08010000 		.4byte	.LASF21
 537 0135 01       		.byte	0x1
 538 0136 FB       		.byte	0xfb
 539 0137 6B000000 		.4byte	0x6b
 540 013b 21000000 		.4byte	.LLST1
 541 013f 0E       		.uleb128 0xe
 542 0140 E9020000 		.4byte	.LASF22
 543 0144 01       		.byte	0x1
 544 0145 FC       		.byte	0xfc
 545 0146 77000000 		.4byte	0x77
 546 014a 0E       		.byte	0xe
 547 014b 0F       		.uleb128 0xf
 548 014c 08000000 		.4byte	.LVL3
 549 0150 E7020000 		.4byte	0x2e7
 550 0154 0F       		.uleb128 0xf
 551 0155 1A000000 		.4byte	.LVL4
ARM GAS  C:\Users\Elea\AppData\Local\Temp\ccpYzos7.s 			page 18


 552 0159 F2020000 		.4byte	0x2f2
 553 015d 00       		.byte	0
 554 015e 10       		.uleb128 0x10
 555 015f 3B030000 		.4byte	.LASF36
 556 0163 01       		.byte	0x1
 557 0164 1501     		.2byte	0x115
 558 0166 6B000000 		.4byte	0x6b
 559 016a 00000000 		.4byte	.LFB7
 560 016e 10000000 		.4byte	.LFE7-.LFB7
 561 0172 01       		.uleb128 0x1
 562 0173 9C       		.byte	0x9c
 563 0174 96010000 		.4byte	0x196
 564 0178 11       		.uleb128 0x11
 565 0179 2F010000 		.4byte	.LASF20
 566 017d 01       		.byte	0x1
 567 017e 1701     		.2byte	0x117
 568 0180 77000000 		.4byte	0x77
 569 0184 34000000 		.4byte	.LLST2
 570 0188 12       		.uleb128 0x12
 571 0189 E9020000 		.4byte	.LASF22
 572 018d 01       		.byte	0x1
 573 018e 1801     		.2byte	0x118
 574 0190 77000000 		.4byte	0x77
 575 0194 0E       		.byte	0xe
 576 0195 00       		.byte	0
 577 0196 13       		.uleb128 0x13
 578 0197 01030000 		.4byte	.LASF24
 579 019b 01       		.byte	0x1
 580 019c 3001     		.2byte	0x130
 581 019e 00000000 		.4byte	.LFB8
 582 01a2 0C000000 		.4byte	.LFE8-.LFB8
 583 01a6 01       		.uleb128 0x1
 584 01a7 9C       		.byte	0x9c
 585 01a8 14       		.uleb128 0x14
 586 01a9 30000000 		.4byte	.LASF26
 587 01ad 01       		.byte	0x1
 588 01ae 4501     		.2byte	0x145
 589 01b0 6B000000 		.4byte	0x6b
 590 01b4 00000000 		.4byte	.LFB9
 591 01b8 14000000 		.4byte	.LFE9-.LFB9
 592 01bc 01       		.uleb128 0x1
 593 01bd 9C       		.byte	0x9c
 594 01be 13       		.uleb128 0x13
 595 01bf 58030000 		.4byte	.LASF27
 596 01c3 01       		.byte	0x1
 597 01c4 5A01     		.2byte	0x15a
 598 01c6 00000000 		.4byte	.LFB10
 599 01ca 0C000000 		.4byte	.LFE10-.LFB10
 600 01ce 01       		.uleb128 0x1
 601 01cf 9C       		.byte	0x9c
 602 01d0 09       		.uleb128 0x9
 603 01d1 A0010000 		.4byte	.LASF28
 604 01d5 01       		.byte	0x1
 605 01d6 38       		.byte	0x38
 606 01d7 00000000 		.4byte	.LFB0
 607 01db 1C000000 		.4byte	.LFE0-.LFB0
 608 01df 01       		.uleb128 0x1
ARM GAS  C:\Users\Elea\AppData\Local\Temp\ccpYzos7.s 			page 19


 609 01e0 9C       		.byte	0x9c
 610 01e1 22020000 		.4byte	0x222
 611 01e5 0F       		.uleb128 0xf
 612 01e6 06000000 		.4byte	.LVL8
 613 01ea BE010000 		.4byte	0x1be
 614 01ee 15       		.uleb128 0x15
 615 01ef 0C000000 		.4byte	.LVL9
 616 01f3 D4000000 		.4byte	0xd4
 617 01f7 05020000 		.4byte	0x205
 618 01fb 16       		.uleb128 0x16
 619 01fc 01       		.uleb128 0x1
 620 01fd 50       		.byte	0x50
 621 01fe 05       		.uleb128 0x5
 622 01ff 03       		.byte	0x3
 623 0200 00000000 		.4byte	IsrExternalINPUT_Interrupt
 624 0204 00       		.byte	0
 625 0205 15       		.uleb128 0x15
 626 0206 12000000 		.4byte	.LVL10
 627 020a 0C010000 		.4byte	0x10c
 628 020e 18020000 		.4byte	0x218
 629 0212 16       		.uleb128 0x16
 630 0213 01       		.uleb128 0x1
 631 0214 50       		.byte	0x50
 632 0215 01       		.uleb128 0x1
 633 0216 33       		.byte	0x33
 634 0217 00       		.byte	0
 635 0218 0F       		.uleb128 0xf
 636 0219 16000000 		.4byte	.LVL11
 637 021d 96010000 		.4byte	0x196
 638 0221 00       		.byte	0
 639 0222 09       		.uleb128 0x9
 640 0223 D0020000 		.4byte	.LASF29
 641 0227 01       		.byte	0x1
 642 0228 63       		.byte	0x63
 643 0229 00000000 		.4byte	.LFB1
 644 022d 1A000000 		.4byte	.LFE1-.LFB1
 645 0231 01       		.uleb128 0x1
 646 0232 9C       		.byte	0x9c
 647 0233 80020000 		.4byte	0x280
 648 0237 0C       		.uleb128 0xc
 649 0238 B7010000 		.4byte	.LASF19
 650 023c 01       		.byte	0x1
 651 023d 63       		.byte	0x63
 652 023e A9000000 		.4byte	0xa9
 653 0242 56000000 		.4byte	.LLST3
 654 0246 0F       		.uleb128 0xf
 655 0247 08000000 		.4byte	.LVL13
 656 024b BE010000 		.4byte	0x1be
 657 024f 15       		.uleb128 0x15
 658 0250 0E000000 		.4byte	.LVL14
 659 0254 D4000000 		.4byte	0xd4
 660 0258 63020000 		.4byte	0x263
 661 025c 16       		.uleb128 0x16
 662 025d 01       		.uleb128 0x1
 663 025e 50       		.byte	0x50
 664 025f 02       		.uleb128 0x2
 665 0260 74       		.byte	0x74
ARM GAS  C:\Users\Elea\AppData\Local\Temp\ccpYzos7.s 			page 20


 666 0261 00       		.sleb128 0
 667 0262 00       		.byte	0
 668 0263 15       		.uleb128 0x15
 669 0264 14000000 		.4byte	.LVL15
 670 0268 0C010000 		.4byte	0x10c
 671 026c 76020000 		.4byte	0x276
 672 0270 16       		.uleb128 0x16
 673 0271 01       		.uleb128 0x1
 674 0272 50       		.byte	0x50
 675 0273 01       		.uleb128 0x1
 676 0274 33       		.byte	0x33
 677 0275 00       		.byte	0
 678 0276 0F       		.uleb128 0xf
 679 0277 18000000 		.4byte	.LVL16
 680 027b 96010000 		.4byte	0x196
 681 027f 00       		.byte	0
 682 0280 09       		.uleb128 0x9
 683 0281 25030000 		.4byte	.LASF30
 684 0285 01       		.byte	0x1
 685 0286 81       		.byte	0x81
 686 0287 00000000 		.4byte	.LFB2
 687 028b 14000000 		.4byte	.LFE2-.LFB2
 688 028f 01       		.uleb128 0x1
 689 0290 9C       		.byte	0x9c
 690 0291 A8020000 		.4byte	0x2a8
 691 0295 0F       		.uleb128 0xf
 692 0296 06000000 		.4byte	.LVL18
 693 029a BE010000 		.4byte	0x1be
 694 029e 0F       		.uleb128 0xf
 695 029f 0C000000 		.4byte	.LVL19
 696 02a3 D4000000 		.4byte	0xd4
 697 02a7 00       		.byte	0
 698 02a8 13       		.uleb128 0x13
 699 02a9 E2010000 		.4byte	.LASF31
 700 02ad 01       		.byte	0x1
 701 02ae 7501     		.2byte	0x175
 702 02b0 00000000 		.4byte	.LFB11
 703 02b4 0C000000 		.4byte	.LFE11-.LFB11
 704 02b8 01       		.uleb128 0x1
 705 02b9 9C       		.byte	0x9c
 706 02ba 13       		.uleb128 0x13
 707 02bb FE010000 		.4byte	.LASF32
 708 02bf 01       		.byte	0x1
 709 02c0 8E01     		.2byte	0x18e
 710 02c2 00000000 		.4byte	.LFB12
 711 02c6 0C000000 		.4byte	.LFE12-.LFB12
 712 02ca 01       		.uleb128 0x1
 713 02cb 9C       		.byte	0x9c
 714 02cc 17       		.uleb128 0x17
 715 02cd A9000000 		.4byte	0xa9
 716 02d1 DC020000 		.4byte	0x2dc
 717 02d5 18       		.uleb128 0x18
 718 02d6 BC000000 		.4byte	0xbc
 719 02da 2F       		.byte	0x2f
 720 02db 00       		.byte	0
 721 02dc 19       		.uleb128 0x19
 722 02dd 85000000 		.4byte	.LASF37
ARM GAS  C:\Users\Elea\AppData\Local\Temp\ccpYzos7.s 			page 21


 723 02e1 01       		.byte	0x1
 724 02e2 21       		.byte	0x21
 725 02e3 CC020000 		.4byte	0x2cc
 726 02e7 1A       		.uleb128 0x1a
 727 02e8 7C010000 		.4byte	.LASF38
 728 02ec 03       		.byte	0x3
 729 02ed E5       		.byte	0xe5
 730 02ee 6B000000 		.4byte	0x6b
 731 02f2 1B       		.uleb128 0x1b
 732 02f3 BF010000 		.4byte	.LASF39
 733 02f7 03       		.byte	0x3
 734 02f8 E6       		.byte	0xe6
 735 02f9 1C       		.uleb128 0x1c
 736 02fa 6B000000 		.4byte	0x6b
 737 02fe 00       		.byte	0
 738 02ff 00       		.byte	0
 739              		.section	.debug_abbrev,"",%progbits
 740              	.Ldebug_abbrev0:
 741 0000 01       		.uleb128 0x1
 742 0001 11       		.uleb128 0x11
 743 0002 01       		.byte	0x1
 744 0003 25       		.uleb128 0x25
 745 0004 0E       		.uleb128 0xe
 746 0005 13       		.uleb128 0x13
 747 0006 0B       		.uleb128 0xb
 748 0007 03       		.uleb128 0x3
 749 0008 0E       		.uleb128 0xe
 750 0009 1B       		.uleb128 0x1b
 751 000a 0E       		.uleb128 0xe
 752 000b 55       		.uleb128 0x55
 753 000c 17       		.uleb128 0x17
 754 000d 11       		.uleb128 0x11
 755 000e 01       		.uleb128 0x1
 756 000f 10       		.uleb128 0x10
 757 0010 17       		.uleb128 0x17
 758 0011 00       		.byte	0
 759 0012 00       		.byte	0
 760 0013 02       		.uleb128 0x2
 761 0014 24       		.uleb128 0x24
 762 0015 00       		.byte	0
 763 0016 0B       		.uleb128 0xb
 764 0017 0B       		.uleb128 0xb
 765 0018 3E       		.uleb128 0x3e
 766 0019 0B       		.uleb128 0xb
 767 001a 03       		.uleb128 0x3
 768 001b 0E       		.uleb128 0xe
 769 001c 00       		.byte	0
 770 001d 00       		.byte	0
 771 001e 03       		.uleb128 0x3
 772 001f 24       		.uleb128 0x24
 773 0020 00       		.byte	0
 774 0021 0B       		.uleb128 0xb
 775 0022 0B       		.uleb128 0xb
 776 0023 3E       		.uleb128 0x3e
 777 0024 0B       		.uleb128 0xb
 778 0025 03       		.uleb128 0x3
 779 0026 08       		.uleb128 0x8
ARM GAS  C:\Users\Elea\AppData\Local\Temp\ccpYzos7.s 			page 22


 780 0027 00       		.byte	0
 781 0028 00       		.byte	0
 782 0029 04       		.uleb128 0x4
 783 002a 16       		.uleb128 0x16
 784 002b 00       		.byte	0
 785 002c 03       		.uleb128 0x3
 786 002d 0E       		.uleb128 0xe
 787 002e 3A       		.uleb128 0x3a
 788 002f 0B       		.uleb128 0xb
 789 0030 3B       		.uleb128 0x3b
 790 0031 05       		.uleb128 0x5
 791 0032 49       		.uleb128 0x49
 792 0033 13       		.uleb128 0x13
 793 0034 00       		.byte	0
 794 0035 00       		.byte	0
 795 0036 05       		.uleb128 0x5
 796 0037 35       		.uleb128 0x35
 797 0038 00       		.byte	0
 798 0039 49       		.uleb128 0x49
 799 003a 13       		.uleb128 0x13
 800 003b 00       		.byte	0
 801 003c 00       		.byte	0
 802 003d 06       		.uleb128 0x6
 803 003e 0F       		.uleb128 0xf
 804 003f 00       		.byte	0
 805 0040 0B       		.uleb128 0xb
 806 0041 0B       		.uleb128 0xb
 807 0042 49       		.uleb128 0x49
 808 0043 13       		.uleb128 0x13
 809 0044 00       		.byte	0
 810 0045 00       		.byte	0
 811 0046 07       		.uleb128 0x7
 812 0047 15       		.uleb128 0x15
 813 0048 00       		.byte	0
 814 0049 27       		.uleb128 0x27
 815 004a 19       		.uleb128 0x19
 816 004b 00       		.byte	0
 817 004c 00       		.byte	0
 818 004d 08       		.uleb128 0x8
 819 004e 2E       		.uleb128 0x2e
 820 004f 00       		.byte	0
 821 0050 3F       		.uleb128 0x3f
 822 0051 19       		.uleb128 0x19
 823 0052 03       		.uleb128 0x3
 824 0053 0E       		.uleb128 0xe
 825 0054 3A       		.uleb128 0x3a
 826 0055 0B       		.uleb128 0xb
 827 0056 3B       		.uleb128 0x3b
 828 0057 0B       		.uleb128 0xb
 829 0058 27       		.uleb128 0x27
 830 0059 19       		.uleb128 0x19
 831 005a 11       		.uleb128 0x11
 832 005b 01       		.uleb128 0x1
 833 005c 12       		.uleb128 0x12
 834 005d 06       		.uleb128 0x6
 835 005e 40       		.uleb128 0x40
 836 005f 18       		.uleb128 0x18
ARM GAS  C:\Users\Elea\AppData\Local\Temp\ccpYzos7.s 			page 23


 837 0060 9742     		.uleb128 0x2117
 838 0062 19       		.uleb128 0x19
 839 0063 00       		.byte	0
 840 0064 00       		.byte	0
 841 0065 09       		.uleb128 0x9
 842 0066 2E       		.uleb128 0x2e
 843 0067 01       		.byte	0x1
 844 0068 3F       		.uleb128 0x3f
 845 0069 19       		.uleb128 0x19
 846 006a 03       		.uleb128 0x3
 847 006b 0E       		.uleb128 0xe
 848 006c 3A       		.uleb128 0x3a
 849 006d 0B       		.uleb128 0xb
 850 006e 3B       		.uleb128 0x3b
 851 006f 0B       		.uleb128 0xb
 852 0070 27       		.uleb128 0x27
 853 0071 19       		.uleb128 0x19
 854 0072 11       		.uleb128 0x11
 855 0073 01       		.uleb128 0x1
 856 0074 12       		.uleb128 0x12
 857 0075 06       		.uleb128 0x6
 858 0076 40       		.uleb128 0x40
 859 0077 18       		.uleb128 0x18
 860 0078 9742     		.uleb128 0x2117
 861 007a 19       		.uleb128 0x19
 862 007b 01       		.uleb128 0x1
 863 007c 13       		.uleb128 0x13
 864 007d 00       		.byte	0
 865 007e 00       		.byte	0
 866 007f 0A       		.uleb128 0xa
 867 0080 05       		.uleb128 0x5
 868 0081 00       		.byte	0
 869 0082 03       		.uleb128 0x3
 870 0083 0E       		.uleb128 0xe
 871 0084 3A       		.uleb128 0x3a
 872 0085 0B       		.uleb128 0xb
 873 0086 3B       		.uleb128 0x3b
 874 0087 0B       		.uleb128 0xb
 875 0088 49       		.uleb128 0x49
 876 0089 13       		.uleb128 0x13
 877 008a 02       		.uleb128 0x2
 878 008b 18       		.uleb128 0x18
 879 008c 00       		.byte	0
 880 008d 00       		.byte	0
 881 008e 0B       		.uleb128 0xb
 882 008f 2E       		.uleb128 0x2e
 883 0090 00       		.byte	0
 884 0091 3F       		.uleb128 0x3f
 885 0092 19       		.uleb128 0x19
 886 0093 03       		.uleb128 0x3
 887 0094 0E       		.uleb128 0xe
 888 0095 3A       		.uleb128 0x3a
 889 0096 0B       		.uleb128 0xb
 890 0097 3B       		.uleb128 0x3b
 891 0098 0B       		.uleb128 0xb
 892 0099 27       		.uleb128 0x27
 893 009a 19       		.uleb128 0x19
ARM GAS  C:\Users\Elea\AppData\Local\Temp\ccpYzos7.s 			page 24


 894 009b 49       		.uleb128 0x49
 895 009c 13       		.uleb128 0x13
 896 009d 11       		.uleb128 0x11
 897 009e 01       		.uleb128 0x1
 898 009f 12       		.uleb128 0x12
 899 00a0 06       		.uleb128 0x6
 900 00a1 40       		.uleb128 0x40
 901 00a2 18       		.uleb128 0x18
 902 00a3 9742     		.uleb128 0x2117
 903 00a5 19       		.uleb128 0x19
 904 00a6 00       		.byte	0
 905 00a7 00       		.byte	0
 906 00a8 0C       		.uleb128 0xc
 907 00a9 05       		.uleb128 0x5
 908 00aa 00       		.byte	0
 909 00ab 03       		.uleb128 0x3
 910 00ac 0E       		.uleb128 0xe
 911 00ad 3A       		.uleb128 0x3a
 912 00ae 0B       		.uleb128 0xb
 913 00af 3B       		.uleb128 0x3b
 914 00b0 0B       		.uleb128 0xb
 915 00b1 49       		.uleb128 0x49
 916 00b2 13       		.uleb128 0x13
 917 00b3 02       		.uleb128 0x2
 918 00b4 17       		.uleb128 0x17
 919 00b5 00       		.byte	0
 920 00b6 00       		.byte	0
 921 00b7 0D       		.uleb128 0xd
 922 00b8 34       		.uleb128 0x34
 923 00b9 00       		.byte	0
 924 00ba 03       		.uleb128 0x3
 925 00bb 0E       		.uleb128 0xe
 926 00bc 3A       		.uleb128 0x3a
 927 00bd 0B       		.uleb128 0xb
 928 00be 3B       		.uleb128 0x3b
 929 00bf 0B       		.uleb128 0xb
 930 00c0 49       		.uleb128 0x49
 931 00c1 13       		.uleb128 0x13
 932 00c2 02       		.uleb128 0x2
 933 00c3 17       		.uleb128 0x17
 934 00c4 00       		.byte	0
 935 00c5 00       		.byte	0
 936 00c6 0E       		.uleb128 0xe
 937 00c7 34       		.uleb128 0x34
 938 00c8 00       		.byte	0
 939 00c9 03       		.uleb128 0x3
 940 00ca 0E       		.uleb128 0xe
 941 00cb 3A       		.uleb128 0x3a
 942 00cc 0B       		.uleb128 0xb
 943 00cd 3B       		.uleb128 0x3b
 944 00ce 0B       		.uleb128 0xb
 945 00cf 49       		.uleb128 0x49
 946 00d0 13       		.uleb128 0x13
 947 00d1 1C       		.uleb128 0x1c
 948 00d2 0B       		.uleb128 0xb
 949 00d3 00       		.byte	0
 950 00d4 00       		.byte	0
ARM GAS  C:\Users\Elea\AppData\Local\Temp\ccpYzos7.s 			page 25


 951 00d5 0F       		.uleb128 0xf
 952 00d6 898201   		.uleb128 0x4109
 953 00d9 00       		.byte	0
 954 00da 11       		.uleb128 0x11
 955 00db 01       		.uleb128 0x1
 956 00dc 31       		.uleb128 0x31
 957 00dd 13       		.uleb128 0x13
 958 00de 00       		.byte	0
 959 00df 00       		.byte	0
 960 00e0 10       		.uleb128 0x10
 961 00e1 2E       		.uleb128 0x2e
 962 00e2 01       		.byte	0x1
 963 00e3 3F       		.uleb128 0x3f
 964 00e4 19       		.uleb128 0x19
 965 00e5 03       		.uleb128 0x3
 966 00e6 0E       		.uleb128 0xe
 967 00e7 3A       		.uleb128 0x3a
 968 00e8 0B       		.uleb128 0xb
 969 00e9 3B       		.uleb128 0x3b
 970 00ea 05       		.uleb128 0x5
 971 00eb 27       		.uleb128 0x27
 972 00ec 19       		.uleb128 0x19
 973 00ed 49       		.uleb128 0x49
 974 00ee 13       		.uleb128 0x13
 975 00ef 11       		.uleb128 0x11
 976 00f0 01       		.uleb128 0x1
 977 00f1 12       		.uleb128 0x12
 978 00f2 06       		.uleb128 0x6
 979 00f3 40       		.uleb128 0x40
 980 00f4 18       		.uleb128 0x18
 981 00f5 9742     		.uleb128 0x2117
 982 00f7 19       		.uleb128 0x19
 983 00f8 01       		.uleb128 0x1
 984 00f9 13       		.uleb128 0x13
 985 00fa 00       		.byte	0
 986 00fb 00       		.byte	0
 987 00fc 11       		.uleb128 0x11
 988 00fd 34       		.uleb128 0x34
 989 00fe 00       		.byte	0
 990 00ff 03       		.uleb128 0x3
 991 0100 0E       		.uleb128 0xe
 992 0101 3A       		.uleb128 0x3a
 993 0102 0B       		.uleb128 0xb
 994 0103 3B       		.uleb128 0x3b
 995 0104 05       		.uleb128 0x5
 996 0105 49       		.uleb128 0x49
 997 0106 13       		.uleb128 0x13
 998 0107 02       		.uleb128 0x2
 999 0108 17       		.uleb128 0x17
 1000 0109 00       		.byte	0
 1001 010a 00       		.byte	0
 1002 010b 12       		.uleb128 0x12
 1003 010c 34       		.uleb128 0x34
 1004 010d 00       		.byte	0
 1005 010e 03       		.uleb128 0x3
 1006 010f 0E       		.uleb128 0xe
 1007 0110 3A       		.uleb128 0x3a
ARM GAS  C:\Users\Elea\AppData\Local\Temp\ccpYzos7.s 			page 26


 1008 0111 0B       		.uleb128 0xb
 1009 0112 3B       		.uleb128 0x3b
 1010 0113 05       		.uleb128 0x5
 1011 0114 49       		.uleb128 0x49
 1012 0115 13       		.uleb128 0x13
 1013 0116 1C       		.uleb128 0x1c
 1014 0117 0B       		.uleb128 0xb
 1015 0118 00       		.byte	0
 1016 0119 00       		.byte	0
 1017 011a 13       		.uleb128 0x13
 1018 011b 2E       		.uleb128 0x2e
 1019 011c 00       		.byte	0
 1020 011d 3F       		.uleb128 0x3f
 1021 011e 19       		.uleb128 0x19
 1022 011f 03       		.uleb128 0x3
 1023 0120 0E       		.uleb128 0xe
 1024 0121 3A       		.uleb128 0x3a
 1025 0122 0B       		.uleb128 0xb
 1026 0123 3B       		.uleb128 0x3b
 1027 0124 05       		.uleb128 0x5
 1028 0125 27       		.uleb128 0x27
 1029 0126 19       		.uleb128 0x19
 1030 0127 11       		.uleb128 0x11
 1031 0128 01       		.uleb128 0x1
 1032 0129 12       		.uleb128 0x12
 1033 012a 06       		.uleb128 0x6
 1034 012b 40       		.uleb128 0x40
 1035 012c 18       		.uleb128 0x18
 1036 012d 9742     		.uleb128 0x2117
 1037 012f 19       		.uleb128 0x19
 1038 0130 00       		.byte	0
 1039 0131 00       		.byte	0
 1040 0132 14       		.uleb128 0x14
 1041 0133 2E       		.uleb128 0x2e
 1042 0134 00       		.byte	0
 1043 0135 3F       		.uleb128 0x3f
 1044 0136 19       		.uleb128 0x19
 1045 0137 03       		.uleb128 0x3
 1046 0138 0E       		.uleb128 0xe
 1047 0139 3A       		.uleb128 0x3a
 1048 013a 0B       		.uleb128 0xb
 1049 013b 3B       		.uleb128 0x3b
 1050 013c 05       		.uleb128 0x5
 1051 013d 27       		.uleb128 0x27
 1052 013e 19       		.uleb128 0x19
 1053 013f 49       		.uleb128 0x49
 1054 0140 13       		.uleb128 0x13
 1055 0141 11       		.uleb128 0x11
 1056 0142 01       		.uleb128 0x1
 1057 0143 12       		.uleb128 0x12
 1058 0144 06       		.uleb128 0x6
 1059 0145 40       		.uleb128 0x40
 1060 0146 18       		.uleb128 0x18
 1061 0147 9742     		.uleb128 0x2117
 1062 0149 19       		.uleb128 0x19
 1063 014a 00       		.byte	0
 1064 014b 00       		.byte	0
ARM GAS  C:\Users\Elea\AppData\Local\Temp\ccpYzos7.s 			page 27


 1065 014c 15       		.uleb128 0x15
 1066 014d 898201   		.uleb128 0x4109
 1067 0150 01       		.byte	0x1
 1068 0151 11       		.uleb128 0x11
 1069 0152 01       		.uleb128 0x1
 1070 0153 31       		.uleb128 0x31
 1071 0154 13       		.uleb128 0x13
 1072 0155 01       		.uleb128 0x1
 1073 0156 13       		.uleb128 0x13
 1074 0157 00       		.byte	0
 1075 0158 00       		.byte	0
 1076 0159 16       		.uleb128 0x16
 1077 015a 8A8201   		.uleb128 0x410a
 1078 015d 00       		.byte	0
 1079 015e 02       		.uleb128 0x2
 1080 015f 18       		.uleb128 0x18
 1081 0160 9142     		.uleb128 0x2111
 1082 0162 18       		.uleb128 0x18
 1083 0163 00       		.byte	0
 1084 0164 00       		.byte	0
 1085 0165 17       		.uleb128 0x17
 1086 0166 01       		.uleb128 0x1
 1087 0167 01       		.byte	0x1
 1088 0168 49       		.uleb128 0x49
 1089 0169 13       		.uleb128 0x13
 1090 016a 01       		.uleb128 0x1
 1091 016b 13       		.uleb128 0x13
 1092 016c 00       		.byte	0
 1093 016d 00       		.byte	0
 1094 016e 18       		.uleb128 0x18
 1095 016f 21       		.uleb128 0x21
 1096 0170 00       		.byte	0
 1097 0171 49       		.uleb128 0x49
 1098 0172 13       		.uleb128 0x13
 1099 0173 2F       		.uleb128 0x2f
 1100 0174 0B       		.uleb128 0xb
 1101 0175 00       		.byte	0
 1102 0176 00       		.byte	0
 1103 0177 19       		.uleb128 0x19
 1104 0178 34       		.uleb128 0x34
 1105 0179 00       		.byte	0
 1106 017a 03       		.uleb128 0x3
 1107 017b 0E       		.uleb128 0xe
 1108 017c 3A       		.uleb128 0x3a
 1109 017d 0B       		.uleb128 0xb
 1110 017e 3B       		.uleb128 0x3b
 1111 017f 0B       		.uleb128 0xb
 1112 0180 49       		.uleb128 0x49
 1113 0181 13       		.uleb128 0x13
 1114 0182 3F       		.uleb128 0x3f
 1115 0183 19       		.uleb128 0x19
 1116 0184 3C       		.uleb128 0x3c
 1117 0185 19       		.uleb128 0x19
 1118 0186 00       		.byte	0
 1119 0187 00       		.byte	0
 1120 0188 1A       		.uleb128 0x1a
 1121 0189 2E       		.uleb128 0x2e
ARM GAS  C:\Users\Elea\AppData\Local\Temp\ccpYzos7.s 			page 28


 1122 018a 00       		.byte	0
 1123 018b 3F       		.uleb128 0x3f
 1124 018c 19       		.uleb128 0x19
 1125 018d 03       		.uleb128 0x3
 1126 018e 0E       		.uleb128 0xe
 1127 018f 3A       		.uleb128 0x3a
 1128 0190 0B       		.uleb128 0xb
 1129 0191 3B       		.uleb128 0x3b
 1130 0192 0B       		.uleb128 0xb
 1131 0193 27       		.uleb128 0x27
 1132 0194 19       		.uleb128 0x19
 1133 0195 49       		.uleb128 0x49
 1134 0196 13       		.uleb128 0x13
 1135 0197 3C       		.uleb128 0x3c
 1136 0198 19       		.uleb128 0x19
 1137 0199 00       		.byte	0
 1138 019a 00       		.byte	0
 1139 019b 1B       		.uleb128 0x1b
 1140 019c 2E       		.uleb128 0x2e
 1141 019d 01       		.byte	0x1
 1142 019e 3F       		.uleb128 0x3f
 1143 019f 19       		.uleb128 0x19
 1144 01a0 03       		.uleb128 0x3
 1145 01a1 0E       		.uleb128 0xe
 1146 01a2 3A       		.uleb128 0x3a
 1147 01a3 0B       		.uleb128 0xb
 1148 01a4 3B       		.uleb128 0x3b
 1149 01a5 0B       		.uleb128 0xb
 1150 01a6 27       		.uleb128 0x27
 1151 01a7 19       		.uleb128 0x19
 1152 01a8 3C       		.uleb128 0x3c
 1153 01a9 19       		.uleb128 0x19
 1154 01aa 00       		.byte	0
 1155 01ab 00       		.byte	0
 1156 01ac 1C       		.uleb128 0x1c
 1157 01ad 05       		.uleb128 0x5
 1158 01ae 00       		.byte	0
 1159 01af 49       		.uleb128 0x49
 1160 01b0 13       		.uleb128 0x13
 1161 01b1 00       		.byte	0
 1162 01b2 00       		.byte	0
 1163 01b3 00       		.byte	0
 1164              		.section	.debug_loc,"",%progbits
 1165              	.Ldebug_loc0:
 1166              	.LLST0:
 1167 0000 00000000 		.4byte	.LVL1
 1168 0004 07000000 		.4byte	.LVL3-1
 1169 0008 0100     		.2byte	0x1
 1170 000a 50       		.byte	0x50
 1171 000b 07000000 		.4byte	.LVL3-1
 1172 000f 24000000 		.4byte	.LFE6
 1173 0013 0400     		.2byte	0x4
 1174 0015 F3       		.byte	0xf3
 1175 0016 01       		.uleb128 0x1
 1176 0017 50       		.byte	0x50
 1177 0018 9F       		.byte	0x9f
 1178 0019 00000000 		.4byte	0
ARM GAS  C:\Users\Elea\AppData\Local\Temp\ccpYzos7.s 			page 29


 1179 001d 00000000 		.4byte	0
 1180              	.LLST1:
 1181 0021 08000000 		.4byte	.LVL3
 1182 0025 19000000 		.4byte	.LVL4-1
 1183 0029 0100     		.2byte	0x1
 1184 002b 50       		.byte	0x50
 1185 002c 00000000 		.4byte	0
 1186 0030 00000000 		.4byte	0
 1187              	.LLST2:
 1188 0034 06000000 		.4byte	.LVL6
 1189 0038 08000000 		.4byte	.LVL7
 1190 003c 0500     		.2byte	0x5
 1191 003e 70       		.byte	0x70
 1192 003f 00       		.sleb128 0
 1193 0040 4E       		.byte	0x4e
 1194 0041 25       		.byte	0x25
 1195 0042 9F       		.byte	0x9f
 1196 0043 08000000 		.4byte	.LVL7
 1197 0047 10000000 		.4byte	.LFE7
 1198 004b 0100     		.2byte	0x1
 1199 004d 50       		.byte	0x50
 1200 004e 00000000 		.4byte	0
 1201 0052 00000000 		.4byte	0
 1202              	.LLST3:
 1203 0056 00000000 		.4byte	.LVL12
 1204 005a 07000000 		.4byte	.LVL13-1
 1205 005e 0100     		.2byte	0x1
 1206 0060 50       		.byte	0x50
 1207 0061 07000000 		.4byte	.LVL13-1
 1208 0065 18000000 		.4byte	.LVL17
 1209 0069 0100     		.2byte	0x1
 1210 006b 54       		.byte	0x54
 1211 006c 18000000 		.4byte	.LVL17
 1212 0070 1A000000 		.4byte	.LFE1
 1213 0074 0400     		.2byte	0x4
 1214 0076 F3       		.byte	0xf3
 1215 0077 01       		.uleb128 0x1
 1216 0078 50       		.byte	0x50
 1217 0079 9F       		.byte	0x9f
 1218 007a 00000000 		.4byte	0
 1219 007e 00000000 		.4byte	0
 1220              		.section	.debug_aranges,"",%progbits
 1221 0000 7C000000 		.4byte	0x7c
 1222 0004 0200     		.2byte	0x2
 1223 0006 00000000 		.4byte	.Ldebug_info0
 1224 000a 04       		.byte	0x4
 1225 000b 00       		.byte	0
 1226 000c 0000     		.2byte	0
 1227 000e 0000     		.2byte	0
 1228 0010 00000000 		.4byte	.LFB3
 1229 0014 02000000 		.4byte	.LFE3-.LFB3
 1230 0018 00000000 		.4byte	.LFB4
 1231 001c 0C000000 		.4byte	.LFE4-.LFB4
 1232 0020 00000000 		.4byte	.LFB5
 1233 0024 0C000000 		.4byte	.LFE5-.LFB5
 1234 0028 00000000 		.4byte	.LFB6
 1235 002c 24000000 		.4byte	.LFE6-.LFB6
ARM GAS  C:\Users\Elea\AppData\Local\Temp\ccpYzos7.s 			page 30


 1236 0030 00000000 		.4byte	.LFB7
 1237 0034 10000000 		.4byte	.LFE7-.LFB7
 1238 0038 00000000 		.4byte	.LFB8
 1239 003c 0C000000 		.4byte	.LFE8-.LFB8
 1240 0040 00000000 		.4byte	.LFB9
 1241 0044 14000000 		.4byte	.LFE9-.LFB9
 1242 0048 00000000 		.4byte	.LFB10
 1243 004c 0C000000 		.4byte	.LFE10-.LFB10
 1244 0050 00000000 		.4byte	.LFB0
 1245 0054 1C000000 		.4byte	.LFE0-.LFB0
 1246 0058 00000000 		.4byte	.LFB1
 1247 005c 1A000000 		.4byte	.LFE1-.LFB1
 1248 0060 00000000 		.4byte	.LFB2
 1249 0064 14000000 		.4byte	.LFE2-.LFB2
 1250 0068 00000000 		.4byte	.LFB11
 1251 006c 0C000000 		.4byte	.LFE11-.LFB11
 1252 0070 00000000 		.4byte	.LFB12
 1253 0074 0C000000 		.4byte	.LFE12-.LFB12
 1254 0078 00000000 		.4byte	0
 1255 007c 00000000 		.4byte	0
 1256              		.section	.debug_ranges,"",%progbits
 1257              	.Ldebug_ranges0:
 1258 0000 00000000 		.4byte	.LFB3
 1259 0004 02000000 		.4byte	.LFE3
 1260 0008 00000000 		.4byte	.LFB4
 1261 000c 0C000000 		.4byte	.LFE4
 1262 0010 00000000 		.4byte	.LFB5
 1263 0014 0C000000 		.4byte	.LFE5
 1264 0018 00000000 		.4byte	.LFB6
 1265 001c 24000000 		.4byte	.LFE6
 1266 0020 00000000 		.4byte	.LFB7
 1267 0024 10000000 		.4byte	.LFE7
 1268 0028 00000000 		.4byte	.LFB8
 1269 002c 0C000000 		.4byte	.LFE8
 1270 0030 00000000 		.4byte	.LFB9
 1271 0034 14000000 		.4byte	.LFE9
 1272 0038 00000000 		.4byte	.LFB10
 1273 003c 0C000000 		.4byte	.LFE10
 1274 0040 00000000 		.4byte	.LFB0
 1275 0044 1C000000 		.4byte	.LFE0
 1276 0048 00000000 		.4byte	.LFB1
 1277 004c 1A000000 		.4byte	.LFE1
 1278 0050 00000000 		.4byte	.LFB2
 1279 0054 14000000 		.4byte	.LFE2
 1280 0058 00000000 		.4byte	.LFB11
 1281 005c 0C000000 		.4byte	.LFE11
 1282 0060 00000000 		.4byte	.LFB12
 1283 0064 0C000000 		.4byte	.LFE12
 1284 0068 00000000 		.4byte	0
 1285 006c 00000000 		.4byte	0
 1286              		.section	.debug_line,"",%progbits
 1287              	.Ldebug_line0:
 1288 0000 58010000 		.section	.debug_str,"MS",%progbits,1
 1288      02005800 
 1288      00000201 
 1288      FB0E0D00 
 1288      01010101 
ARM GAS  C:\Users\Elea\AppData\Local\Temp\ccpYzos7.s 			page 31


 1289              	.LASF14:
 1290 0000 72656733 		.ascii	"reg32\000"
 1290      3200
 1291              	.LASF34:
 1292 0006 47656E65 		.ascii	"Generated_Source\\PSoC4\\IsrExternalINPUT.c\000"
 1292      72617465 
 1292      645F536F 
 1292      75726365 
 1292      5C50536F 
 1293              	.LASF26:
 1294 0030 49737245 		.ascii	"IsrExternalINPUT_GetState\000"
 1294      78746572 
 1294      6E616C49 
 1294      4E505554 
 1294      5F476574 
 1295              	.LASF35:
 1296 004a 433A5C55 		.ascii	"C:\\Users\\Elea\\Desktop\\DESARROLLO\\EleaTouch\\El"
 1296      73657273 
 1296      5C456C65 
 1296      615C4465 
 1296      736B746F 
 1297 0077 6561546F 		.ascii	"eaTouch.cydsn\000"
 1297      7563682E 
 1297      63796473 
 1297      6E00
 1298              	.LASF37:
 1299 0085 43795261 		.ascii	"CyRamVectors\000"
 1299      6D566563 
 1299      746F7273 
 1299      00
 1300              	.LASF17:
 1301 0092 49737245 		.ascii	"IsrExternalINPUT_SetVector\000"
 1301      78746572 
 1301      6E616C49 
 1301      4E505554 
 1301      5F536574 
 1302              	.LASF3:
 1303 00ad 73686F72 		.ascii	"short unsigned int\000"
 1303      7420756E 
 1303      7369676E 
 1303      65642069 
 1303      6E7400
 1304              	.LASF18:
 1305 00c0 49737245 		.ascii	"IsrExternalINPUT_SetPriority\000"
 1305      78746572 
 1305      6E616C49 
 1305      4E505554 
 1305      5F536574 
 1306              	.LASF11:
 1307 00dd 666C6F61 		.ascii	"float\000"
 1307      7400
 1308              	.LASF7:
 1309 00e3 6C6F6E67 		.ascii	"long long unsigned int\000"
 1309      206C6F6E 
 1309      6720756E 
 1309      7369676E 
 1309      65642069 
ARM GAS  C:\Users\Elea\AppData\Local\Temp\ccpYzos7.s 			page 32


 1310              	.LASF1:
 1311 00fa 756E7369 		.ascii	"unsigned char\000"
 1311      676E6564 
 1311      20636861 
 1311      7200
 1312              	.LASF21:
 1313 0108 696E7465 		.ascii	"interruptState\000"
 1313      72727570 
 1313      74537461 
 1313      746500
 1314              	.LASF5:
 1315 0117 6C6F6E67 		.ascii	"long unsigned int\000"
 1315      20756E73 
 1315      69676E65 
 1315      6420696E 
 1315      7400
 1316              	.LASF9:
 1317 0129 75696E74 		.ascii	"uint8\000"
 1317      3800
 1318              	.LASF20:
 1319 012f 7072696F 		.ascii	"priority\000"
 1319      72697479 
 1319      00
 1320              	.LASF12:
 1321 0138 646F7562 		.ascii	"double\000"
 1321      6C6500
 1322              	.LASF25:
 1323 013f 49737245 		.ascii	"IsrExternalINPUT_GetVector\000"
 1323      78746572 
 1323      6E616C49 
 1323      4E505554 
 1323      5F476574 
 1324              	.LASF23:
 1325 015a 49737245 		.ascii	"IsrExternalINPUT_Interrupt\000"
 1325      78746572 
 1325      6E616C49 
 1325      4E505554 
 1325      5F496E74 
 1326              	.LASF10:
 1327 0175 75696E74 		.ascii	"uint32\000"
 1327      333200
 1328              	.LASF38:
 1329 017c 4379456E 		.ascii	"CyEnterCriticalSection\000"
 1329      74657243 
 1329      72697469 
 1329      63616C53 
 1329      65637469 
 1330              	.LASF8:
 1331 0193 756E7369 		.ascii	"unsigned int\000"
 1331      676E6564 
 1331      20696E74 
 1331      00
 1332              	.LASF28:
 1333 01a0 49737245 		.ascii	"IsrExternalINPUT_Start\000"
 1333      78746572 
 1333      6E616C49 
 1333      4E505554 
ARM GAS  C:\Users\Elea\AppData\Local\Temp\ccpYzos7.s 			page 33


 1333      5F537461 
 1334              	.LASF19:
 1335 01b7 61646472 		.ascii	"address\000"
 1335      65737300 
 1336              	.LASF39:
 1337 01bf 43794578 		.ascii	"CyExitCriticalSection\000"
 1337      69744372 
 1337      69746963 
 1337      616C5365 
 1337      6374696F 
 1338              	.LASF15:
 1339 01d5 63796973 		.ascii	"cyisraddress\000"
 1339      72616464 
 1339      72657373 
 1339      00
 1340              	.LASF31:
 1341 01e2 49737245 		.ascii	"IsrExternalINPUT_SetPending\000"
 1341      78746572 
 1341      6E616C49 
 1341      4E505554 
 1341      5F536574 
 1342              	.LASF32:
 1343 01fe 49737245 		.ascii	"IsrExternalINPUT_ClearPending\000"
 1343      78746572 
 1343      6E616C49 
 1343      4E505554 
 1343      5F436C65 
 1344              	.LASF16:
 1345 021c 73697A65 		.ascii	"sizetype\000"
 1345      74797065 
 1345      00
 1346              	.LASF6:
 1347 0225 6C6F6E67 		.ascii	"long long int\000"
 1347      206C6F6E 
 1347      6720696E 
 1347      7400
 1348              	.LASF13:
 1349 0233 63686172 		.ascii	"char\000"
 1349      00
 1350              	.LASF33:
 1351 0238 474E5520 		.ascii	"GNU C 4.9.3 20150303 (release) [ARM/embedded-4_9-br"
 1351      4320342E 
 1351      392E3320 
 1351      32303135 
 1351      30333033 
 1352 026b 616E6368 		.ascii	"anch revision 221220] -mcpu=cortex-m0 -mthumb -g -O"
 1352      20726576 
 1352      6973696F 
 1352      6E203232 
 1352      31323230 
 1353 029e 67202D66 		.ascii	"g -ffunction-sections -ffat-lto-objects\000"
 1353      66756E63 
 1353      74696F6E 
 1353      2D736563 
 1353      74696F6E 
 1354              	.LASF2:
 1355 02c6 73686F72 		.ascii	"short int\000"
ARM GAS  C:\Users\Elea\AppData\Local\Temp\ccpYzos7.s 			page 34


 1355      7420696E 
 1355      7400
 1356              	.LASF29:
 1357 02d0 49737245 		.ascii	"IsrExternalINPUT_StartEx\000"
 1357      78746572 
 1357      6E616C49 
 1357      4E505554 
 1357      5F537461 
 1358              	.LASF22:
 1359 02e9 7072696F 		.ascii	"priorityOffset\000"
 1359      72697479 
 1359      4F666673 
 1359      657400
 1360              	.LASF4:
 1361 02f8 6C6F6E67 		.ascii	"long int\000"
 1361      20696E74 
 1361      00
 1362              	.LASF24:
 1363 0301 49737245 		.ascii	"IsrExternalINPUT_Enable\000"
 1363      78746572 
 1363      6E616C49 
 1363      4E505554 
 1363      5F456E61 
 1364              	.LASF0:
 1365 0319 7369676E 		.ascii	"signed char\000"
 1365      65642063 
 1365      68617200 
 1366              	.LASF30:
 1367 0325 49737245 		.ascii	"IsrExternalINPUT_Stop\000"
 1367      78746572 
 1367      6E616C49 
 1367      4E505554 
 1367      5F53746F 
 1368              	.LASF36:
 1369 033b 49737245 		.ascii	"IsrExternalINPUT_GetPriority\000"
 1369      78746572 
 1369      6E616C49 
 1369      4E505554 
 1369      5F476574 
 1370              	.LASF27:
 1371 0358 49737245 		.ascii	"IsrExternalINPUT_Disable\000"
 1371      78746572 
 1371      6E616C49 
 1371      4E505554 
 1371      5F446973 
 1372              		.ident	"GCC: (GNU Tools for ARM Embedded Processors) 4.9.3 20150303 (release) [ARM/embedded-4_9-br
