ARM GAS  C:\Users\Elea\AppData\Local\Temp\cc42TJkk.s 			page 1


   1              		.cpu cortex-m0
   2              		.fpu softvfp
   3              		.eabi_attribute 20, 1
   4              		.eabi_attribute 21, 1
   5              		.eabi_attribute 23, 3
   6              		.eabi_attribute 24, 1
   7              		.eabi_attribute 25, 1
   8              		.eabi_attribute 26, 1
   9              		.eabi_attribute 30, 1
  10              		.eabi_attribute 34, 0
  11              		.eabi_attribute 18, 4
  12              		.code	16
  13              		.file	"SinUsar_25.c"
  14              		.text
  15              	.Ltext0:
  16              		.cfi_sections	.debug_frame
  17              		.section	.text.SinUsar_25_SetDriveMode,"ax",%progbits
  18              		.align	2
  19              		.global	SinUsar_25_SetDriveMode
  20              		.code	16
  21              		.thumb_func
  22              		.type	SinUsar_25_SetDriveMode, %function
  23              	SinUsar_25_SetDriveMode:
  24              	.LFB0:
  25              		.file 1 "Generated_Source\\PSoC4\\SinUsar_25.c"
   1:Generated_Source\PSoC4/SinUsar_25.c **** /*******************************************************************************
   2:Generated_Source\PSoC4/SinUsar_25.c **** * File Name: SinUsar_25.c  
   3:Generated_Source\PSoC4/SinUsar_25.c **** * Version 2.20
   4:Generated_Source\PSoC4/SinUsar_25.c **** *
   5:Generated_Source\PSoC4/SinUsar_25.c **** * Description:
   6:Generated_Source\PSoC4/SinUsar_25.c **** *  This file contains API to enable firmware control of a Pins component.
   7:Generated_Source\PSoC4/SinUsar_25.c **** *
   8:Generated_Source\PSoC4/SinUsar_25.c **** ********************************************************************************
   9:Generated_Source\PSoC4/SinUsar_25.c **** * Copyright 2008-2015, Cypress Semiconductor Corporation.  All rights reserved.
  10:Generated_Source\PSoC4/SinUsar_25.c **** * You may use this file only in accordance with the license, terms, conditions, 
  11:Generated_Source\PSoC4/SinUsar_25.c **** * disclaimers, and limitations in the end user license agreement accompanying 
  12:Generated_Source\PSoC4/SinUsar_25.c **** * the software package with which this file was provided.
  13:Generated_Source\PSoC4/SinUsar_25.c **** *******************************************************************************/
  14:Generated_Source\PSoC4/SinUsar_25.c **** 
  15:Generated_Source\PSoC4/SinUsar_25.c **** #include "cytypes.h"
  16:Generated_Source\PSoC4/SinUsar_25.c **** #include "SinUsar_25.h"
  17:Generated_Source\PSoC4/SinUsar_25.c **** 
  18:Generated_Source\PSoC4/SinUsar_25.c **** 
  19:Generated_Source\PSoC4/SinUsar_25.c **** #if defined(SinUsar_25__PC)
  20:Generated_Source\PSoC4/SinUsar_25.c ****     #define SinUsar_25_SetP4PinDriveMode(shift, mode)  \
  21:Generated_Source\PSoC4/SinUsar_25.c ****     do { \
  22:Generated_Source\PSoC4/SinUsar_25.c ****         SinUsar_25_PC =   (SinUsar_25_PC & \
  23:Generated_Source\PSoC4/SinUsar_25.c ****                                 (uint32)(~(uint32)(SinUsar_25_DRIVE_MODE_IND_MASK << \
  24:Generated_Source\PSoC4/SinUsar_25.c ****                                 (SinUsar_25_DRIVE_MODE_BITS * (shift))))) | \
  25:Generated_Source\PSoC4/SinUsar_25.c ****                                 (uint32)((uint32)(mode) << \
  26:Generated_Source\PSoC4/SinUsar_25.c ****                                 (SinUsar_25_DRIVE_MODE_BITS * (shift))); \
  27:Generated_Source\PSoC4/SinUsar_25.c ****     } while (0)
  28:Generated_Source\PSoC4/SinUsar_25.c **** #else
  29:Generated_Source\PSoC4/SinUsar_25.c ****     #if (CY_PSOC4_4200L)
  30:Generated_Source\PSoC4/SinUsar_25.c ****         #define SinUsar_25_SetP4PinDriveMode(shift, mode)  \
  31:Generated_Source\PSoC4/SinUsar_25.c ****         do { \
  32:Generated_Source\PSoC4/SinUsar_25.c ****             SinUsar_25_USBIO_CTRL_REG = (SinUsar_25_USBIO_CTRL_REG & \
ARM GAS  C:\Users\Elea\AppData\Local\Temp\cc42TJkk.s 			page 2


  33:Generated_Source\PSoC4/SinUsar_25.c ****                                     (uint32)(~(uint32)(SinUsar_25_DRIVE_MODE_IND_MASK << \
  34:Generated_Source\PSoC4/SinUsar_25.c ****                                     (SinUsar_25_DRIVE_MODE_BITS * (shift))))) | \
  35:Generated_Source\PSoC4/SinUsar_25.c ****                                     (uint32)((uint32)(mode) << \
  36:Generated_Source\PSoC4/SinUsar_25.c ****                                     (SinUsar_25_DRIVE_MODE_BITS * (shift))); \
  37:Generated_Source\PSoC4/SinUsar_25.c ****         } while (0)
  38:Generated_Source\PSoC4/SinUsar_25.c ****     #endif
  39:Generated_Source\PSoC4/SinUsar_25.c **** #endif
  40:Generated_Source\PSoC4/SinUsar_25.c ****   
  41:Generated_Source\PSoC4/SinUsar_25.c **** 
  42:Generated_Source\PSoC4/SinUsar_25.c **** #if defined(SinUsar_25__PC) || (CY_PSOC4_4200L) 
  43:Generated_Source\PSoC4/SinUsar_25.c ****     /*******************************************************************************
  44:Generated_Source\PSoC4/SinUsar_25.c ****     * Function Name: SinUsar_25_SetDriveMode
  45:Generated_Source\PSoC4/SinUsar_25.c ****     ****************************************************************************//**
  46:Generated_Source\PSoC4/SinUsar_25.c ****     *
  47:Generated_Source\PSoC4/SinUsar_25.c ****     * \brief Sets the drive mode for each of the Pins component's pins.
  48:Generated_Source\PSoC4/SinUsar_25.c ****     * 
  49:Generated_Source\PSoC4/SinUsar_25.c ****     * <b>Note</b> This affects all pins in the Pins component instance. Use the
  50:Generated_Source\PSoC4/SinUsar_25.c ****     * Per-Pin APIs if you wish to control individual pin's drive modes.
  51:Generated_Source\PSoC4/SinUsar_25.c ****     *
  52:Generated_Source\PSoC4/SinUsar_25.c ****     * <b>Note</b> USBIOs have limited drive functionality. Refer to the Drive Mode
  53:Generated_Source\PSoC4/SinUsar_25.c ****     * parameter for more information.
  54:Generated_Source\PSoC4/SinUsar_25.c ****     *
  55:Generated_Source\PSoC4/SinUsar_25.c ****     * \param mode
  56:Generated_Source\PSoC4/SinUsar_25.c ****     *  Mode for the selected signals. Valid options are documented in 
  57:Generated_Source\PSoC4/SinUsar_25.c ****     *  \ref driveMode.
  58:Generated_Source\PSoC4/SinUsar_25.c ****     *
  59:Generated_Source\PSoC4/SinUsar_25.c ****     * \return
  60:Generated_Source\PSoC4/SinUsar_25.c ****     *  None
  61:Generated_Source\PSoC4/SinUsar_25.c ****     *
  62:Generated_Source\PSoC4/SinUsar_25.c ****     * \sideeffect
  63:Generated_Source\PSoC4/SinUsar_25.c ****     *  If you use read-modify-write operations that are not atomic, the ISR can
  64:Generated_Source\PSoC4/SinUsar_25.c ****     *  cause corruption of this function. An ISR that interrupts this function 
  65:Generated_Source\PSoC4/SinUsar_25.c ****     *  and performs writes to the Pins component Drive Mode registers can cause 
  66:Generated_Source\PSoC4/SinUsar_25.c ****     *  corrupted port data. To avoid this issue, you should either use the Per-Pin
  67:Generated_Source\PSoC4/SinUsar_25.c ****     *  APIs (primary method) or disable interrupts around this function.
  68:Generated_Source\PSoC4/SinUsar_25.c ****     *
  69:Generated_Source\PSoC4/SinUsar_25.c ****     * \funcusage
  70:Generated_Source\PSoC4/SinUsar_25.c ****     *  \snippet SinUsar_25_SUT.c usage_SinUsar_25_SetDriveMode
  71:Generated_Source\PSoC4/SinUsar_25.c ****     *******************************************************************************/
  72:Generated_Source\PSoC4/SinUsar_25.c ****     void SinUsar_25_SetDriveMode(uint8 mode)
  73:Generated_Source\PSoC4/SinUsar_25.c ****     {
  26              		.loc 1 73 0
  27              		.cfi_startproc
  28              	.LVL0:
  74:Generated_Source\PSoC4/SinUsar_25.c **** 		SinUsar_25_SetP4PinDriveMode(SinUsar_25__0__SHIFT, mode);
  29              		.loc 1 74 0
  30 0000 034A     		ldr	r2, .L2
  31 0002 1168     		ldr	r1, [r2]
  32 0004 034B     		ldr	r3, .L2+4
  33 0006 0B40     		and	r3, r1
  34 0008 0003     		lsl	r0, r0, #12
  35              	.LVL1:
  36 000a 1843     		orr	r0, r3
  37 000c 1060     		str	r0, [r2]
  75:Generated_Source\PSoC4/SinUsar_25.c ****     }
  38              		.loc 1 75 0
  39              		@ sp needed
ARM GAS  C:\Users\Elea\AppData\Local\Temp\cc42TJkk.s 			page 3


  40 000e 7047     		bx	lr
  41              	.L3:
  42              		.align	2
  43              	.L2:
  44 0010 08020440 		.word	1074004488
  45 0014 FF8FFFFF 		.word	-28673
  46              		.cfi_endproc
  47              	.LFE0:
  48              		.size	SinUsar_25_SetDriveMode, .-SinUsar_25_SetDriveMode
  49              		.section	.text.SinUsar_25_Write,"ax",%progbits
  50              		.align	2
  51              		.global	SinUsar_25_Write
  52              		.code	16
  53              		.thumb_func
  54              		.type	SinUsar_25_Write, %function
  55              	SinUsar_25_Write:
  56              	.LFB1:
  76:Generated_Source\PSoC4/SinUsar_25.c **** #endif
  77:Generated_Source\PSoC4/SinUsar_25.c **** 
  78:Generated_Source\PSoC4/SinUsar_25.c **** 
  79:Generated_Source\PSoC4/SinUsar_25.c **** /*******************************************************************************
  80:Generated_Source\PSoC4/SinUsar_25.c **** * Function Name: SinUsar_25_Write
  81:Generated_Source\PSoC4/SinUsar_25.c **** ****************************************************************************//**
  82:Generated_Source\PSoC4/SinUsar_25.c **** *
  83:Generated_Source\PSoC4/SinUsar_25.c **** * \brief Writes the value to the physical port (data output register), masking
  84:Generated_Source\PSoC4/SinUsar_25.c **** *  and shifting the bits appropriately. 
  85:Generated_Source\PSoC4/SinUsar_25.c **** *
  86:Generated_Source\PSoC4/SinUsar_25.c **** * The data output register controls the signal applied to the physical pin in 
  87:Generated_Source\PSoC4/SinUsar_25.c **** * conjunction with the drive mode parameter. This function avoids changing 
  88:Generated_Source\PSoC4/SinUsar_25.c **** * other bits in the port by using the appropriate method (read-modify-write or
  89:Generated_Source\PSoC4/SinUsar_25.c **** * bit banding).
  90:Generated_Source\PSoC4/SinUsar_25.c **** *
  91:Generated_Source\PSoC4/SinUsar_25.c **** * <b>Note</b> This function should not be used on a hardware digital output pin 
  92:Generated_Source\PSoC4/SinUsar_25.c **** * as it is driven by the hardware signal attached to it.
  93:Generated_Source\PSoC4/SinUsar_25.c **** *
  94:Generated_Source\PSoC4/SinUsar_25.c **** * \param value
  95:Generated_Source\PSoC4/SinUsar_25.c **** *  Value to write to the component instance.
  96:Generated_Source\PSoC4/SinUsar_25.c **** *
  97:Generated_Source\PSoC4/SinUsar_25.c **** * \return 
  98:Generated_Source\PSoC4/SinUsar_25.c **** *  None 
  99:Generated_Source\PSoC4/SinUsar_25.c **** *
 100:Generated_Source\PSoC4/SinUsar_25.c **** * \sideeffect
 101:Generated_Source\PSoC4/SinUsar_25.c **** *  If you use read-modify-write operations that are not atomic; the Interrupt 
 102:Generated_Source\PSoC4/SinUsar_25.c **** *  Service Routines (ISR) can cause corruption of this function. An ISR that 
 103:Generated_Source\PSoC4/SinUsar_25.c **** *  interrupts this function and performs writes to the Pins component data 
 104:Generated_Source\PSoC4/SinUsar_25.c **** *  register can cause corrupted port data. To avoid this issue, you should 
 105:Generated_Source\PSoC4/SinUsar_25.c **** *  either use the Per-Pin APIs (primary method) or disable interrupts around 
 106:Generated_Source\PSoC4/SinUsar_25.c **** *  this function.
 107:Generated_Source\PSoC4/SinUsar_25.c **** *
 108:Generated_Source\PSoC4/SinUsar_25.c **** * \funcusage
 109:Generated_Source\PSoC4/SinUsar_25.c **** *  \snippet SinUsar_25_SUT.c usage_SinUsar_25_Write
 110:Generated_Source\PSoC4/SinUsar_25.c **** *******************************************************************************/
 111:Generated_Source\PSoC4/SinUsar_25.c **** void SinUsar_25_Write(uint8 value)
 112:Generated_Source\PSoC4/SinUsar_25.c **** {
  57              		.loc 1 112 0
  58              		.cfi_startproc
  59              	.LVL2:
ARM GAS  C:\Users\Elea\AppData\Local\Temp\cc42TJkk.s 			page 4


 113:Generated_Source\PSoC4/SinUsar_25.c ****     uint8 drVal = (uint8)(SinUsar_25_DR & (uint8)(~SinUsar_25_MASK));
  60              		.loc 1 113 0
  61 0000 0449     		ldr	r1, .L5
  62 0002 0A68     		ldr	r2, [r1]
  63 0004 EF23     		mov	r3, #239
  64 0006 1A40     		and	r2, r3
  65              	.LVL3:
 114:Generated_Source\PSoC4/SinUsar_25.c ****     drVal = (drVal | ((uint8)(value << SinUsar_25_SHIFT) & SinUsar_25_MASK));
  66              		.loc 1 114 0
  67 0008 0001     		lsl	r0, r0, #4
  68              	.LVL4:
  69 000a DF3B     		sub	r3, r3, #223
  70 000c 1840     		and	r0, r3
  71 000e 1043     		orr	r0, r2
  72              	.LVL5:
 115:Generated_Source\PSoC4/SinUsar_25.c ****     SinUsar_25_DR = (uint32)drVal;
  73              		.loc 1 115 0
  74 0010 0860     		str	r0, [r1]
 116:Generated_Source\PSoC4/SinUsar_25.c **** }
  75              		.loc 1 116 0
  76              		@ sp needed
  77 0012 7047     		bx	lr
  78              	.L6:
  79              		.align	2
  80              	.L5:
  81 0014 00020440 		.word	1074004480
  82              		.cfi_endproc
  83              	.LFE1:
  84              		.size	SinUsar_25_Write, .-SinUsar_25_Write
  85              		.section	.text.SinUsar_25_Read,"ax",%progbits
  86              		.align	2
  87              		.global	SinUsar_25_Read
  88              		.code	16
  89              		.thumb_func
  90              		.type	SinUsar_25_Read, %function
  91              	SinUsar_25_Read:
  92              	.LFB2:
 117:Generated_Source\PSoC4/SinUsar_25.c **** 
 118:Generated_Source\PSoC4/SinUsar_25.c **** 
 119:Generated_Source\PSoC4/SinUsar_25.c **** /*******************************************************************************
 120:Generated_Source\PSoC4/SinUsar_25.c **** * Function Name: SinUsar_25_Read
 121:Generated_Source\PSoC4/SinUsar_25.c **** ****************************************************************************//**
 122:Generated_Source\PSoC4/SinUsar_25.c **** *
 123:Generated_Source\PSoC4/SinUsar_25.c **** * \brief Reads the associated physical port (pin status register) and masks 
 124:Generated_Source\PSoC4/SinUsar_25.c **** *  the required bits according to the width and bit position of the component
 125:Generated_Source\PSoC4/SinUsar_25.c **** *  instance. 
 126:Generated_Source\PSoC4/SinUsar_25.c **** *
 127:Generated_Source\PSoC4/SinUsar_25.c **** * The pin's status register returns the current logic level present on the 
 128:Generated_Source\PSoC4/SinUsar_25.c **** * physical pin.
 129:Generated_Source\PSoC4/SinUsar_25.c **** *
 130:Generated_Source\PSoC4/SinUsar_25.c **** * \return 
 131:Generated_Source\PSoC4/SinUsar_25.c **** *  The current value for the pins in the component as a right justified number.
 132:Generated_Source\PSoC4/SinUsar_25.c **** *
 133:Generated_Source\PSoC4/SinUsar_25.c **** * \funcusage
 134:Generated_Source\PSoC4/SinUsar_25.c **** *  \snippet SinUsar_25_SUT.c usage_SinUsar_25_Read  
 135:Generated_Source\PSoC4/SinUsar_25.c **** *******************************************************************************/
 136:Generated_Source\PSoC4/SinUsar_25.c **** uint8 SinUsar_25_Read(void)
ARM GAS  C:\Users\Elea\AppData\Local\Temp\cc42TJkk.s 			page 5


 137:Generated_Source\PSoC4/SinUsar_25.c **** {
  93              		.loc 1 137 0
  94              		.cfi_startproc
 138:Generated_Source\PSoC4/SinUsar_25.c ****     return (uint8)((SinUsar_25_PS & SinUsar_25_MASK) >> SinUsar_25_SHIFT);
  95              		.loc 1 138 0
  96 0000 024B     		ldr	r3, .L8
  97 0002 1868     		ldr	r0, [r3]
  98 0004 C006     		lsl	r0, r0, #27
  99 0006 C00F     		lsr	r0, r0, #31
 139:Generated_Source\PSoC4/SinUsar_25.c **** }
 100              		.loc 1 139 0
 101              		@ sp needed
 102 0008 7047     		bx	lr
 103              	.L9:
 104 000a C046     		.align	2
 105              	.L8:
 106 000c 04020440 		.word	1074004484
 107              		.cfi_endproc
 108              	.LFE2:
 109              		.size	SinUsar_25_Read, .-SinUsar_25_Read
 110              		.section	.text.SinUsar_25_ReadDataReg,"ax",%progbits
 111              		.align	2
 112              		.global	SinUsar_25_ReadDataReg
 113              		.code	16
 114              		.thumb_func
 115              		.type	SinUsar_25_ReadDataReg, %function
 116              	SinUsar_25_ReadDataReg:
 117              	.LFB3:
 140:Generated_Source\PSoC4/SinUsar_25.c **** 
 141:Generated_Source\PSoC4/SinUsar_25.c **** 
 142:Generated_Source\PSoC4/SinUsar_25.c **** /*******************************************************************************
 143:Generated_Source\PSoC4/SinUsar_25.c **** * Function Name: SinUsar_25_ReadDataReg
 144:Generated_Source\PSoC4/SinUsar_25.c **** ****************************************************************************//**
 145:Generated_Source\PSoC4/SinUsar_25.c **** *
 146:Generated_Source\PSoC4/SinUsar_25.c **** * \brief Reads the associated physical port's data output register and masks 
 147:Generated_Source\PSoC4/SinUsar_25.c **** *  the correct bits according to the width and bit position of the component 
 148:Generated_Source\PSoC4/SinUsar_25.c **** *  instance. 
 149:Generated_Source\PSoC4/SinUsar_25.c **** *
 150:Generated_Source\PSoC4/SinUsar_25.c **** * The data output register controls the signal applied to the physical pin in 
 151:Generated_Source\PSoC4/SinUsar_25.c **** * conjunction with the drive mode parameter. This is not the same as the 
 152:Generated_Source\PSoC4/SinUsar_25.c **** * preferred SinUsar_25_Read() API because the 
 153:Generated_Source\PSoC4/SinUsar_25.c **** * SinUsar_25_ReadDataReg() reads the data register instead of the status 
 154:Generated_Source\PSoC4/SinUsar_25.c **** * register. For output pins this is a useful function to determine the value 
 155:Generated_Source\PSoC4/SinUsar_25.c **** * just written to the pin.
 156:Generated_Source\PSoC4/SinUsar_25.c **** *
 157:Generated_Source\PSoC4/SinUsar_25.c **** * \return 
 158:Generated_Source\PSoC4/SinUsar_25.c **** *  The current value of the data register masked and shifted into a right 
 159:Generated_Source\PSoC4/SinUsar_25.c **** *  justified number for the component instance.
 160:Generated_Source\PSoC4/SinUsar_25.c **** *
 161:Generated_Source\PSoC4/SinUsar_25.c **** * \funcusage
 162:Generated_Source\PSoC4/SinUsar_25.c **** *  \snippet SinUsar_25_SUT.c usage_SinUsar_25_ReadDataReg 
 163:Generated_Source\PSoC4/SinUsar_25.c **** *******************************************************************************/
 164:Generated_Source\PSoC4/SinUsar_25.c **** uint8 SinUsar_25_ReadDataReg(void)
 165:Generated_Source\PSoC4/SinUsar_25.c **** {
 118              		.loc 1 165 0
 119              		.cfi_startproc
 166:Generated_Source\PSoC4/SinUsar_25.c ****     return (uint8)((SinUsar_25_DR & SinUsar_25_MASK) >> SinUsar_25_SHIFT);
ARM GAS  C:\Users\Elea\AppData\Local\Temp\cc42TJkk.s 			page 6


 120              		.loc 1 166 0
 121 0000 024B     		ldr	r3, .L11
 122 0002 1868     		ldr	r0, [r3]
 123 0004 C006     		lsl	r0, r0, #27
 124 0006 C00F     		lsr	r0, r0, #31
 167:Generated_Source\PSoC4/SinUsar_25.c **** }
 125              		.loc 1 167 0
 126              		@ sp needed
 127 0008 7047     		bx	lr
 128              	.L12:
 129 000a C046     		.align	2
 130              	.L11:
 131 000c 00020440 		.word	1074004480
 132              		.cfi_endproc
 133              	.LFE3:
 134              		.size	SinUsar_25_ReadDataReg, .-SinUsar_25_ReadDataReg
 135              		.section	.text.SinUsar_25_SetInterruptMode,"ax",%progbits
 136              		.align	2
 137              		.global	SinUsar_25_SetInterruptMode
 138              		.code	16
 139              		.thumb_func
 140              		.type	SinUsar_25_SetInterruptMode, %function
 141              	SinUsar_25_SetInterruptMode:
 142              	.LFB4:
 168:Generated_Source\PSoC4/SinUsar_25.c **** 
 169:Generated_Source\PSoC4/SinUsar_25.c **** 
 170:Generated_Source\PSoC4/SinUsar_25.c **** /*******************************************************************************
 171:Generated_Source\PSoC4/SinUsar_25.c **** * Function Name: SinUsar_25_SetInterruptMode
 172:Generated_Source\PSoC4/SinUsar_25.c **** ****************************************************************************//**
 173:Generated_Source\PSoC4/SinUsar_25.c **** *
 174:Generated_Source\PSoC4/SinUsar_25.c **** * \brief Configures the interrupt mode for each of the Pins component's
 175:Generated_Source\PSoC4/SinUsar_25.c **** *  pins. Alternatively you may set the interrupt mode for all the pins
 176:Generated_Source\PSoC4/SinUsar_25.c **** *  specified in the Pins component.
 177:Generated_Source\PSoC4/SinUsar_25.c **** *
 178:Generated_Source\PSoC4/SinUsar_25.c **** *  <b>Note</b> The interrupt is port-wide and therefore any enabled pin
 179:Generated_Source\PSoC4/SinUsar_25.c **** *  interrupt may trigger it.
 180:Generated_Source\PSoC4/SinUsar_25.c **** *
 181:Generated_Source\PSoC4/SinUsar_25.c **** * \param position
 182:Generated_Source\PSoC4/SinUsar_25.c **** *  The pin position as listed in the Pins component. You may OR these to be 
 183:Generated_Source\PSoC4/SinUsar_25.c **** *  able to configure the interrupt mode of multiple pins within a Pins 
 184:Generated_Source\PSoC4/SinUsar_25.c **** *  component. Or you may use SinUsar_25_INTR_ALL to configure the
 185:Generated_Source\PSoC4/SinUsar_25.c **** *  interrupt mode of all the pins in the Pins component.       
 186:Generated_Source\PSoC4/SinUsar_25.c **** *  - SinUsar_25_0_INTR       (First pin in the list)
 187:Generated_Source\PSoC4/SinUsar_25.c **** *  - SinUsar_25_1_INTR       (Second pin in the list)
 188:Generated_Source\PSoC4/SinUsar_25.c **** *  - ...
 189:Generated_Source\PSoC4/SinUsar_25.c **** *  - SinUsar_25_INTR_ALL     (All pins in Pins component)
 190:Generated_Source\PSoC4/SinUsar_25.c **** *
 191:Generated_Source\PSoC4/SinUsar_25.c **** * \param mode
 192:Generated_Source\PSoC4/SinUsar_25.c **** *  Interrupt mode for the selected pins. Valid options are documented in
 193:Generated_Source\PSoC4/SinUsar_25.c **** *  \ref intrMode.
 194:Generated_Source\PSoC4/SinUsar_25.c **** *
 195:Generated_Source\PSoC4/SinUsar_25.c **** * \return 
 196:Generated_Source\PSoC4/SinUsar_25.c **** *  None
 197:Generated_Source\PSoC4/SinUsar_25.c **** *  
 198:Generated_Source\PSoC4/SinUsar_25.c **** * \sideeffect
 199:Generated_Source\PSoC4/SinUsar_25.c **** *  It is recommended that the interrupt be disabled before calling this 
 200:Generated_Source\PSoC4/SinUsar_25.c **** *  function to avoid unintended interrupt requests. Note that the interrupt
ARM GAS  C:\Users\Elea\AppData\Local\Temp\cc42TJkk.s 			page 7


 201:Generated_Source\PSoC4/SinUsar_25.c **** *  type is port wide, and therefore will trigger for any enabled pin on the 
 202:Generated_Source\PSoC4/SinUsar_25.c **** *  port.
 203:Generated_Source\PSoC4/SinUsar_25.c **** *
 204:Generated_Source\PSoC4/SinUsar_25.c **** * \funcusage
 205:Generated_Source\PSoC4/SinUsar_25.c **** *  \snippet SinUsar_25_SUT.c usage_SinUsar_25_SetInterruptMode
 206:Generated_Source\PSoC4/SinUsar_25.c **** *******************************************************************************/
 207:Generated_Source\PSoC4/SinUsar_25.c **** void SinUsar_25_SetInterruptMode(uint16 position, uint16 mode)
 208:Generated_Source\PSoC4/SinUsar_25.c **** {
 143              		.loc 1 208 0
 144              		.cfi_startproc
 145              	.LVL6:
 209:Generated_Source\PSoC4/SinUsar_25.c ****     uint32 intrCfg;
 210:Generated_Source\PSoC4/SinUsar_25.c ****     
 211:Generated_Source\PSoC4/SinUsar_25.c ****     intrCfg =  SinUsar_25_INTCFG & (uint32)(~(uint32)position);
 146              		.loc 1 211 0
 147 0000 034A     		ldr	r2, .L14
 148 0002 1368     		ldr	r3, [r2]
 149 0004 8343     		bic	r3, r0
 150              	.LVL7:
 212:Generated_Source\PSoC4/SinUsar_25.c ****     SinUsar_25_INTCFG = intrCfg | ((uint32)position & (uint32)mode);
 151              		.loc 1 212 0
 152 0006 0140     		and	r1, r0
 153              	.LVL8:
 154 0008 1943     		orr	r1, r3
 155 000a 1160     		str	r1, [r2]
 213:Generated_Source\PSoC4/SinUsar_25.c **** }
 156              		.loc 1 213 0
 157              		@ sp needed
 158 000c 7047     		bx	lr
 159              	.L15:
 160 000e C046     		.align	2
 161              	.L14:
 162 0010 0C020440 		.word	1074004492
 163              		.cfi_endproc
 164              	.LFE4:
 165              		.size	SinUsar_25_SetInterruptMode, .-SinUsar_25_SetInterruptMode
 166              		.section	.text.SinUsar_25_ClearInterrupt,"ax",%progbits
 167              		.align	2
 168              		.global	SinUsar_25_ClearInterrupt
 169              		.code	16
 170              		.thumb_func
 171              		.type	SinUsar_25_ClearInterrupt, %function
 172              	SinUsar_25_ClearInterrupt:
 173              	.LFB5:
 214:Generated_Source\PSoC4/SinUsar_25.c **** 
 215:Generated_Source\PSoC4/SinUsar_25.c **** 
 216:Generated_Source\PSoC4/SinUsar_25.c **** /*******************************************************************************
 217:Generated_Source\PSoC4/SinUsar_25.c **** * Function Name: SinUsar_25_ClearInterrupt
 218:Generated_Source\PSoC4/SinUsar_25.c **** ****************************************************************************//**
 219:Generated_Source\PSoC4/SinUsar_25.c **** *
 220:Generated_Source\PSoC4/SinUsar_25.c **** * \brief Clears any active interrupts attached with the component and returns 
 221:Generated_Source\PSoC4/SinUsar_25.c **** *  the value of the interrupt status register allowing determination of which
 222:Generated_Source\PSoC4/SinUsar_25.c **** *  pins generated an interrupt event.
 223:Generated_Source\PSoC4/SinUsar_25.c **** *
 224:Generated_Source\PSoC4/SinUsar_25.c **** * \return 
 225:Generated_Source\PSoC4/SinUsar_25.c **** *  The right-shifted current value of the interrupt status register. Each pin 
 226:Generated_Source\PSoC4/SinUsar_25.c **** *  has one bit set if it generated an interrupt event. For example, bit 0 is 
ARM GAS  C:\Users\Elea\AppData\Local\Temp\cc42TJkk.s 			page 8


 227:Generated_Source\PSoC4/SinUsar_25.c **** *  for pin 0 and bit 1 is for pin 1 of the Pins component.
 228:Generated_Source\PSoC4/SinUsar_25.c **** *  
 229:Generated_Source\PSoC4/SinUsar_25.c **** * \sideeffect
 230:Generated_Source\PSoC4/SinUsar_25.c **** *  Clears all bits of the physical port's interrupt status register, not just
 231:Generated_Source\PSoC4/SinUsar_25.c **** *  those associated with the Pins component.
 232:Generated_Source\PSoC4/SinUsar_25.c **** *
 233:Generated_Source\PSoC4/SinUsar_25.c **** * \funcusage
 234:Generated_Source\PSoC4/SinUsar_25.c **** *  \snippet SinUsar_25_SUT.c usage_SinUsar_25_ClearInterrupt
 235:Generated_Source\PSoC4/SinUsar_25.c **** *******************************************************************************/
 236:Generated_Source\PSoC4/SinUsar_25.c **** uint8 SinUsar_25_ClearInterrupt(void)
 237:Generated_Source\PSoC4/SinUsar_25.c **** {
 174              		.loc 1 237 0
 175              		.cfi_startproc
 238:Generated_Source\PSoC4/SinUsar_25.c **** 	uint8 maskedStatus = (uint8)(SinUsar_25_INTSTAT & SinUsar_25_MASK);
 176              		.loc 1 238 0
 177 0000 034A     		ldr	r2, .L17
 178 0002 1068     		ldr	r0, [r2]
 179 0004 1023     		mov	r3, #16
 180 0006 1840     		and	r0, r3
 181              	.LVL9:
 239:Generated_Source\PSoC4/SinUsar_25.c **** 	SinUsar_25_INTSTAT = maskedStatus;
 182              		.loc 1 239 0
 183 0008 1060     		str	r0, [r2]
 240:Generated_Source\PSoC4/SinUsar_25.c ****     return maskedStatus >> SinUsar_25_SHIFT;
 184              		.loc 1 240 0
 185 000a 0009     		lsr	r0, r0, #4
 186              	.LVL10:
 187 000c C0B2     		uxtb	r0, r0
 241:Generated_Source\PSoC4/SinUsar_25.c **** }
 188              		.loc 1 241 0
 189              		@ sp needed
 190 000e 7047     		bx	lr
 191              	.L18:
 192              		.align	2
 193              	.L17:
 194 0010 10020440 		.word	1074004496
 195              		.cfi_endproc
 196              	.LFE5:
 197              		.size	SinUsar_25_ClearInterrupt, .-SinUsar_25_ClearInterrupt
 198              		.text
 199              	.Letext0:
 200              		.file 2 "Generated_Source\\PSoC4\\cytypes.h"
 201              		.section	.debug_info,"",%progbits
 202              	.Ldebug_info0:
 203 0000 99010000 		.4byte	0x199
 204 0004 0400     		.2byte	0x4
 205 0006 00000000 		.4byte	.Ldebug_abbrev0
 206 000a 04       		.byte	0x4
 207 000b 01       		.uleb128 0x1
 208 000c 85010000 		.4byte	.LASF28
 209 0010 01       		.byte	0x1
 210 0011 61010000 		.4byte	.LASF29
 211 0015 06000000 		.4byte	.LASF30
 212 0019 00000000 		.4byte	.Ldebug_ranges0+0
 213 001d 00000000 		.4byte	0
 214 0021 00000000 		.4byte	.Ldebug_line0
 215 0025 02       		.uleb128 0x2
ARM GAS  C:\Users\Elea\AppData\Local\Temp\cc42TJkk.s 			page 9


 216 0026 01       		.byte	0x1
 217 0027 06       		.byte	0x6
 218 0028 2C020000 		.4byte	.LASF0
 219 002c 02       		.uleb128 0x2
 220 002d 01       		.byte	0x1
 221 002e 08       		.byte	0x8
 222 002f 65000000 		.4byte	.LASF1
 223 0033 02       		.uleb128 0x2
 224 0034 02       		.byte	0x2
 225 0035 05       		.byte	0x5
 226 0036 13020000 		.4byte	.LASF2
 227 003a 02       		.uleb128 0x2
 228 003b 02       		.byte	0x2
 229 003c 07       		.byte	0x7
 230 003d 8B000000 		.4byte	.LASF3
 231 0041 02       		.uleb128 0x2
 232 0042 04       		.byte	0x4
 233 0043 05       		.byte	0x5
 234 0044 23020000 		.4byte	.LASF4
 235 0048 02       		.uleb128 0x2
 236 0049 04       		.byte	0x4
 237 004a 07       		.byte	0x7
 238 004b 79000000 		.4byte	.LASF5
 239 004f 02       		.uleb128 0x2
 240 0050 08       		.byte	0x8
 241 0051 05       		.byte	0x5
 242 0052 41010000 		.4byte	.LASF6
 243 0056 02       		.uleb128 0x2
 244 0057 08       		.byte	0x8
 245 0058 07       		.byte	0x7
 246 0059 D1000000 		.4byte	.LASF7
 247 005d 03       		.uleb128 0x3
 248 005e 04       		.byte	0x4
 249 005f 05       		.byte	0x5
 250 0060 696E7400 		.ascii	"int\000"
 251 0064 02       		.uleb128 0x2
 252 0065 04       		.byte	0x4
 253 0066 07       		.byte	0x7
 254 0067 C4000000 		.4byte	.LASF8
 255 006b 04       		.uleb128 0x4
 256 006c 1D020000 		.4byte	.LASF9
 257 0070 02       		.byte	0x2
 258 0071 B901     		.2byte	0x1b9
 259 0073 2C000000 		.4byte	0x2c
 260 0077 04       		.uleb128 0x4
 261 0078 A5000000 		.4byte	.LASF10
 262 007c 02       		.byte	0x2
 263 007d BA01     		.2byte	0x1ba
 264 007f 3A000000 		.4byte	0x3a
 265 0083 04       		.uleb128 0x4
 266 0084 B5000000 		.4byte	.LASF11
 267 0088 02       		.byte	0x2
 268 0089 BB01     		.2byte	0x1bb
 269 008b 48000000 		.4byte	0x48
 270 008f 02       		.uleb128 0x2
 271 0090 04       		.byte	0x4
 272 0091 04       		.byte	0x4
ARM GAS  C:\Users\Elea\AppData\Local\Temp\cc42TJkk.s 			page 10


 273 0092 47000000 		.4byte	.LASF12
 274 0096 02       		.uleb128 0x2
 275 0097 08       		.byte	0x8
 276 0098 04       		.byte	0x4
 277 0099 9E000000 		.4byte	.LASF13
 278 009d 02       		.uleb128 0x2
 279 009e 01       		.byte	0x1
 280 009f 08       		.byte	0x8
 281 00a0 5C010000 		.4byte	.LASF14
 282 00a4 04       		.uleb128 0x4
 283 00a5 00000000 		.4byte	.LASF15
 284 00a9 02       		.byte	0x2
 285 00aa 6502     		.2byte	0x265
 286 00ac B0000000 		.4byte	0xb0
 287 00b0 05       		.uleb128 0x5
 288 00b1 83000000 		.4byte	0x83
 289 00b5 06       		.uleb128 0x6
 290 00b6 4D000000 		.4byte	.LASF16
 291 00ba 01       		.byte	0x1
 292 00bb 48       		.byte	0x48
 293 00bc 00000000 		.4byte	.LFB0
 294 00c0 18000000 		.4byte	.LFE0-.LFB0
 295 00c4 01       		.uleb128 0x1
 296 00c5 9C       		.byte	0x9c
 297 00c6 DA000000 		.4byte	0xda
 298 00ca 07       		.uleb128 0x7
 299 00cb E8000000 		.4byte	.LASF18
 300 00cf 01       		.byte	0x1
 301 00d0 48       		.byte	0x48
 302 00d1 6B000000 		.4byte	0x6b
 303 00d5 00000000 		.4byte	.LLST0
 304 00d9 00       		.byte	0
 305 00da 06       		.uleb128 0x6
 306 00db FD000000 		.4byte	.LASF17
 307 00df 01       		.byte	0x1
 308 00e0 6F       		.byte	0x6f
 309 00e1 00000000 		.4byte	.LFB1
 310 00e5 18000000 		.4byte	.LFE1-.LFB1
 311 00e9 01       		.uleb128 0x1
 312 00ea 9C       		.byte	0x9c
 313 00eb 0E010000 		.4byte	0x10e
 314 00ef 07       		.uleb128 0x7
 315 00f0 41000000 		.4byte	.LASF19
 316 00f4 01       		.byte	0x1
 317 00f5 6F       		.byte	0x6f
 318 00f6 6B000000 		.4byte	0x6b
 319 00fa 21000000 		.4byte	.LLST1
 320 00fe 08       		.uleb128 0x8
 321 00ff 73000000 		.4byte	.LASF24
 322 0103 01       		.byte	0x1
 323 0104 71       		.byte	0x71
 324 0105 6B000000 		.4byte	0x6b
 325 0109 42000000 		.4byte	.LLST2
 326 010d 00       		.byte	0
 327 010e 09       		.uleb128 0x9
 328 010f ED000000 		.4byte	.LASF20
 329 0113 01       		.byte	0x1
ARM GAS  C:\Users\Elea\AppData\Local\Temp\cc42TJkk.s 			page 11


 330 0114 88       		.byte	0x88
 331 0115 6B000000 		.4byte	0x6b
 332 0119 00000000 		.4byte	.LFB2
 333 011d 10000000 		.4byte	.LFE2-.LFB2
 334 0121 01       		.uleb128 0x1
 335 0122 9C       		.byte	0x9c
 336 0123 09       		.uleb128 0x9
 337 0124 2A010000 		.4byte	.LASF21
 338 0128 01       		.byte	0x1
 339 0129 A4       		.byte	0xa4
 340 012a 6B000000 		.4byte	0x6b
 341 012e 00000000 		.4byte	.LFB3
 342 0132 10000000 		.4byte	.LFE3-.LFB3
 343 0136 01       		.uleb128 0x1
 344 0137 9C       		.byte	0x9c
 345 0138 06       		.uleb128 0x6
 346 0139 0E010000 		.4byte	.LASF22
 347 013d 01       		.byte	0x1
 348 013e CF       		.byte	0xcf
 349 013f 00000000 		.4byte	.LFB4
 350 0143 14000000 		.4byte	.LFE4-.LFB4
 351 0147 01       		.uleb128 0x1
 352 0148 9C       		.byte	0x9c
 353 0149 77010000 		.4byte	0x177
 354 014d 0A       		.uleb128 0xa
 355 014e AC000000 		.4byte	.LASF23
 356 0152 01       		.byte	0x1
 357 0153 CF       		.byte	0xcf
 358 0154 77000000 		.4byte	0x77
 359 0158 01       		.uleb128 0x1
 360 0159 50       		.byte	0x50
 361 015a 07       		.uleb128 0x7
 362 015b E8000000 		.4byte	.LASF18
 363 015f 01       		.byte	0x1
 364 0160 CF       		.byte	0xcf
 365 0161 77000000 		.4byte	0x77
 366 0165 60000000 		.4byte	.LLST3
 367 0169 0B       		.uleb128 0xb
 368 016a BC000000 		.4byte	.LASF25
 369 016e 01       		.byte	0x1
 370 016f D1       		.byte	0xd1
 371 0170 83000000 		.4byte	0x83
 372 0174 01       		.uleb128 0x1
 373 0175 53       		.byte	0x53
 374 0176 00       		.byte	0
 375 0177 0C       		.uleb128 0xc
 376 0178 38020000 		.4byte	.LASF26
 377 017c 01       		.byte	0x1
 378 017d EC       		.byte	0xec
 379 017e 6B000000 		.4byte	0x6b
 380 0182 00000000 		.4byte	.LFB5
 381 0186 14000000 		.4byte	.LFE5-.LFB5
 382 018a 01       		.uleb128 0x1
 383 018b 9C       		.byte	0x9c
 384 018c 08       		.uleb128 0x8
 385 018d 4F010000 		.4byte	.LASF27
 386 0191 01       		.byte	0x1
ARM GAS  C:\Users\Elea\AppData\Local\Temp\cc42TJkk.s 			page 12


 387 0192 EE       		.byte	0xee
 388 0193 6B000000 		.4byte	0x6b
 389 0197 81000000 		.4byte	.LLST4
 390 019b 00       		.byte	0
 391 019c 00       		.byte	0
 392              		.section	.debug_abbrev,"",%progbits
 393              	.Ldebug_abbrev0:
 394 0000 01       		.uleb128 0x1
 395 0001 11       		.uleb128 0x11
 396 0002 01       		.byte	0x1
 397 0003 25       		.uleb128 0x25
 398 0004 0E       		.uleb128 0xe
 399 0005 13       		.uleb128 0x13
 400 0006 0B       		.uleb128 0xb
 401 0007 03       		.uleb128 0x3
 402 0008 0E       		.uleb128 0xe
 403 0009 1B       		.uleb128 0x1b
 404 000a 0E       		.uleb128 0xe
 405 000b 55       		.uleb128 0x55
 406 000c 17       		.uleb128 0x17
 407 000d 11       		.uleb128 0x11
 408 000e 01       		.uleb128 0x1
 409 000f 10       		.uleb128 0x10
 410 0010 17       		.uleb128 0x17
 411 0011 00       		.byte	0
 412 0012 00       		.byte	0
 413 0013 02       		.uleb128 0x2
 414 0014 24       		.uleb128 0x24
 415 0015 00       		.byte	0
 416 0016 0B       		.uleb128 0xb
 417 0017 0B       		.uleb128 0xb
 418 0018 3E       		.uleb128 0x3e
 419 0019 0B       		.uleb128 0xb
 420 001a 03       		.uleb128 0x3
 421 001b 0E       		.uleb128 0xe
 422 001c 00       		.byte	0
 423 001d 00       		.byte	0
 424 001e 03       		.uleb128 0x3
 425 001f 24       		.uleb128 0x24
 426 0020 00       		.byte	0
 427 0021 0B       		.uleb128 0xb
 428 0022 0B       		.uleb128 0xb
 429 0023 3E       		.uleb128 0x3e
 430 0024 0B       		.uleb128 0xb
 431 0025 03       		.uleb128 0x3
 432 0026 08       		.uleb128 0x8
 433 0027 00       		.byte	0
 434 0028 00       		.byte	0
 435 0029 04       		.uleb128 0x4
 436 002a 16       		.uleb128 0x16
 437 002b 00       		.byte	0
 438 002c 03       		.uleb128 0x3
 439 002d 0E       		.uleb128 0xe
 440 002e 3A       		.uleb128 0x3a
 441 002f 0B       		.uleb128 0xb
 442 0030 3B       		.uleb128 0x3b
 443 0031 05       		.uleb128 0x5
ARM GAS  C:\Users\Elea\AppData\Local\Temp\cc42TJkk.s 			page 13


 444 0032 49       		.uleb128 0x49
 445 0033 13       		.uleb128 0x13
 446 0034 00       		.byte	0
 447 0035 00       		.byte	0
 448 0036 05       		.uleb128 0x5
 449 0037 35       		.uleb128 0x35
 450 0038 00       		.byte	0
 451 0039 49       		.uleb128 0x49
 452 003a 13       		.uleb128 0x13
 453 003b 00       		.byte	0
 454 003c 00       		.byte	0
 455 003d 06       		.uleb128 0x6
 456 003e 2E       		.uleb128 0x2e
 457 003f 01       		.byte	0x1
 458 0040 3F       		.uleb128 0x3f
 459 0041 19       		.uleb128 0x19
 460 0042 03       		.uleb128 0x3
 461 0043 0E       		.uleb128 0xe
 462 0044 3A       		.uleb128 0x3a
 463 0045 0B       		.uleb128 0xb
 464 0046 3B       		.uleb128 0x3b
 465 0047 0B       		.uleb128 0xb
 466 0048 27       		.uleb128 0x27
 467 0049 19       		.uleb128 0x19
 468 004a 11       		.uleb128 0x11
 469 004b 01       		.uleb128 0x1
 470 004c 12       		.uleb128 0x12
 471 004d 06       		.uleb128 0x6
 472 004e 40       		.uleb128 0x40
 473 004f 18       		.uleb128 0x18
 474 0050 9742     		.uleb128 0x2117
 475 0052 19       		.uleb128 0x19
 476 0053 01       		.uleb128 0x1
 477 0054 13       		.uleb128 0x13
 478 0055 00       		.byte	0
 479 0056 00       		.byte	0
 480 0057 07       		.uleb128 0x7
 481 0058 05       		.uleb128 0x5
 482 0059 00       		.byte	0
 483 005a 03       		.uleb128 0x3
 484 005b 0E       		.uleb128 0xe
 485 005c 3A       		.uleb128 0x3a
 486 005d 0B       		.uleb128 0xb
 487 005e 3B       		.uleb128 0x3b
 488 005f 0B       		.uleb128 0xb
 489 0060 49       		.uleb128 0x49
 490 0061 13       		.uleb128 0x13
 491 0062 02       		.uleb128 0x2
 492 0063 17       		.uleb128 0x17
 493 0064 00       		.byte	0
 494 0065 00       		.byte	0
 495 0066 08       		.uleb128 0x8
 496 0067 34       		.uleb128 0x34
 497 0068 00       		.byte	0
 498 0069 03       		.uleb128 0x3
 499 006a 0E       		.uleb128 0xe
 500 006b 3A       		.uleb128 0x3a
ARM GAS  C:\Users\Elea\AppData\Local\Temp\cc42TJkk.s 			page 14


 501 006c 0B       		.uleb128 0xb
 502 006d 3B       		.uleb128 0x3b
 503 006e 0B       		.uleb128 0xb
 504 006f 49       		.uleb128 0x49
 505 0070 13       		.uleb128 0x13
 506 0071 02       		.uleb128 0x2
 507 0072 17       		.uleb128 0x17
 508 0073 00       		.byte	0
 509 0074 00       		.byte	0
 510 0075 09       		.uleb128 0x9
 511 0076 2E       		.uleb128 0x2e
 512 0077 00       		.byte	0
 513 0078 3F       		.uleb128 0x3f
 514 0079 19       		.uleb128 0x19
 515 007a 03       		.uleb128 0x3
 516 007b 0E       		.uleb128 0xe
 517 007c 3A       		.uleb128 0x3a
 518 007d 0B       		.uleb128 0xb
 519 007e 3B       		.uleb128 0x3b
 520 007f 0B       		.uleb128 0xb
 521 0080 27       		.uleb128 0x27
 522 0081 19       		.uleb128 0x19
 523 0082 49       		.uleb128 0x49
 524 0083 13       		.uleb128 0x13
 525 0084 11       		.uleb128 0x11
 526 0085 01       		.uleb128 0x1
 527 0086 12       		.uleb128 0x12
 528 0087 06       		.uleb128 0x6
 529 0088 40       		.uleb128 0x40
 530 0089 18       		.uleb128 0x18
 531 008a 9742     		.uleb128 0x2117
 532 008c 19       		.uleb128 0x19
 533 008d 00       		.byte	0
 534 008e 00       		.byte	0
 535 008f 0A       		.uleb128 0xa
 536 0090 05       		.uleb128 0x5
 537 0091 00       		.byte	0
 538 0092 03       		.uleb128 0x3
 539 0093 0E       		.uleb128 0xe
 540 0094 3A       		.uleb128 0x3a
 541 0095 0B       		.uleb128 0xb
 542 0096 3B       		.uleb128 0x3b
 543 0097 0B       		.uleb128 0xb
 544 0098 49       		.uleb128 0x49
 545 0099 13       		.uleb128 0x13
 546 009a 02       		.uleb128 0x2
 547 009b 18       		.uleb128 0x18
 548 009c 00       		.byte	0
 549 009d 00       		.byte	0
 550 009e 0B       		.uleb128 0xb
 551 009f 34       		.uleb128 0x34
 552 00a0 00       		.byte	0
 553 00a1 03       		.uleb128 0x3
 554 00a2 0E       		.uleb128 0xe
 555 00a3 3A       		.uleb128 0x3a
 556 00a4 0B       		.uleb128 0xb
 557 00a5 3B       		.uleb128 0x3b
ARM GAS  C:\Users\Elea\AppData\Local\Temp\cc42TJkk.s 			page 15


 558 00a6 0B       		.uleb128 0xb
 559 00a7 49       		.uleb128 0x49
 560 00a8 13       		.uleb128 0x13
 561 00a9 02       		.uleb128 0x2
 562 00aa 18       		.uleb128 0x18
 563 00ab 00       		.byte	0
 564 00ac 00       		.byte	0
 565 00ad 0C       		.uleb128 0xc
 566 00ae 2E       		.uleb128 0x2e
 567 00af 01       		.byte	0x1
 568 00b0 3F       		.uleb128 0x3f
 569 00b1 19       		.uleb128 0x19
 570 00b2 03       		.uleb128 0x3
 571 00b3 0E       		.uleb128 0xe
 572 00b4 3A       		.uleb128 0x3a
 573 00b5 0B       		.uleb128 0xb
 574 00b6 3B       		.uleb128 0x3b
 575 00b7 0B       		.uleb128 0xb
 576 00b8 27       		.uleb128 0x27
 577 00b9 19       		.uleb128 0x19
 578 00ba 49       		.uleb128 0x49
 579 00bb 13       		.uleb128 0x13
 580 00bc 11       		.uleb128 0x11
 581 00bd 01       		.uleb128 0x1
 582 00be 12       		.uleb128 0x12
 583 00bf 06       		.uleb128 0x6
 584 00c0 40       		.uleb128 0x40
 585 00c1 18       		.uleb128 0x18
 586 00c2 9742     		.uleb128 0x2117
 587 00c4 19       		.uleb128 0x19
 588 00c5 00       		.byte	0
 589 00c6 00       		.byte	0
 590 00c7 00       		.byte	0
 591              		.section	.debug_loc,"",%progbits
 592              	.Ldebug_loc0:
 593              	.LLST0:
 594 0000 00000000 		.4byte	.LVL0
 595 0004 0A000000 		.4byte	.LVL1
 596 0008 0100     		.2byte	0x1
 597 000a 50       		.byte	0x50
 598 000b 0A000000 		.4byte	.LVL1
 599 000f 18000000 		.4byte	.LFE0
 600 0013 0400     		.2byte	0x4
 601 0015 F3       		.byte	0xf3
 602 0016 01       		.uleb128 0x1
 603 0017 50       		.byte	0x50
 604 0018 9F       		.byte	0x9f
 605 0019 00000000 		.4byte	0
 606 001d 00000000 		.4byte	0
 607              	.LLST1:
 608 0021 00000000 		.4byte	.LVL2
 609 0025 0A000000 		.4byte	.LVL4
 610 0029 0100     		.2byte	0x1
 611 002b 50       		.byte	0x50
 612 002c 0A000000 		.4byte	.LVL4
 613 0030 18000000 		.4byte	.LFE1
 614 0034 0400     		.2byte	0x4
ARM GAS  C:\Users\Elea\AppData\Local\Temp\cc42TJkk.s 			page 16


 615 0036 F3       		.byte	0xf3
 616 0037 01       		.uleb128 0x1
 617 0038 50       		.byte	0x50
 618 0039 9F       		.byte	0x9f
 619 003a 00000000 		.4byte	0
 620 003e 00000000 		.4byte	0
 621              	.LLST2:
 622 0042 08000000 		.4byte	.LVL3
 623 0046 10000000 		.4byte	.LVL5
 624 004a 0100     		.2byte	0x1
 625 004c 52       		.byte	0x52
 626 004d 10000000 		.4byte	.LVL5
 627 0051 18000000 		.4byte	.LFE1
 628 0055 0100     		.2byte	0x1
 629 0057 50       		.byte	0x50
 630 0058 00000000 		.4byte	0
 631 005c 00000000 		.4byte	0
 632              	.LLST3:
 633 0060 00000000 		.4byte	.LVL6
 634 0064 08000000 		.4byte	.LVL8
 635 0068 0100     		.2byte	0x1
 636 006a 51       		.byte	0x51
 637 006b 08000000 		.4byte	.LVL8
 638 006f 14000000 		.4byte	.LFE4
 639 0073 0400     		.2byte	0x4
 640 0075 F3       		.byte	0xf3
 641 0076 01       		.uleb128 0x1
 642 0077 51       		.byte	0x51
 643 0078 9F       		.byte	0x9f
 644 0079 00000000 		.4byte	0
 645 007d 00000000 		.4byte	0
 646              	.LLST4:
 647 0081 08000000 		.4byte	.LVL9
 648 0085 0C000000 		.4byte	.LVL10
 649 0089 0100     		.2byte	0x1
 650 008b 50       		.byte	0x50
 651 008c 0C000000 		.4byte	.LVL10
 652 0090 14000000 		.4byte	.LFE5
 653 0094 0400     		.2byte	0x4
 654 0096 72       		.byte	0x72
 655 0097 00       		.sleb128 0
 656 0098 06       		.byte	0x6
 657 0099 9F       		.byte	0x9f
 658 009a 00000000 		.4byte	0
 659 009e 00000000 		.4byte	0
 660              		.section	.debug_aranges,"",%progbits
 661 0000 44000000 		.4byte	0x44
 662 0004 0200     		.2byte	0x2
 663 0006 00000000 		.4byte	.Ldebug_info0
 664 000a 04       		.byte	0x4
 665 000b 00       		.byte	0
 666 000c 0000     		.2byte	0
 667 000e 0000     		.2byte	0
 668 0010 00000000 		.4byte	.LFB0
 669 0014 18000000 		.4byte	.LFE0-.LFB0
 670 0018 00000000 		.4byte	.LFB1
 671 001c 18000000 		.4byte	.LFE1-.LFB1
ARM GAS  C:\Users\Elea\AppData\Local\Temp\cc42TJkk.s 			page 17


 672 0020 00000000 		.4byte	.LFB2
 673 0024 10000000 		.4byte	.LFE2-.LFB2
 674 0028 00000000 		.4byte	.LFB3
 675 002c 10000000 		.4byte	.LFE3-.LFB3
 676 0030 00000000 		.4byte	.LFB4
 677 0034 14000000 		.4byte	.LFE4-.LFB4
 678 0038 00000000 		.4byte	.LFB5
 679 003c 14000000 		.4byte	.LFE5-.LFB5
 680 0040 00000000 		.4byte	0
 681 0044 00000000 		.4byte	0
 682              		.section	.debug_ranges,"",%progbits
 683              	.Ldebug_ranges0:
 684 0000 00000000 		.4byte	.LFB0
 685 0004 18000000 		.4byte	.LFE0
 686 0008 00000000 		.4byte	.LFB1
 687 000c 18000000 		.4byte	.LFE1
 688 0010 00000000 		.4byte	.LFB2
 689 0014 10000000 		.4byte	.LFE2
 690 0018 00000000 		.4byte	.LFB3
 691 001c 10000000 		.4byte	.LFE3
 692 0020 00000000 		.4byte	.LFB4
 693 0024 14000000 		.4byte	.LFE4
 694 0028 00000000 		.4byte	.LFB5
 695 002c 14000000 		.4byte	.LFE5
 696 0030 00000000 		.4byte	0
 697 0034 00000000 		.4byte	0
 698              		.section	.debug_line,"",%progbits
 699              	.Ldebug_line0:
 700 0000 BE000000 		.section	.debug_str,"MS",%progbits,1
 700      02004700 
 700      00000201 
 700      FB0E0D00 
 700      01010101 
 701              	.LASF15:
 702 0000 72656733 		.ascii	"reg32\000"
 702      3200
 703              	.LASF30:
 704 0006 433A5C55 		.ascii	"C:\\Users\\Elea\\Desktop\\DESARROLLO\\EleaTouch\\El"
 704      73657273 
 704      5C456C65 
 704      615C4465 
 704      736B746F 
 705 0033 6561546F 		.ascii	"eaTouch.cydsn\000"
 705      7563682E 
 705      63796473 
 705      6E00
 706              	.LASF19:
 707 0041 76616C75 		.ascii	"value\000"
 707      6500
 708              	.LASF12:
 709 0047 666C6F61 		.ascii	"float\000"
 709      7400
 710              	.LASF16:
 711 004d 53696E55 		.ascii	"SinUsar_25_SetDriveMode\000"
 711      7361725F 
 711      32355F53 
 711      65744472 
ARM GAS  C:\Users\Elea\AppData\Local\Temp\cc42TJkk.s 			page 18


 711      6976654D 
 712              	.LASF1:
 713 0065 756E7369 		.ascii	"unsigned char\000"
 713      676E6564 
 713      20636861 
 713      7200
 714              	.LASF24:
 715 0073 64725661 		.ascii	"drVal\000"
 715      6C00
 716              	.LASF5:
 717 0079 6C6F6E67 		.ascii	"long unsigned int\000"
 717      20756E73 
 717      69676E65 
 717      6420696E 
 717      7400
 718              	.LASF3:
 719 008b 73686F72 		.ascii	"short unsigned int\000"
 719      7420756E 
 719      7369676E 
 719      65642069 
 719      6E7400
 720              	.LASF13:
 721 009e 646F7562 		.ascii	"double\000"
 721      6C6500
 722              	.LASF10:
 723 00a5 75696E74 		.ascii	"uint16\000"
 723      313600
 724              	.LASF23:
 725 00ac 706F7369 		.ascii	"position\000"
 725      74696F6E 
 725      00
 726              	.LASF11:
 727 00b5 75696E74 		.ascii	"uint32\000"
 727      333200
 728              	.LASF25:
 729 00bc 696E7472 		.ascii	"intrCfg\000"
 729      43666700 
 730              	.LASF8:
 731 00c4 756E7369 		.ascii	"unsigned int\000"
 731      676E6564 
 731      20696E74 
 731      00
 732              	.LASF7:
 733 00d1 6C6F6E67 		.ascii	"long long unsigned int\000"
 733      206C6F6E 
 733      6720756E 
 733      7369676E 
 733      65642069 
 734              	.LASF18:
 735 00e8 6D6F6465 		.ascii	"mode\000"
 735      00
 736              	.LASF20:
 737 00ed 53696E55 		.ascii	"SinUsar_25_Read\000"
 737      7361725F 
 737      32355F52 
 737      65616400 
 738              	.LASF17:
ARM GAS  C:\Users\Elea\AppData\Local\Temp\cc42TJkk.s 			page 19


 739 00fd 53696E55 		.ascii	"SinUsar_25_Write\000"
 739      7361725F 
 739      32355F57 
 739      72697465 
 739      00
 740              	.LASF22:
 741 010e 53696E55 		.ascii	"SinUsar_25_SetInterruptMode\000"
 741      7361725F 
 741      32355F53 
 741      6574496E 
 741      74657272 
 742              	.LASF21:
 743 012a 53696E55 		.ascii	"SinUsar_25_ReadDataReg\000"
 743      7361725F 
 743      32355F52 
 743      65616444 
 743      61746152 
 744              	.LASF6:
 745 0141 6C6F6E67 		.ascii	"long long int\000"
 745      206C6F6E 
 745      6720696E 
 745      7400
 746              	.LASF27:
 747 014f 6D61736B 		.ascii	"maskedStatus\000"
 747      65645374 
 747      61747573 
 747      00
 748              	.LASF14:
 749 015c 63686172 		.ascii	"char\000"
 749      00
 750              	.LASF29:
 751 0161 47656E65 		.ascii	"Generated_Source\\PSoC4\\SinUsar_25.c\000"
 751      72617465 
 751      645F536F 
 751      75726365 
 751      5C50536F 
 752              	.LASF28:
 753 0185 474E5520 		.ascii	"GNU C 4.9.3 20150303 (release) [ARM/embedded-4_9-br"
 753      4320342E 
 753      392E3320 
 753      32303135 
 753      30333033 
 754 01b8 616E6368 		.ascii	"anch revision 221220] -mcpu=cortex-m0 -mthumb -g -O"
 754      20726576 
 754      6973696F 
 754      6E203232 
 754      31323230 
 755 01eb 67202D66 		.ascii	"g -ffunction-sections -ffat-lto-objects\000"
 755      66756E63 
 755      74696F6E 
 755      2D736563 
 755      74696F6E 
 756              	.LASF2:
 757 0213 73686F72 		.ascii	"short int\000"
 757      7420696E 
 757      7400
 758              	.LASF9:
ARM GAS  C:\Users\Elea\AppData\Local\Temp\cc42TJkk.s 			page 20


 759 021d 75696E74 		.ascii	"uint8\000"
 759      3800
 760              	.LASF4:
 761 0223 6C6F6E67 		.ascii	"long int\000"
 761      20696E74 
 761      00
 762              	.LASF0:
 763 022c 7369676E 		.ascii	"signed char\000"
 763      65642063 
 763      68617200 
 764              	.LASF26:
 765 0238 53696E55 		.ascii	"SinUsar_25_ClearInterrupt\000"
 765      7361725F 
 765      32355F43 
 765      6C656172 
 765      496E7465 
 766              		.ident	"GCC: (GNU Tools for ARM Embedded Processors) 4.9.3 20150303 (release) [ARM/embedded-4_9-br
